[{"page":1,"pages":317,"per_page":50,"total":15840,"sourceid":"2","lastupdated":"2020-03-18"},[{"indicator":{"id":"SH.XPD.CHEX.GD.ZS","value":"Current health expenditure (% of GDP)"},"country":{"id":"1A","value":"Arab World"},"countryiso3code":"ARB","date":"2019","value":null,"unit":"","obs_status":"","decimal":2},{"indicator":{"id":"SH.XPD.CHEX.GD.ZS","value":"Current health expenditure (% of GDP)"},"country":{"id":"1A","value":"Arab World"},"countryiso3code":"ARB","date":"2018","value":null,"unit":"","obs_status":"","decimal":2},{"indicator":{"id":"SH.XPD.CHEX.GD.ZS","value":"Current health expenditure (% of GDP)"},"country":{"id":"1A","value":"Arab World"},"countryiso3code":"ARB","date":"2017","value":null,"unit":"","obs_status":"","decimal":2},{"indicator":{"id":"SH.XPD.CHEX.GD.ZS","value":"Current health expenditure (% of GDP)"},"country":{"id":"1A","value":"Arab World"},"countryiso3code":"ARB","date":"2016","value":4.88791523189039,"unit":"","obs_status":"","decimal":2},{"indicator":{"id":"SH.XPD.CHEX.GD.ZS","value":"Current health expenditure (% of GDP)"},"country":{"id":"1A","value":"Arab World"},"countryiso3code":"ARB","date":"2015","value":5.02588388444174,"unit":"","obs_status":"","decimal":2},{"indicator":{"id":"SH.XPD.CHEX.GD.ZS","value":"Current health expenditure (% of GDP)"},"country":{"id":"1A","value":"Arab World"},"countryiso3code":"ARB","date":"2014","value":4.56728933431793,"unit":"","obs_status":"","decimal":2},{"indicator":{"id":"SH.XPD.CHEX.GD.ZS","value":"Current health expenditure (% of GDP)"},"country":{"id":"1A","value":"Arab World"},"countryiso3code":"ARB","date":"2013","value":4.2327786948989,"unit":"","obs_status":"","decimal":2},{"indicator":{"id":"SH.XPD.CHEX.GD.ZS","value":"Current health expenditure (% of GDP)"},"country":{"id":"1A","value":"Arab World"},"countryiso3code":"ARB","date":"2012","value":4.01266915879019,"unit":"","obs_status":"","decimal":2},{"indicator":{"id":"SH.XPD.CHEX.GD.ZS","value":"Current health expenditure (% of GDP)"},"country":{"id":"1A","value":"Arab World"},"countryiso3code":"ARB","date":"2011","value":3.94583390921951,"unit":"","obs_status":"","decimal":2},{"indicator":{"id":"SH.XPD.CHEX.GD.ZS","value":"Current health expenditure (% of GDP)"},"country":{"id":"1A","value":"Arab World"},"countryiso3code":"ARB","date":"2010","value":3.9870865658002,"unit":"","obs_status":"","decimal":2},{"indicator":{"id":"SH.XPD.CHEX.GD.ZS","value":"Current health expenditure (% of GDP)"},"country":{"id":"1A","value":"Arab World"},"countryiso3code":"ARB","date":"2009","value":4.45568829220644,"unit":"","obs_status":"","decimal":2},{"indicator":{"id":"SH.XPD.CHEX.GD.ZS","value":"Current health expenditure (% of GDP)"},"country":{"id":"1A","value":"Arab World"},"countryiso3code":"ARB","date":"2008","value":3.40448458855087,"unit":"","obs_status":"","decimal":2},{"indicator":{"id":"SH.XPD.CHEX.GD.ZS","value":"Current health expenditure (% of GDP)"},"country":{"id":"1A","value":"Arab World"},"countryiso3code":"ARB","date":"2007","value":3.57226478563448,"unit":"","obs_status":"","decimal":2},{"indicator":{"id":"SH.XPD.CHEX.GD.ZS","value":"Current health expenditure (% of GDP)"},"country":{"id":"1A","value":"Arab World"},"countryiso3code":"ARB","date":"2006","value":3.48456020775903,"unit":"","obs_status":"","decimal":2},{"indicator":{"id":"SH.XPD.CHEX.GD.ZS","value":"Current health expenditure (% of GDP)"},"country":{"id":"1A","value":"Arab World"},"countryiso3code":"ARB","date":"2005","value":3.48846781065254,"unit":"","obs_status":"","decimal":2},{"indicator":{"id":"SH.XPD.CHEX.GD.ZS","value":"Current health expenditure (% of GDP)"},"country":{"id":"1A","value":"Arab World"},"countryiso3code":"ARB","date":"2004","value":3.80046666300418,"unit":"","obs_status":"","decimal":2},{"indicator":{"id":"SH.XPD.CHEX.GD.ZS","value":"Current health expenditure (% of GDP)"},"country":{"id":"1A","value":"Arab World"},"countryiso3code":"ARB","date":"2003","value":4.12885762670652,"unit":"","obs_status":"","decimal":2},{"indicator":{"id":"SH.XPD.CHEX.GD.ZS","value":"Current health expenditure (% of GDP)"},"country":{"id":"1A","value":"Arab World"},"countryiso3code":"ARB","date":"2002","value":4.28273358420954,"unit":"","obs_status":"","decimal":2},{"indicator":{"id":"SH.XPD.CHEX.GD.ZS","value":"Current health expenditure (% of GDP)"},"country":{"id":"1A","value":"Arab World"},"countryiso3code":"ARB","date":"2001","value":4.29762697739377,"unit":"","obs_status":"","decimal":2},{"indicator":{"id":"SH.XPD.CHEX.GD.ZS","value":"Current health expenditure (% of GDP)"},"country":{"id":"1A","value":"Arab World"},"countryiso3code":"ARB","date":"2000","value":3.9947826840787,"unit":"","obs_status":"","decimal":2},{"indicator":{"id":"SH.XPD.CHEX.GD.ZS","value":"Current health expenditure (% of GDP)"},"country":{"id":"1A","value":"Arab World"},"countryiso3code":"ARB","date":"1999","value":null,"unit":"","obs_status":"","decimal":2},{"indicator":{"id":"SH.XPD.CHEX.GD.ZS","value":"Current health expenditure (% of GDP)"},"country":{"id":"1A","value":"Arab World"},"countryiso3code":"ARB","date":"1998","value":null,"unit":"","obs_status":"","decimal":2},{"indicator":{"id":"SH.XPD.CHEX.GD.ZS","value":"Current health expenditure (% of GDP)"},"country":{"id":"1A","value":"Arab World"},"countryiso3code":"ARB","date":"1997","value":null,"unit":"","obs_status":"","decimal":2},{"indicator":{"id":"SH.XPD.CHEX.GD.ZS","value":"Current health expenditure (% of GDP)"},"country":{"id":"1A","value":"Arab World"},"countryiso3code":"ARB","date":"1996","value":null,"unit":"","obs_status":"","decimal":2},{"indicator":{"id":"SH.XPD.CHEX.GD.ZS","value":"Current health expenditure (% of GDP)"},"country":{"id":"1A","value":"Arab World"},"countryiso3code":"ARB","date":"1995","value":null,"unit":"","obs_status":"","decimal":2},{"indicator":{"id":"SH.XPD.CHEX.GD.ZS","value":"Current health expenditure (% of GDP)"},"country":{"id":"1A","value":"Arab World"},"countryiso3code":"ARB","date":"1994","value":null,"unit":"","obs_status":"","decimal":2},{"indicator":{"id":"SH.XPD.CHEX.GD.ZS","value":"Current health expenditure (% of GDP)"},"country":{"id":"1A","value":"Arab World"},"countryiso3code":"ARB","date":"1993","value":null,"unit":"","obs_status":"","decimal":2},{"indicator":{"id":"SH.XPD.CHEX.GD.ZS","value":"Current health expenditure (% of GDP)"},"country":{"id":"1A","value":"Arab World"},"countryiso3code":"ARB","date":"1992","value":null,"unit":"","obs_status":"","decimal":2},{"indicator":{"id":"SH.XPD.CHEX.GD.ZS","value":"Current health expenditure (% of GDP)"},"country":{"id":"1A","value":"Arab World"},"countryiso3code":"ARB","date":"1991","value":null,"unit":"","obs_status":"","decimal":2},{"indicator":{"id":"SH.XPD.CHEX.GD.ZS","value":"Current health expenditure (% of GDP)"},"country":{"id":"1A","value":"Arab World"},"countryiso3code":"ARB","date":"1990","value":null,"unit":"","obs_status":"","decimal":2},{"indicator":{"id":"SH.XPD.CHEX.GD.ZS","value":"Current health expenditure (% of GDP)"},"country":{"id":"1A","value":"Arab World"},"countryiso3code":"ARB","date":"1989","value":null,"unit":"","obs_status":"","decimal":2},{"indicator":{"id":"SH.XPD.CHEX.GD.ZS","value":"Current health expenditure (% of GDP)"},"country":{"id":"1A","value":"Arab World"},"countryiso3code":"ARB","date":"1988","value":null,"unit":"","obs_status":"","decimal":2},{"indicator":{"id":"SH.XPD.CHEX.GD.ZS","value":"Current health expenditure (% of GDP)"},"country":{"id":"1A","value":"Arab World"},"countryiso3code":"ARB","date":"1987","value":null,"unit":"","obs_status":"","decimal":2},{"indicator":{"id":"SH.XPD.CHEX.GD.ZS","value":"Current health expenditure (% of GDP)"},"country":{"id":"1A","value":"Arab World"},"countryiso3code":"ARB","date":"1986","value":null,"unit":"","obs_status":"","decimal":2},{"indicator":{"id":"SH.XPD.CHEX.GD.ZS","value":"Current health expenditure (% of GDP)"},"country":{"id":"1A","value":"Arab World"},"countryiso3code":"ARB","date":"1985","value":null,"unit":"","obs_status":"","decimal":2},{"indicator":{"id":"SH.XPD.CHEX.GD.ZS","value":"Current health expenditure (% of GDP)"},"country":{"id":"1A","value":"Arab World"},"countryiso3code":"ARB","date":"1984","value":null,"unit":"","obs_status":"","decimal":2},{"indicator":{"id":"SH.XPD.CHEX.GD.ZS","value":"Current health expenditure (% of GDP)"},"country":{"id":"1A","value":"Arab World"},"countryiso3code":"ARB","date":"1983","value":null,"unit":"","obs_status":"","decimal":2},{"indicator":{"id":"SH.XPD.CHEX.GD.ZS","value":"Current health expenditure (% of GDP)"},"country":{"id":"1A","value":"Arab World"},"countryiso3code":"ARB","date":"1982","value":null,"unit":"","obs_status":"","decimal":2},{"indicator":{"id":"SH.XPD.CHEX.GD.ZS","value":"Current health expenditure (% of GDP)"},"country":{"id":"1A","value":"Arab World"},"countryiso3code":"ARB","date":"1981","value":null,"unit":"","obs_status":"","decimal":2},{"indicator":{"id":"SH.XPD.CHEX.GD.ZS","value":"Current health expenditure (% of GDP)"},"country":{"id":"1A","value":"Arab World"},"countryiso3code":"ARB","date":"1980","value":null,"unit":"","obs_status":"","decimal":2},{"indicator":{"id":"SH.XPD.CHEX.GD.ZS","value":"Current health expenditure (% of GDP)"},"country":{"id":"1A","value":"Arab World"},"countryiso3code":"ARB","date":"1979","value":null,"unit":"","obs_status":"","decimal":2},{"indicator":{"id":"SH.XPD.CHEX.GD.ZS","value":"Current health expenditure (% of GDP)"},"country":{"id":"1A","value":"Arab World"},"countryiso3code":"ARB","date":"1978","value":null,"unit":"","obs_status":"","decimal":2},{"indicator":{"id":"SH.XPD.CHEX.GD.ZS","value":"Current health expenditure (% of GDP)"},"country":{"id":"1A","value":"Arab World"},"countryiso3code":"ARB","date":"1977","value":null,"unit":"","obs_status":"","decimal":2},{"indicator":{"id":"SH.XPD.CHEX.GD.ZS","value":"Current health expenditure (% of GDP)"},"country":{"id":"1A","value":"Arab World"},"countryiso3code":"ARB","date":"1976","value":null,"unit":"","obs_status":"","decimal":2},{"indicator":{"id":"SH.XPD.CHEX.GD.ZS","value":"Current health expenditure (% of GDP)"},"country":{"id":"1A","value":"Arab World"},"countryiso3code":"ARB","date":"1975","value":null,"unit":"","obs_status":"","decimal":2},{"indicator":{"id":"SH.XPD.CHEX.GD.ZS","value":"Current health expenditure (% of GDP)"},"country":{"id":"1A","value":"Arab World"},"countryiso3code":"ARB","date":"1974","value":null,"unit":"","obs_status":"","decimal":2},{"indicator":{"id":"SH.XPD.CHEX.GD.ZS","value":"Current health expenditure (% of GDP)"},"country":{"id":"1A","value":"Arab World"},"countryiso3code":"ARB","date":"1973","value":null,"unit":"","obs_status":"","decimal":2},{"indicator":{"id":"SH.XPD.CHEX.GD.ZS","value":"Current health expenditure (% of GDP)"},"country":{"id":"1A","value":"Arab World"},"countryiso3code":"ARB","date":"1972","value":null,"unit":"","obs_status":"","decimal":2},{"indicator":{"id":"SH.XPD.CHEX.GD.ZS","value":"Current health expenditure (% of GDP)"},"country":{"id":"1A","value":"Arab World"},"countryiso3code":"ARB","date":"1971","value":null,"unit":"","obs_status":"","decimal":2},{"indicator":{"id":"SH.XPD.CHEX.GD.ZS","value":"Current health expenditure (% of GDP)"},"country":{"id":"1A","value":"Arab World"},"countryiso3code":"ARB","date":"1970","value":null,"unit":"","obs_status":"","decimal":2}]]