[{"page":1,"pages":317,"per_page":50,"total":15840,"sourceid":"12","lastupdated":"2020-03-18"},[{"indicator":{"id":"SH.MED.BEDS.ZS","value":"Hospital beds (per 1,000 people)"},"country":{"id":"1A","value":"Arab World"},"countryiso3code":"ARB","date":"2019","value":null,"unit":"","obs_status":"","decimal":1},{"indicator":{"id":"SH.MED.BEDS.ZS","value":"Hospital beds (per 1,000 people)"},"country":{"id":"1A","value":"Arab World"},"countryiso3code":"ARB","date":"2018","value":null,"unit":"","obs_status":"","decimal":1},{"indicator":{"id":"SH.MED.BEDS.ZS","value":"Hospital beds (per 1,000 people)"},"country":{"id":"1A","value":"Arab World"},"countryiso3code":"ARB","date":"2017","value":null,"unit":"","obs_status":"","decimal":1},{"indicator":{"id":"SH.MED.BEDS.ZS","value":"Hospital beds (per 1,000 people)"},"country":{"id":"1A","value":"Arab World"},"countryiso3code":"ARB","date":"2016","value":null,"unit":"","obs_status":"","decimal":1},{"indicator":{"id":"SH.MED.BEDS.ZS","value":"Hospital beds (per 1,000 people)"},"country":{"id":"1A","value":"Arab World"},"countryiso3code":"ARB","date":"2015","value":null,"unit":"","obs_status":"","decimal":1},{"indicator":{"id":"SH.MED.BEDS.ZS","value":"Hospital beds (per 1,000 people)"},"country":{"id":"1A","value":"Arab World"},"countryiso3code":"ARB","date":"2014","value":1.62452358185493,"unit":"","obs_status":"","decimal":1},{"indicator":{"id":"SH.MED.BEDS.ZS","value":"Hospital beds (per 1,000 people)"},"country":{"id":"1A","value":"Arab World"},"countryiso3code":"ARB","date":"2013","value":1.15189919300725,"unit":"","obs_status":"","decimal":1},{"indicator":{"id":"SH.MED.BEDS.ZS","value":"Hospital beds (per 1,000 people)"},"country":{"id":"1A","value":"Arab World"},"countryiso3code":"ARB","date":"2012","value":1.15838267090974,"unit":"","obs_status":"","decimal":1},{"indicator":{"id":"SH.MED.BEDS.ZS","value":"Hospital beds (per 1,000 people)"},"country":{"id":"1A","value":"Arab World"},"countryiso3code":"ARB","date":"2011","value":1.16022306555643,"unit":"","obs_status":"","decimal":1},{"indicator":{"id":"SH.MED.BEDS.ZS","value":"Hospital beds (per 1,000 people)"},"country":{"id":"1A","value":"Arab World"},"countryiso3code":"ARB","date":"2010","value":1.52952286081567,"unit":"","obs_status":"","decimal":1},{"indicator":{"id":"SH.MED.BEDS.ZS","value":"Hospital beds (per 1,000 people)"},"country":{"id":"1A","value":"Arab World"},"countryiso3code":"ARB","date":"2009","value":1.52885375764916,"unit":"","obs_status":"","decimal":1},{"indicator":{"id":"SH.MED.BEDS.ZS","value":"Hospital beds (per 1,000 people)"},"country":{"id":"1A","value":"Arab World"},"countryiso3code":"ARB","date":"2008","value":1.63605722707948,"unit":"","obs_status":"","decimal":1},{"indicator":{"id":"SH.MED.BEDS.ZS","value":"Hospital beds (per 1,000 people)"},"country":{"id":"1A","value":"Arab World"},"countryiso3code":"ARB","date":"2007","value":1.61711397143207,"unit":"","obs_status":"","decimal":1},{"indicator":{"id":"SH.MED.BEDS.ZS","value":"Hospital beds (per 1,000 people)"},"country":{"id":"1A","value":"Arab World"},"countryiso3code":"ARB","date":"2006","value":1.65251768584599,"unit":"","obs_status":"","decimal":1},{"indicator":{"id":"SH.MED.BEDS.ZS","value":"Hospital beds (per 1,000 people)"},"country":{"id":"1A","value":"Arab World"},"countryiso3code":"ARB","date":"2005","value":1.63026123576705,"unit":"","obs_status":"","decimal":1},{"indicator":{"id":"SH.MED.BEDS.ZS","value":"Hospital beds (per 1,000 people)"},"country":{"id":"1A","value":"Arab World"},"countryiso3code":"ARB","date":"2004","value":1.61232903776576,"unit":"","obs_status":"","decimal":1},{"indicator":{"id":"SH.MED.BEDS.ZS","value":"Hospital beds (per 1,000 people)"},"country":{"id":"1A","value":"Arab World"},"countryiso3code":"ARB","date":"2003","value":1.57406297803304,"unit":"","obs_status":"","decimal":1},{"indicator":{"id":"SH.MED.BEDS.ZS","value":"Hospital beds (per 1,000 people)"},"country":{"id":"1A","value":"Arab World"},"countryiso3code":"ARB","date":"2002","value":1.57479931646334,"unit":"","obs_status":"","decimal":1},{"indicator":{"id":"SH.MED.BEDS.ZS","value":"Hospital beds (per 1,000 people)"},"country":{"id":"1A","value":"Arab World"},"countryiso3code":"ARB","date":"2001","value":1.63946676396227,"unit":"","obs_status":"","decimal":1},{"indicator":{"id":"SH.MED.BEDS.ZS","value":"Hospital beds (per 1,000 people)"},"country":{"id":"1A","value":"Arab World"},"countryiso3code":"ARB","date":"2000","value":1.59791104698031,"unit":"","obs_status":"","decimal":1},{"indicator":{"id":"SH.MED.BEDS.ZS","value":"Hospital beds (per 1,000 people)"},"country":{"id":"1A","value":"Arab World"},"countryiso3code":"ARB","date":"1999","value":null,"unit":"","obs_status":"","decimal":1},{"indicator":{"id":"SH.MED.BEDS.ZS","value":"Hospital beds (per 1,000 people)"},"country":{"id":"1A","value":"Arab World"},"countryiso3code":"ARB","date":"1998","value":null,"unit":"","obs_status":"","decimal":1},{"indicator":{"id":"SH.MED.BEDS.ZS","value":"Hospital beds (per 1,000 people)"},"country":{"id":"1A","value":"Arab World"},"countryiso3code":"ARB","date":"1997","value":null,"unit":"","obs_status":"","decimal":1},{"indicator":{"id":"SH.MED.BEDS.ZS","value":"Hospital beds (per 1,000 people)"},"country":{"id":"1A","value":"Arab World"},"countryiso3code":"ARB","date":"1996","value":null,"unit":"","obs_status":"","decimal":1},{"indicator":{"id":"SH.MED.BEDS.ZS","value":"Hospital beds (per 1,000 people)"},"country":{"id":"1A","value":"Arab World"},"countryiso3code":"ARB","date":"1995","value":null,"unit":"","obs_status":"","decimal":1},{"indicator":{"id":"SH.MED.BEDS.ZS","value":"Hospital beds (per 1,000 people)"},"country":{"id":"1A","value":"Arab World"},"countryiso3code":"ARB","date":"1994","value":null,"unit":"","obs_status":"","decimal":1},{"indicator":{"id":"SH.MED.BEDS.ZS","value":"Hospital beds (per 1,000 people)"},"country":{"id":"1A","value":"Arab World"},"countryiso3code":"ARB","date":"1993","value":null,"unit":"","obs_status":"","decimal":1},{"indicator":{"id":"SH.MED.BEDS.ZS","value":"Hospital beds (per 1,000 people)"},"country":{"id":"1A","value":"Arab World"},"countryiso3code":"ARB","date":"1992","value":null,"unit":"","obs_status":"","decimal":1},{"indicator":{"id":"SH.MED.BEDS.ZS","value":"Hospital beds (per 1,000 people)"},"country":{"id":"1A","value":"Arab World"},"countryiso3code":"ARB","date":"1991","value":null,"unit":"","obs_status":"","decimal":1},{"indicator":{"id":"SH.MED.BEDS.ZS","value":"Hospital beds (per 1,000 people)"},"country":{"id":"1A","value":"Arab World"},"countryiso3code":"ARB","date":"1990","value":1.79558140293835,"unit":"","obs_status":"","decimal":1},{"indicator":{"id":"SH.MED.BEDS.ZS","value":"Hospital beds (per 1,000 people)"},"country":{"id":"1A","value":"Arab World"},"countryiso3code":"ARB","date":"1989","value":null,"unit":"","obs_status":"","decimal":1},{"indicator":{"id":"SH.MED.BEDS.ZS","value":"Hospital beds (per 1,000 people)"},"country":{"id":"1A","value":"Arab World"},"countryiso3code":"ARB","date":"1988","value":null,"unit":"","obs_status":"","decimal":1},{"indicator":{"id":"SH.MED.BEDS.ZS","value":"Hospital beds (per 1,000 people)"},"country":{"id":"1A","value":"Arab World"},"countryiso3code":"ARB","date":"1987","value":null,"unit":"","obs_status":"","decimal":1},{"indicator":{"id":"SH.MED.BEDS.ZS","value":"Hospital beds (per 1,000 people)"},"country":{"id":"1A","value":"Arab World"},"countryiso3code":"ARB","date":"1986","value":null,"unit":"","obs_status":"","decimal":1},{"indicator":{"id":"SH.MED.BEDS.ZS","value":"Hospital beds (per 1,000 people)"},"country":{"id":"1A","value":"Arab World"},"countryiso3code":"ARB","date":"1985","value":null,"unit":"","obs_status":"","decimal":1},{"indicator":{"id":"SH.MED.BEDS.ZS","value":"Hospital beds (per 1,000 people)"},"country":{"id":"1A","value":"Arab World"},"countryiso3code":"ARB","date":"1984","value":null,"unit":"","obs_status":"","decimal":1},{"indicator":{"id":"SH.MED.BEDS.ZS","value":"Hospital beds (per 1,000 people)"},"country":{"id":"1A","value":"Arab World"},"countryiso3code":"ARB","date":"1983","value":null,"unit":"","obs_status":"","decimal":1},{"indicator":{"id":"SH.MED.BEDS.ZS","value":"Hospital beds (per 1,000 people)"},"country":{"id":"1A","value":"Arab World"},"countryiso3code":"ARB","date":"1982","value":null,"unit":"","obs_status":"","decimal":1},{"indicator":{"id":"SH.MED.BEDS.ZS","value":"Hospital beds (per 1,000 people)"},"country":{"id":"1A","value":"Arab World"},"countryiso3code":"ARB","date":"1981","value":1.7076106017146,"unit":"","obs_status":"","decimal":1},{"indicator":{"id":"SH.MED.BEDS.ZS","value":"Hospital beds (per 1,000 people)"},"country":{"id":"1A","value":"Arab World"},"countryiso3code":"ARB","date":"1980","value":null,"unit":"","obs_status":"","decimal":1},{"indicator":{"id":"SH.MED.BEDS.ZS","value":"Hospital beds (per 1,000 people)"},"country":{"id":"1A","value":"Arab World"},"countryiso3code":"ARB","date":"1979","value":null,"unit":"","obs_status":"","decimal":1},{"indicator":{"id":"SH.MED.BEDS.ZS","value":"Hospital beds (per 1,000 people)"},"country":{"id":"1A","value":"Arab World"},"countryiso3code":"ARB","date":"1978","value":null,"unit":"","obs_status":"","decimal":1},{"indicator":{"id":"SH.MED.BEDS.ZS","value":"Hospital beds (per 1,000 people)"},"country":{"id":"1A","value":"Arab World"},"countryiso3code":"ARB","date":"1977","value":null,"unit":"","obs_status":"","decimal":1},{"indicator":{"id":"SH.MED.BEDS.ZS","value":"Hospital beds (per 1,000 people)"},"country":{"id":"1A","value":"Arab World"},"countryiso3code":"ARB","date":"1976","value":null,"unit":"","obs_status":"","decimal":1},{"indicator":{"id":"SH.MED.BEDS.ZS","value":"Hospital beds (per 1,000 people)"},"country":{"id":"1A","value":"Arab World"},"countryiso3code":"ARB","date":"1975","value":1.58381419388698,"unit":"","obs_status":"","decimal":1},{"indicator":{"id":"SH.MED.BEDS.ZS","value":"Hospital beds (per 1,000 people)"},"country":{"id":"1A","value":"Arab World"},"countryiso3code":"ARB","date":"1974","value":null,"unit":"","obs_status":"","decimal":1},{"indicator":{"id":"SH.MED.BEDS.ZS","value":"Hospital beds (per 1,000 people)"},"country":{"id":"1A","value":"Arab World"},"countryiso3code":"ARB","date":"1973","value":null,"unit":"","obs_status":"","decimal":1},{"indicator":{"id":"SH.MED.BEDS.ZS","value":"Hospital beds (per 1,000 people)"},"country":{"id":"1A","value":"Arab World"},"countryiso3code":"ARB","date":"1972","value":null,"unit":"","obs_status":"","decimal":1},{"indicator":{"id":"SH.MED.BEDS.ZS","value":"Hospital beds (per 1,000 people)"},"country":{"id":"1A","value":"Arab World"},"countryiso3code":"ARB","date":"1971","value":null,"unit":"","obs_status":"","decimal":1},{"indicator":{"id":"SH.MED.BEDS.ZS","value":"Hospital beds (per 1,000 people)"},"country":{"id":"1A","value":"Arab World"},"countryiso3code":"ARB","date":"1970","value":1.91788556013217,"unit":"","obs_status":"","decimal":1}]]