[{"page":1,"pages":317,"per_page":50,"total":15840,"sourceid":"2","lastupdated":"2020-03-18"},[{"indicator":{"id":"SP.DYN.LE00.FE.IN","value":"Life expectancy at birth, female (years)"},"country":{"id":"1A","value":"Arab World"},"countryiso3code":"ARB","date":"2019","value":null,"unit":"","obs_status":"","decimal":0},{"indicator":{"id":"SP.DYN.LE00.FE.IN","value":"Life expectancy at birth, female (years)"},"country":{"id":"1A","value":"Arab World"},"countryiso3code":"ARB","date":"2018","value":null,"unit":"","obs_status":"","decimal":0},{"indicator":{"id":"SP.DYN.LE00.FE.IN","value":"Life expectancy at birth, female (years)"},"country":{"id":"1A","value":"Arab World"},"countryiso3code":"ARB","date":"2017","value":73.4933662533549,"unit":"","obs_status":"","decimal":0},{"indicator":{"id":"SP.DYN.LE00.FE.IN","value":"Life expectancy at birth, female (years)"},"country":{"id":"1A","value":"Arab World"},"countryiso3code":"ARB","date":"2016","value":73.3210654778356,"unit":"","obs_status":"","decimal":0},{"indicator":{"id":"SP.DYN.LE00.FE.IN","value":"Life expectancy at birth, female (years)"},"country":{"id":"1A","value":"Arab World"},"countryiso3code":"ARB","date":"2015","value":73.1464797047505,"unit":"","obs_status":"","decimal":0},{"indicator":{"id":"SP.DYN.LE00.FE.IN","value":"Life expectancy at birth, female (years)"},"country":{"id":"1A","value":"Arab World"},"countryiso3code":"ARB","date":"2014","value":72.9713143398402,"unit":"","obs_status":"","decimal":0},{"indicator":{"id":"SP.DYN.LE00.FE.IN","value":"Life expectancy at birth, female (years)"},"country":{"id":"1A","value":"Arab World"},"countryiso3code":"ARB","date":"2013","value":72.7968639535328,"unit":"","obs_status":"","decimal":0},{"indicator":{"id":"SP.DYN.LE00.FE.IN","value":"Life expectancy at birth, female (years)"},"country":{"id":"1A","value":"Arab World"},"countryiso3code":"ARB","date":"2012","value":72.6223857806349,"unit":"","obs_status":"","decimal":0},{"indicator":{"id":"SP.DYN.LE00.FE.IN","value":"Life expectancy at birth, female (years)"},"country":{"id":"1A","value":"Arab World"},"countryiso3code":"ARB","date":"2011","value":72.4459976410117,"unit":"","obs_status":"","decimal":0},{"indicator":{"id":"SP.DYN.LE00.FE.IN","value":"Life expectancy at birth, female (years)"},"country":{"id":"1A","value":"Arab World"},"countryiso3code":"ARB","date":"2010","value":72.2611609991356,"unit":"","obs_status":"","decimal":0},{"indicator":{"id":"SP.DYN.LE00.FE.IN","value":"Life expectancy at birth, female (years)"},"country":{"id":"1A","value":"Arab World"},"countryiso3code":"ARB","date":"2009","value":72.059957371033,"unit":"","obs_status":"","decimal":0},{"indicator":{"id":"SP.DYN.LE00.FE.IN","value":"Life expectancy at birth, female (years)"},"country":{"id":"1A","value":"Arab World"},"countryiso3code":"ARB","date":"2008","value":71.8353365644021,"unit":"","obs_status":"","decimal":0},{"indicator":{"id":"SP.DYN.LE00.FE.IN","value":"Life expectancy at birth, female (years)"},"country":{"id":"1A","value":"Arab World"},"countryiso3code":"ARB","date":"2007","value":71.5870238310266,"unit":"","obs_status":"","decimal":0},{"indicator":{"id":"SP.DYN.LE00.FE.IN","value":"Life expectancy at birth, female (years)"},"country":{"id":"1A","value":"Arab World"},"countryiso3code":"ARB","date":"2006","value":71.3183854111293,"unit":"","obs_status":"","decimal":0},{"indicator":{"id":"SP.DYN.LE00.FE.IN","value":"Life expectancy at birth, female (years)"},"country":{"id":"1A","value":"Arab World"},"countryiso3code":"ARB","date":"2005","value":71.0387103839393,"unit":"","obs_status":"","decimal":0},{"indicator":{"id":"SP.DYN.LE00.FE.IN","value":"Life expectancy at birth, female (years)"},"country":{"id":"1A","value":"Arab World"},"countryiso3code":"ARB","date":"2004","value":70.7580129246893,"unit":"","obs_status":"","decimal":0},{"indicator":{"id":"SP.DYN.LE00.FE.IN","value":"Life expectancy at birth, female (years)"},"country":{"id":"1A","value":"Arab World"},"countryiso3code":"ARB","date":"2003","value":70.4836226039532,"unit":"","obs_status":"","decimal":0},{"indicator":{"id":"SP.DYN.LE00.FE.IN","value":"Life expectancy at birth, female (years)"},"country":{"id":"1A","value":"Arab World"},"countryiso3code":"ARB","date":"2002","value":70.2186459381143,"unit":"","obs_status":"","decimal":0},{"indicator":{"id":"SP.DYN.LE00.FE.IN","value":"Life expectancy at birth, female (years)"},"country":{"id":"1A","value":"Arab World"},"countryiso3code":"ARB","date":"2001","value":69.9599851817713,"unit":"","obs_status":"","decimal":0},{"indicator":{"id":"SP.DYN.LE00.FE.IN","value":"Life expectancy at birth, female (years)"},"country":{"id":"1A","value":"Arab World"},"countryiso3code":"ARB","date":"2000","value":69.6999129457791,"unit":"","obs_status":"","decimal":0},{"indicator":{"id":"SP.DYN.LE00.FE.IN","value":"Life expectancy at birth, female (years)"},"country":{"id":"1A","value":"Arab World"},"countryiso3code":"ARB","date":"1999","value":69.428716732824,"unit":"","obs_status":"","decimal":0},{"indicator":{"id":"SP.DYN.LE00.FE.IN","value":"Life expectancy at birth, female (years)"},"country":{"id":"1A","value":"Arab World"},"countryiso3code":"ARB","date":"1998","value":69.1375900942644,"unit":"","obs_status":"","decimal":0},{"indicator":{"id":"SP.DYN.LE00.FE.IN","value":"Life expectancy at birth, female (years)"},"country":{"id":"1A","value":"Arab World"},"countryiso3code":"ARB","date":"1997","value":68.8210703386005,"unit":"","obs_status":"","decimal":0},{"indicator":{"id":"SP.DYN.LE00.FE.IN","value":"Life expectancy at birth, female (years)"},"country":{"id":"1A","value":"Arab World"},"countryiso3code":"ARB","date":"1996","value":68.4783756893394,"unit":"","obs_status":"","decimal":0},{"indicator":{"id":"SP.DYN.LE00.FE.IN","value":"Life expectancy at birth, female (years)"},"country":{"id":"1A","value":"Arab World"},"countryiso3code":"ARB","date":"1995","value":68.1153984039363,"unit":"","obs_status":"","decimal":0},{"indicator":{"id":"SP.DYN.LE00.FE.IN","value":"Life expectancy at birth, female (years)"},"country":{"id":"1A","value":"Arab World"},"countryiso3code":"ARB","date":"1994","value":67.706099636818,"unit":"","obs_status":"","decimal":0},{"indicator":{"id":"SP.DYN.LE00.FE.IN","value":"Life expectancy at birth, female (years)"},"country":{"id":"1A","value":"Arab World"},"countryiso3code":"ARB","date":"1993","value":67.3233387975686,"unit":"","obs_status":"","decimal":0},{"indicator":{"id":"SP.DYN.LE00.FE.IN","value":"Life expectancy at birth, female (years)"},"country":{"id":"1A","value":"Arab World"},"countryiso3code":"ARB","date":"1992","value":66.9392604810698,"unit":"","obs_status":"","decimal":0},{"indicator":{"id":"SP.DYN.LE00.FE.IN","value":"Life expectancy at birth, female (years)"},"country":{"id":"1A","value":"Arab World"},"countryiso3code":"ARB","date":"1991","value":66.6074250713983,"unit":"","obs_status":"","decimal":0},{"indicator":{"id":"SP.DYN.LE00.FE.IN","value":"Life expectancy at birth, female (years)"},"country":{"id":"1A","value":"Arab World"},"countryiso3code":"ARB","date":"1990","value":66.2188210319616,"unit":"","obs_status":"","decimal":0},{"indicator":{"id":"SP.DYN.LE00.FE.IN","value":"Life expectancy at birth, female (years)"},"country":{"id":"1A","value":"Arab World"},"countryiso3code":"ARB","date":"1989","value":65.7819751818022,"unit":"","obs_status":"","decimal":0},{"indicator":{"id":"SP.DYN.LE00.FE.IN","value":"Life expectancy at birth, female (years)"},"country":{"id":"1A","value":"Arab World"},"countryiso3code":"ARB","date":"1988","value":65.3423666728954,"unit":"","obs_status":"","decimal":0},{"indicator":{"id":"SP.DYN.LE00.FE.IN","value":"Life expectancy at birth, female (years)"},"country":{"id":"1A","value":"Arab World"},"countryiso3code":"ARB","date":"1987","value":64.8591983020274,"unit":"","obs_status":"","decimal":0},{"indicator":{"id":"SP.DYN.LE00.FE.IN","value":"Life expectancy at birth, female (years)"},"country":{"id":"1A","value":"Arab World"},"countryiso3code":"ARB","date":"1986","value":64.3257762630352,"unit":"","obs_status":"","decimal":0},{"indicator":{"id":"SP.DYN.LE00.FE.IN","value":"Life expectancy at birth, female (years)"},"country":{"id":"1A","value":"Arab World"},"countryiso3code":"ARB","date":"1985","value":63.7354425775994,"unit":"","obs_status":"","decimal":0},{"indicator":{"id":"SP.DYN.LE00.FE.IN","value":"Life expectancy at birth, female (years)"},"country":{"id":"1A","value":"Arab World"},"countryiso3code":"ARB","date":"1984","value":63.0839870255771,"unit":"","obs_status":"","decimal":0},{"indicator":{"id":"SP.DYN.LE00.FE.IN","value":"Life expectancy at birth, female (years)"},"country":{"id":"1A","value":"Arab World"},"countryiso3code":"ARB","date":"1983","value":62.3796362961248,"unit":"","obs_status":"","decimal":0},{"indicator":{"id":"SP.DYN.LE00.FE.IN","value":"Life expectancy at birth, female (years)"},"country":{"id":"1A","value":"Arab World"},"countryiso3code":"ARB","date":"1982","value":61.6385318386698,"unit":"","obs_status":"","decimal":0},{"indicator":{"id":"SP.DYN.LE00.FE.IN","value":"Life expectancy at birth, female (years)"},"country":{"id":"1A","value":"Arab World"},"countryiso3code":"ARB","date":"1981","value":60.8780081756923,"unit":"","obs_status":"","decimal":0},{"indicator":{"id":"SP.DYN.LE00.FE.IN","value":"Life expectancy at birth, female (years)"},"country":{"id":"1A","value":"Arab World"},"countryiso3code":"ARB","date":"1980","value":60.113867874343,"unit":"","obs_status":"","decimal":0},{"indicator":{"id":"SP.DYN.LE00.FE.IN","value":"Life expectancy at birth, female (years)"},"country":{"id":"1A","value":"Arab World"},"countryiso3code":"ARB","date":"1979","value":59.3599604016314,"unit":"","obs_status":"","decimal":0},{"indicator":{"id":"SP.DYN.LE00.FE.IN","value":"Life expectancy at birth, female (years)"},"country":{"id":"1A","value":"Arab World"},"countryiso3code":"ARB","date":"1978","value":58.6241518927197,"unit":"","obs_status":"","decimal":0},{"indicator":{"id":"SP.DYN.LE00.FE.IN","value":"Life expectancy at birth, female (years)"},"country":{"id":"1A","value":"Arab World"},"countryiso3code":"ARB","date":"1977","value":57.9090450676572,"unit":"","obs_status":"","decimal":0},{"indicator":{"id":"SP.DYN.LE00.FE.IN","value":"Life expectancy at birth, female (years)"},"country":{"id":"1A","value":"Arab World"},"countryiso3code":"ARB","date":"1976","value":57.2133215431931,"unit":"","obs_status":"","decimal":0},{"indicator":{"id":"SP.DYN.LE00.FE.IN","value":"Life expectancy at birth, female (years)"},"country":{"id":"1A","value":"Arab World"},"countryiso3code":"ARB","date":"1975","value":56.5385161968524,"unit":"","obs_status":"","decimal":0},{"indicator":{"id":"SP.DYN.LE00.FE.IN","value":"Life expectancy at birth, female (years)"},"country":{"id":"1A","value":"Arab World"},"countryiso3code":"ARB","date":"1974","value":55.8878834629625,"unit":"","obs_status":"","decimal":0},{"indicator":{"id":"SP.DYN.LE00.FE.IN","value":"Life expectancy at birth, female (years)"},"country":{"id":"1A","value":"Arab World"},"countryiso3code":"ARB","date":"1973","value":55.2599549065584,"unit":"","obs_status":"","decimal":0},{"indicator":{"id":"SP.DYN.LE00.FE.IN","value":"Life expectancy at birth, female (years)"},"country":{"id":"1A","value":"Arab World"},"countryiso3code":"ARB","date":"1972","value":54.652472339278,"unit":"","obs_status":"","decimal":0},{"indicator":{"id":"SP.DYN.LE00.FE.IN","value":"Life expectancy at birth, female (years)"},"country":{"id":"1A","value":"Arab World"},"countryiso3code":"ARB","date":"1971","value":54.0667781860449,"unit":"","obs_status":"","decimal":0},{"indicator":{"id":"SP.DYN.LE00.FE.IN","value":"Life expectancy at birth, female (years)"},"country":{"id":"1A","value":"Arab World"},"countryiso3code":"ARB","date":"1970","value":53.4991632402818,"unit":"","obs_status":"","decimal":0}]]