[{"page":1,"pages":317,"per_page":50,"total":15840,"sourceid":"2","lastupdated":"2020-03-18"},[{"indicator":{"id":"SP.DYN.LE00.MA.IN","value":"Life expectancy at birth, male (years)"},"country":{"id":"1A","value":"Arab World"},"countryiso3code":"ARB","date":"2019","value":null,"unit":"","obs_status":"","decimal":0},{"indicator":{"id":"SP.DYN.LE00.MA.IN","value":"Life expectancy at birth, male (years)"},"country":{"id":"1A","value":"Arab World"},"countryiso3code":"ARB","date":"2018","value":null,"unit":"","obs_status":"","decimal":0},{"indicator":{"id":"SP.DYN.LE00.MA.IN","value":"Life expectancy at birth, male (years)"},"country":{"id":"1A","value":"Arab World"},"countryiso3code":"ARB","date":"2017","value":69.9212501154086,"unit":"","obs_status":"","decimal":0},{"indicator":{"id":"SP.DYN.LE00.MA.IN","value":"Life expectancy at birth, male (years)"},"country":{"id":"1A","value":"Arab World"},"countryiso3code":"ARB","date":"2016","value":69.7246665111732,"unit":"","obs_status":"","decimal":0},{"indicator":{"id":"SP.DYN.LE00.MA.IN","value":"Life expectancy at birth, male (years)"},"country":{"id":"1A","value":"Arab World"},"countryiso3code":"ARB","date":"2015","value":69.5289737116429,"unit":"","obs_status":"","decimal":0},{"indicator":{"id":"SP.DYN.LE00.MA.IN","value":"Life expectancy at birth, male (years)"},"country":{"id":"1A","value":"Arab World"},"countryiso3code":"ARB","date":"2014","value":69.3366069068758,"unit":"","obs_status":"","decimal":0},{"indicator":{"id":"SP.DYN.LE00.MA.IN","value":"Life expectancy at birth, male (years)"},"country":{"id":"1A","value":"Arab World"},"countryiso3code":"ARB","date":"2013","value":69.1495269612546,"unit":"","obs_status":"","decimal":0},{"indicator":{"id":"SP.DYN.LE00.MA.IN","value":"Life expectancy at birth, male (years)"},"country":{"id":"1A","value":"Arab World"},"countryiso3code":"ARB","date":"2012","value":68.9687955462383,"unit":"","obs_status":"","decimal":0},{"indicator":{"id":"SP.DYN.LE00.MA.IN","value":"Life expectancy at birth, male (years)"},"country":{"id":"1A","value":"Arab World"},"countryiso3code":"ARB","date":"2011","value":68.794639927989,"unit":"","obs_status":"","decimal":0},{"indicator":{"id":"SP.DYN.LE00.MA.IN","value":"Life expectancy at birth, male (years)"},"country":{"id":"1A","value":"Arab World"},"countryiso3code":"ARB","date":"2010","value":68.618951030473,"unit":"","obs_status":"","decimal":0},{"indicator":{"id":"SP.DYN.LE00.MA.IN","value":"Life expectancy at birth, male (years)"},"country":{"id":"1A","value":"Arab World"},"countryiso3code":"ARB","date":"2009","value":68.4288000117575,"unit":"","obs_status":"","decimal":0},{"indicator":{"id":"SP.DYN.LE00.MA.IN","value":"Life expectancy at birth, male (years)"},"country":{"id":"1A","value":"Arab World"},"countryiso3code":"ARB","date":"2008","value":68.2141728962966,"unit":"","obs_status":"","decimal":0},{"indicator":{"id":"SP.DYN.LE00.MA.IN","value":"Life expectancy at birth, male (years)"},"country":{"id":"1A","value":"Arab World"},"countryiso3code":"ARB","date":"2007","value":67.971393899225,"unit":"","obs_status":"","decimal":0},{"indicator":{"id":"SP.DYN.LE00.MA.IN","value":"Life expectancy at birth, male (years)"},"country":{"id":"1A","value":"Arab World"},"countryiso3code":"ARB","date":"2006","value":67.7057803604815,"unit":"","obs_status":"","decimal":0},{"indicator":{"id":"SP.DYN.LE00.MA.IN","value":"Life expectancy at birth, male (years)"},"country":{"id":"1A","value":"Arab World"},"countryiso3code":"ARB","date":"2005","value":67.4270634779716,"unit":"","obs_status":"","decimal":0},{"indicator":{"id":"SP.DYN.LE00.MA.IN","value":"Life expectancy at birth, male (years)"},"country":{"id":"1A","value":"Arab World"},"countryiso3code":"ARB","date":"2004","value":67.1442151919117,"unit":"","obs_status":"","decimal":0},{"indicator":{"id":"SP.DYN.LE00.MA.IN","value":"Life expectancy at birth, male (years)"},"country":{"id":"1A","value":"Arab World"},"countryiso3code":"ARB","date":"2003","value":66.8627542138194,"unit":"","obs_status":"","decimal":0},{"indicator":{"id":"SP.DYN.LE00.MA.IN","value":"Life expectancy at birth, male (years)"},"country":{"id":"1A","value":"Arab World"},"countryiso3code":"ARB","date":"2002","value":66.5853514999294,"unit":"","obs_status":"","decimal":0},{"indicator":{"id":"SP.DYN.LE00.MA.IN","value":"Life expectancy at birth, male (years)"},"country":{"id":"1A","value":"Arab World"},"countryiso3code":"ARB","date":"2001","value":66.3086859063152,"unit":"","obs_status":"","decimal":0},{"indicator":{"id":"SP.DYN.LE00.MA.IN","value":"Life expectancy at birth, male (years)"},"country":{"id":"1A","value":"Arab World"},"countryiso3code":"ARB","date":"2000","value":66.0262586806167,"unit":"","obs_status":"","decimal":0},{"indicator":{"id":"SP.DYN.LE00.MA.IN","value":"Life expectancy at birth, male (years)"},"country":{"id":"1A","value":"Arab World"},"countryiso3code":"ARB","date":"1999","value":65.7336574755568,"unit":"","obs_status":"","decimal":0},{"indicator":{"id":"SP.DYN.LE00.MA.IN","value":"Life expectancy at birth, male (years)"},"country":{"id":"1A","value":"Arab World"},"countryiso3code":"ARB","date":"1998","value":65.4254183596378,"unit":"","obs_status":"","decimal":0},{"indicator":{"id":"SP.DYN.LE00.MA.IN","value":"Life expectancy at birth, male (years)"},"country":{"id":"1A","value":"Arab World"},"countryiso3code":"ARB","date":"1997","value":65.0990782093648,"unit":"","obs_status":"","decimal":0},{"indicator":{"id":"SP.DYN.LE00.MA.IN","value":"Life expectancy at birth, male (years)"},"country":{"id":"1A","value":"Arab World"},"countryiso3code":"ARB","date":"1996","value":64.7535641569461,"unit":"","obs_status":"","decimal":0},{"indicator":{"id":"SP.DYN.LE00.MA.IN","value":"Life expectancy at birth, male (years)"},"country":{"id":"1A","value":"Arab World"},"countryiso3code":"ARB","date":"1995","value":64.3960153918967,"unit":"","obs_status":"","decimal":0},{"indicator":{"id":"SP.DYN.LE00.MA.IN","value":"Life expectancy at birth, male (years)"},"country":{"id":"1A","value":"Arab World"},"countryiso3code":"ARB","date":"1994","value":63.9761026409413,"unit":"","obs_status":"","decimal":0},{"indicator":{"id":"SP.DYN.LE00.MA.IN","value":"Life expectancy at birth, male (years)"},"country":{"id":"1A","value":"Arab World"},"countryiso3code":"ARB","date":"1993","value":63.6113854632683,"unit":"","obs_status":"","decimal":0},{"indicator":{"id":"SP.DYN.LE00.MA.IN","value":"Life expectancy at birth, male (years)"},"country":{"id":"1A","value":"Arab World"},"countryiso3code":"ARB","date":"1992","value":63.2471749873746,"unit":"","obs_status":"","decimal":0},{"indicator":{"id":"SP.DYN.LE00.MA.IN","value":"Life expectancy at birth, male (years)"},"country":{"id":"1A","value":"Arab World"},"countryiso3code":"ARB","date":"1991","value":62.9648821393057,"unit":"","obs_status":"","decimal":0},{"indicator":{"id":"SP.DYN.LE00.MA.IN","value":"Life expectancy at birth, male (years)"},"country":{"id":"1A","value":"Arab World"},"countryiso3code":"ARB","date":"1990","value":62.5829486334967,"unit":"","obs_status":"","decimal":0},{"indicator":{"id":"SP.DYN.LE00.MA.IN","value":"Life expectancy at birth, male (years)"},"country":{"id":"1A","value":"Arab World"},"countryiso3code":"ARB","date":"1989","value":62.118808122074,"unit":"","obs_status":"","decimal":0},{"indicator":{"id":"SP.DYN.LE00.MA.IN","value":"Life expectancy at birth, male (years)"},"country":{"id":"1A","value":"Arab World"},"countryiso3code":"ARB","date":"1988","value":61.6273800391103,"unit":"","obs_status":"","decimal":0},{"indicator":{"id":"SP.DYN.LE00.MA.IN","value":"Life expectancy at birth, male (years)"},"country":{"id":"1A","value":"Arab World"},"countryiso3code":"ARB","date":"1987","value":61.0659539400042,"unit":"","obs_status":"","decimal":0},{"indicator":{"id":"SP.DYN.LE00.MA.IN","value":"Life expectancy at birth, male (years)"},"country":{"id":"1A","value":"Arab World"},"countryiso3code":"ARB","date":"1986","value":60.4393450374456,"unit":"","obs_status":"","decimal":0},{"indicator":{"id":"SP.DYN.LE00.MA.IN","value":"Life expectancy at birth, male (years)"},"country":{"id":"1A","value":"Arab World"},"countryiso3code":"ARB","date":"1985","value":59.7687065038458,"unit":"","obs_status":"","decimal":0},{"indicator":{"id":"SP.DYN.LE00.MA.IN","value":"Life expectancy at birth, male (years)"},"country":{"id":"1A","value":"Arab World"},"countryiso3code":"ARB","date":"1984","value":59.082811535214,"unit":"","obs_status":"","decimal":0},{"indicator":{"id":"SP.DYN.LE00.MA.IN","value":"Life expectancy at birth, male (years)"},"country":{"id":"1A","value":"Arab World"},"countryiso3code":"ARB","date":"1983","value":58.4128557239398,"unit":"","obs_status":"","decimal":0},{"indicator":{"id":"SP.DYN.LE00.MA.IN","value":"Life expectancy at birth, male (years)"},"country":{"id":"1A","value":"Arab World"},"countryiso3code":"ARB","date":"1982","value":57.7849980296321,"unit":"","obs_status":"","decimal":0},{"indicator":{"id":"SP.DYN.LE00.MA.IN","value":"Life expectancy at birth, male (years)"},"country":{"id":"1A","value":"Arab World"},"countryiso3code":"ARB","date":"1981","value":57.2117638000252,"unit":"","obs_status":"","decimal":0},{"indicator":{"id":"SP.DYN.LE00.MA.IN","value":"Life expectancy at birth, male (years)"},"country":{"id":"1A","value":"Arab World"},"countryiso3code":"ARB","date":"1980","value":56.688942768824,"unit":"","obs_status":"","decimal":0},{"indicator":{"id":"SP.DYN.LE00.MA.IN","value":"Life expectancy at birth, male (years)"},"country":{"id":"1A","value":"Arab World"},"countryiso3code":"ARB","date":"1979","value":56.1976785522822,"unit":"","obs_status":"","decimal":0},{"indicator":{"id":"SP.DYN.LE00.MA.IN","value":"Life expectancy at birth, male (years)"},"country":{"id":"1A","value":"Arab World"},"countryiso3code":"ARB","date":"1978","value":55.7081681021652,"unit":"","obs_status":"","decimal":0},{"indicator":{"id":"SP.DYN.LE00.MA.IN","value":"Life expectancy at birth, male (years)"},"country":{"id":"1A","value":"Arab World"},"countryiso3code":"ARB","date":"1977","value":55.1938842880129,"unit":"","obs_status":"","decimal":0},{"indicator":{"id":"SP.DYN.LE00.MA.IN","value":"Life expectancy at birth, male (years)"},"country":{"id":"1A","value":"Arab World"},"countryiso3code":"ARB","date":"1976","value":54.6402150913409,"unit":"","obs_status":"","decimal":0},{"indicator":{"id":"SP.DYN.LE00.MA.IN","value":"Life expectancy at birth, male (years)"},"country":{"id":"1A","value":"Arab World"},"countryiso3code":"ARB","date":"1975","value":54.0461815875042,"unit":"","obs_status":"","decimal":0},{"indicator":{"id":"SP.DYN.LE00.MA.IN","value":"Life expectancy at birth, male (years)"},"country":{"id":"1A","value":"Arab World"},"countryiso3code":"ARB","date":"1974","value":53.425357913691,"unit":"","obs_status":"","decimal":0},{"indicator":{"id":"SP.DYN.LE00.MA.IN","value":"Life expectancy at birth, male (years)"},"country":{"id":"1A","value":"Arab World"},"countryiso3code":"ARB","date":"1973","value":52.8010924358605,"unit":"","obs_status":"","decimal":0},{"indicator":{"id":"SP.DYN.LE00.MA.IN","value":"Life expectancy at birth, male (years)"},"country":{"id":"1A","value":"Arab World"},"countryiso3code":"ARB","date":"1972","value":52.1932107033112,"unit":"","obs_status":"","decimal":0},{"indicator":{"id":"SP.DYN.LE00.MA.IN","value":"Life expectancy at birth, male (years)"},"country":{"id":"1A","value":"Arab World"},"countryiso3code":"ARB","date":"1971","value":51.6134809808307,"unit":"","obs_status":"","decimal":0},{"indicator":{"id":"SP.DYN.LE00.MA.IN","value":"Life expectancy at birth, male (years)"},"country":{"id":"1A","value":"Arab World"},"countryiso3code":"ARB","date":"1970","value":51.0649842278079,"unit":"","obs_status":"","decimal":0}]]