[{"page":1,"pages":317,"per_page":50,"total":15840,"sourceid":"2","lastupdated":"2020-03-18"},[{"indicator":{"id":"SP.DYN.LE00.IN","value":"Life expectancy at birth, total (years)"},"country":{"id":"1A","value":"Arab World"},"countryiso3code":"ARB","date":"2019","value":null,"unit":"","obs_status":"","decimal":0},{"indicator":{"id":"SP.DYN.LE00.IN","value":"Life expectancy at birth, total (years)"},"country":{"id":"1A","value":"Arab World"},"countryiso3code":"ARB","date":"2018","value":null,"unit":"","obs_status":"","decimal":0},{"indicator":{"id":"SP.DYN.LE00.IN","value":"Life expectancy at birth, total (years)"},"country":{"id":"1A","value":"Arab World"},"countryiso3code":"ARB","date":"2017","value":71.6225263276687,"unit":"","obs_status":"","decimal":0},{"indicator":{"id":"SP.DYN.LE00.IN","value":"Life expectancy at birth, total (years)"},"country":{"id":"1A","value":"Arab World"},"countryiso3code":"ARB","date":"2016","value":71.4364968350268,"unit":"","obs_status":"","decimal":0},{"indicator":{"id":"SP.DYN.LE00.IN","value":"Life expectancy at birth, total (years)"},"country":{"id":"1A","value":"Arab World"},"countryiso3code":"ARB","date":"2015","value":71.249571410287,"unit":"","obs_status":"","decimal":0},{"indicator":{"id":"SP.DYN.LE00.IN","value":"Life expectancy at birth, total (years)"},"country":{"id":"1A","value":"Arab World"},"countryiso3code":"ARB","date":"2014","value":71.0642924303822,"unit":"","obs_status":"","decimal":0},{"indicator":{"id":"SP.DYN.LE00.IN","value":"Life expectancy at birth, total (years)"},"country":{"id":"1A","value":"Arab World"},"countryiso3code":"ARB","date":"2013","value":70.8822537420776,"unit":"","obs_status":"","decimal":0},{"indicator":{"id":"SP.DYN.LE00.IN","value":"Life expectancy at birth, total (years)"},"country":{"id":"1A","value":"Arab World"},"countryiso3code":"ARB","date":"2012","value":70.7038265981398,"unit":"","obs_status":"","decimal":0},{"indicator":{"id":"SP.DYN.LE00.IN","value":"Life expectancy at birth, total (years)"},"country":{"id":"1A","value":"Arab World"},"countryiso3code":"ARB","date":"2011","value":70.5287748030398,"unit":"","obs_status":"","decimal":0},{"indicator":{"id":"SP.DYN.LE00.IN","value":"Life expectancy at birth, total (years)"},"country":{"id":"1A","value":"Arab World"},"countryiso3code":"ARB","date":"2010","value":70.349916226204,"unit":"","obs_status":"","decimal":0},{"indicator":{"id":"SP.DYN.LE00.IN","value":"Life expectancy at birth, total (years)"},"country":{"id":"1A","value":"Arab World"},"countryiso3code":"ARB","date":"2009","value":70.1575600376968,"unit":"","obs_status":"","decimal":0},{"indicator":{"id":"SP.DYN.LE00.IN","value":"Life expectancy at birth, total (years)"},"country":{"id":"1A","value":"Arab World"},"countryiso3code":"ARB","date":"2008","value":69.9421742706232,"unit":"","obs_status":"","decimal":0},{"indicator":{"id":"SP.DYN.LE00.IN","value":"Life expectancy at birth, total (years)"},"country":{"id":"1A","value":"Arab World"},"countryiso3code":"ARB","date":"2007","value":69.7015546491534,"unit":"","obs_status":"","decimal":0},{"indicator":{"id":"SP.DYN.LE00.IN","value":"Life expectancy at birth, total (years)"},"country":{"id":"1A","value":"Arab World"},"countryiso3code":"ARB","date":"2006","value":69.4394591943507,"unit":"","obs_status":"","decimal":0},{"indicator":{"id":"SP.DYN.LE00.IN","value":"Life expectancy at birth, total (years)"},"country":{"id":"1A","value":"Arab World"},"countryiso3code":"ARB","date":"2005","value":69.1646828025353,"unit":"","obs_status":"","decimal":0},{"indicator":{"id":"SP.DYN.LE00.IN","value":"Life expectancy at birth, total (years)"},"country":{"id":"1A","value":"Arab World"},"countryiso3code":"ARB","date":"2004","value":68.8861877240216,"unit":"","obs_status":"","decimal":0},{"indicator":{"id":"SP.DYN.LE00.IN","value":"Life expectancy at birth, total (years)"},"country":{"id":"1A","value":"Arab World"},"countryiso3code":"ARB","date":"2003","value":68.6105053811856,"unit":"","obs_status":"","decimal":0},{"indicator":{"id":"SP.DYN.LE00.IN","value":"Life expectancy at birth, total (years)"},"country":{"id":"1A","value":"Arab World"},"countryiso3code":"ARB","date":"2002","value":68.3402459940492,"unit":"","obs_status":"","decimal":0},{"indicator":{"id":"SP.DYN.LE00.IN","value":"Life expectancy at birth, total (years)"},"country":{"id":"1A","value":"Arab World"},"countryiso3code":"ARB","date":"2001","value":68.0725185170594,"unit":"","obs_status":"","decimal":0},{"indicator":{"id":"SP.DYN.LE00.IN","value":"Life expectancy at birth, total (years)"},"country":{"id":"1A","value":"Arab World"},"countryiso3code":"ARB","date":"2000","value":67.8005911153485,"unit":"","obs_status":"","decimal":0},{"indicator":{"id":"SP.DYN.LE00.IN","value":"Life expectancy at birth, total (years)"},"country":{"id":"1A","value":"Arab World"},"countryiso3code":"ARB","date":"1999","value":67.517688947424,"unit":"","obs_status":"","decimal":0},{"indicator":{"id":"SP.DYN.LE00.IN","value":"Life expectancy at birth, total (years)"},"country":{"id":"1A","value":"Arab World"},"countryiso3code":"ARB","date":"1998","value":67.2180914626095,"unit":"","obs_status":"","decimal":0},{"indicator":{"id":"SP.DYN.LE00.IN","value":"Life expectancy at birth, total (years)"},"country":{"id":"1A","value":"Arab World"},"countryiso3code":"ARB","date":"1997","value":66.8971449635783,"unit":"","obs_status":"","decimal":0},{"indicator":{"id":"SP.DYN.LE00.IN","value":"Life expectancy at birth, total (years)"},"country":{"id":"1A","value":"Arab World"},"countryiso3code":"ARB","date":"1996","value":66.554102867301,"unit":"","obs_status":"","decimal":0},{"indicator":{"id":"SP.DYN.LE00.IN","value":"Life expectancy at birth, total (years)"},"country":{"id":"1A","value":"Arab World"},"countryiso3code":"ARB","date":"1995","value":66.1960998468045,"unit":"","obs_status":"","decimal":0},{"indicator":{"id":"SP.DYN.LE00.IN","value":"Life expectancy at birth, total (years)"},"country":{"id":"1A","value":"Arab World"},"countryiso3code":"ARB","date":"1994","value":65.7856525186418,"unit":"","obs_status":"","decimal":0},{"indicator":{"id":"SP.DYN.LE00.IN","value":"Life expectancy at birth, total (years)"},"country":{"id":"1A","value":"Arab World"},"countryiso3code":"ARB","date":"1993","value":65.4149073470161,"unit":"","obs_status":"","decimal":0},{"indicator":{"id":"SP.DYN.LE00.IN","value":"Life expectancy at birth, total (years)"},"country":{"id":"1A","value":"Arab World"},"countryiso3code":"ARB","date":"1992","value":65.0438519725103,"unit":"","obs_status":"","decimal":0},{"indicator":{"id":"SP.DYN.LE00.IN","value":"Life expectancy at birth, total (years)"},"country":{"id":"1A","value":"Arab World"},"countryiso3code":"ARB","date":"1991","value":64.7363405227483,"unit":"","obs_status":"","decimal":0},{"indicator":{"id":"SP.DYN.LE00.IN","value":"Life expectancy at birth, total (years)"},"country":{"id":"1A","value":"Arab World"},"countryiso3code":"ARB","date":"1990","value":64.3515769681109,"unit":"","obs_status":"","decimal":0},{"indicator":{"id":"SP.DYN.LE00.IN","value":"Life expectancy at birth, total (years)"},"country":{"id":"1A","value":"Arab World"},"countryiso3code":"ARB","date":"1989","value":63.8989814175542,"unit":"","obs_status":"","decimal":0},{"indicator":{"id":"SP.DYN.LE00.IN","value":"Life expectancy at birth, total (years)"},"country":{"id":"1A","value":"Arab World"},"countryiso3code":"ARB","date":"1988","value":63.4296870021948,"unit":"","obs_status":"","decimal":0},{"indicator":{"id":"SP.DYN.LE00.IN","value":"Life expectancy at birth, total (years)"},"country":{"id":"1A","value":"Arab World"},"countryiso3code":"ARB","date":"1987","value":62.9013458399686,"unit":"","obs_status":"","decimal":0},{"indicator":{"id":"SP.DYN.LE00.IN","value":"Life expectancy at birth, total (years)"},"country":{"id":"1A","value":"Arab World"},"countryiso3code":"ARB","date":"1986","value":62.3141202992932,"unit":"","obs_status":"","decimal":0},{"indicator":{"id":"SP.DYN.LE00.IN","value":"Life expectancy at birth, total (years)"},"country":{"id":"1A","value":"Arab World"},"countryiso3code":"ARB","date":"1985","value":61.6768157542394,"unit":"","obs_status":"","decimal":0},{"indicator":{"id":"SP.DYN.LE00.IN","value":"Life expectancy at birth, total (years)"},"country":{"id":"1A","value":"Arab World"},"countryiso3code":"ARB","date":"1984","value":61.0037610987495,"unit":"","obs_status":"","decimal":0},{"indicator":{"id":"SP.DYN.LE00.IN","value":"Life expectancy at birth, total (years)"},"country":{"id":"1A","value":"Arab World"},"countryiso3code":"ARB","date":"1983","value":60.3162771302123,"unit":"","obs_status":"","decimal":0},{"indicator":{"id":"SP.DYN.LE00.IN","value":"Life expectancy at birth, total (years)"},"country":{"id":"1A","value":"Arab World"},"countryiso3code":"ARB","date":"1982","value":59.6359973153822,"unit":"","obs_status":"","decimal":0},{"indicator":{"id":"SP.DYN.LE00.IN","value":"Life expectancy at birth, total (years)"},"country":{"id":"1A","value":"Arab World"},"countryiso3code":"ARB","date":"1981","value":58.9773593187182,"unit":"","obs_status":"","decimal":0},{"indicator":{"id":"SP.DYN.LE00.IN","value":"Life expectancy at birth, total (years)"},"country":{"id":"1A","value":"Arab World"},"countryiso3code":"ARB","date":"1980","value":58.3450234343121,"unit":"","obs_status":"","decimal":0},{"indicator":{"id":"SP.DYN.LE00.IN","value":"Life expectancy at birth, total (years)"},"country":{"id":"1A","value":"Arab World"},"countryiso3code":"ARB","date":"1979","value":57.7348595287564,"unit":"","obs_status":"","decimal":0},{"indicator":{"id":"SP.DYN.LE00.IN","value":"Life expectancy at birth, total (years)"},"country":{"id":"1A","value":"Arab World"},"countryiso3code":"ARB","date":"1978","value":57.133900247461,"unit":"","obs_status":"","decimal":0},{"indicator":{"id":"SP.DYN.LE00.IN","value":"Life expectancy at birth, total (years)"},"country":{"id":"1A","value":"Arab World"},"countryiso3code":"ARB","date":"1977","value":56.5280764080552,"unit":"","obs_status":"","decimal":0},{"indicator":{"id":"SP.DYN.LE00.IN","value":"Life expectancy at birth, total (years)"},"country":{"id":"1A","value":"Arab World"},"countryiso3code":"ARB","date":"1976","value":55.9096123217709,"unit":"","obs_status":"","decimal":0},{"indicator":{"id":"SP.DYN.LE00.IN","value":"Life expectancy at birth, total (years)"},"country":{"id":"1A","value":"Arab World"},"countryiso3code":"ARB","date":"1975","value":55.2779884570801,"unit":"","obs_status":"","decimal":0},{"indicator":{"id":"SP.DYN.LE00.IN","value":"Life expectancy at birth, total (years)"},"country":{"id":"1A","value":"Arab World"},"countryiso3code":"ARB","date":"1974","value":54.6428665845491,"unit":"","obs_status":"","decimal":0},{"indicator":{"id":"SP.DYN.LE00.IN","value":"Life expectancy at birth, total (years)"},"country":{"id":"1A","value":"Arab World"},"countryiso3code":"ARB","date":"1973","value":54.0158543893538,"unit":"","obs_status":"","decimal":0},{"indicator":{"id":"SP.DYN.LE00.IN","value":"Life expectancy at birth, total (years)"},"country":{"id":"1A","value":"Arab World"},"countryiso3code":"ARB","date":"1972","value":53.4068873108735,"unit":"","obs_status":"","decimal":0},{"indicator":{"id":"SP.DYN.LE00.IN","value":"Life expectancy at birth, total (years)"},"country":{"id":"1A","value":"Arab World"},"countryiso3code":"ARB","date":"1971","value":52.8229318031927,"unit":"","obs_status":"","decimal":0},{"indicator":{"id":"SP.DYN.LE00.IN","value":"Life expectancy at birth, total (years)"},"country":{"id":"1A","value":"Arab World"},"countryiso3code":"ARB","date":"1970","value":52.2642104338812,"unit":"","obs_status":"","decimal":0}]]