[{"page":1,"pages":317,"per_page":50,"total":15840,"sourceid":"2","lastupdated":"2020-03-18"},[{"indicator":{"id":"SP.DYN.AMRT.FE","value":"Mortality rate, adult, female (per 1,000 female adults)"},"country":{"id":"1A","value":"Arab World"},"countryiso3code":"ARB","date":"2019","value":null,"unit":"","obs_status":"","decimal":0},{"indicator":{"id":"SP.DYN.AMRT.FE","value":"Mortality rate, adult, female (per 1,000 female adults)"},"country":{"id":"1A","value":"Arab World"},"countryiso3code":"ARB","date":"2018","value":null,"unit":"","obs_status":"","decimal":0},{"indicator":{"id":"SP.DYN.AMRT.FE","value":"Mortality rate, adult, female (per 1,000 female adults)"},"country":{"id":"1A","value":"Arab World"},"countryiso3code":"ARB","date":"2017","value":111.943695727243,"unit":"","obs_status":"","decimal":0},{"indicator":{"id":"SP.DYN.AMRT.FE","value":"Mortality rate, adult, female (per 1,000 female adults)"},"country":{"id":"1A","value":"Arab World"},"countryiso3code":"ARB","date":"2016","value":113.441828342246,"unit":"","obs_status":"","decimal":0},{"indicator":{"id":"SP.DYN.AMRT.FE","value":"Mortality rate, adult, female (per 1,000 female adults)"},"country":{"id":"1A","value":"Arab World"},"countryiso3code":"ARB","date":"2015","value":114.967677958773,"unit":"","obs_status":"","decimal":0},{"indicator":{"id":"SP.DYN.AMRT.FE","value":"Mortality rate, adult, female (per 1,000 female adults)"},"country":{"id":"1A","value":"Arab World"},"countryiso3code":"ARB","date":"2014","value":116.533999711725,"unit":"","obs_status":"","decimal":0},{"indicator":{"id":"SP.DYN.AMRT.FE","value":"Mortality rate, adult, female (per 1,000 female adults)"},"country":{"id":"1A","value":"Arab World"},"countryiso3code":"ARB","date":"2013","value":118.142882572332,"unit":"","obs_status":"","decimal":0},{"indicator":{"id":"SP.DYN.AMRT.FE","value":"Mortality rate, adult, female (per 1,000 female adults)"},"country":{"id":"1A","value":"Arab World"},"countryiso3code":"ARB","date":"2012","value":119.803566172812,"unit":"","obs_status":"","decimal":0},{"indicator":{"id":"SP.DYN.AMRT.FE","value":"Mortality rate, adult, female (per 1,000 female adults)"},"country":{"id":"1A","value":"Arab World"},"countryiso3code":"ARB","date":"2011","value":121.566388717848,"unit":"","obs_status":"","decimal":0},{"indicator":{"id":"SP.DYN.AMRT.FE","value":"Mortality rate, adult, female (per 1,000 female adults)"},"country":{"id":"1A","value":"Arab World"},"countryiso3code":"ARB","date":"2010","value":123.371160336129,"unit":"","obs_status":"","decimal":0},{"indicator":{"id":"SP.DYN.AMRT.FE","value":"Mortality rate, adult, female (per 1,000 female adults)"},"country":{"id":"1A","value":"Arab World"},"countryiso3code":"ARB","date":"2009","value":125.225786675966,"unit":"","obs_status":"","decimal":0},{"indicator":{"id":"SP.DYN.AMRT.FE","value":"Mortality rate, adult, female (per 1,000 female adults)"},"country":{"id":"1A","value":"Arab World"},"countryiso3code":"ARB","date":"2008","value":127.13946158796,"unit":"","obs_status":"","decimal":0},{"indicator":{"id":"SP.DYN.AMRT.FE","value":"Mortality rate, adult, female (per 1,000 female adults)"},"country":{"id":"1A","value":"Arab World"},"countryiso3code":"ARB","date":"2007","value":129.105061239684,"unit":"","obs_status":"","decimal":0},{"indicator":{"id":"SP.DYN.AMRT.FE","value":"Mortality rate, adult, female (per 1,000 female adults)"},"country":{"id":"1A","value":"Arab World"},"countryiso3code":"ARB","date":"2006","value":131.575067459881,"unit":"","obs_status":"","decimal":0},{"indicator":{"id":"SP.DYN.AMRT.FE","value":"Mortality rate, adult, female (per 1,000 female adults)"},"country":{"id":"1A","value":"Arab World"},"countryiso3code":"ARB","date":"2005","value":134.051489860111,"unit":"","obs_status":"","decimal":0},{"indicator":{"id":"SP.DYN.AMRT.FE","value":"Mortality rate, adult, female (per 1,000 female adults)"},"country":{"id":"1A","value":"Arab World"},"countryiso3code":"ARB","date":"2004","value":136.410239565349,"unit":"","obs_status":"","decimal":0},{"indicator":{"id":"SP.DYN.AMRT.FE","value":"Mortality rate, adult, female (per 1,000 female adults)"},"country":{"id":"1A","value":"Arab World"},"countryiso3code":"ARB","date":"2003","value":138.763711259406,"unit":"","obs_status":"","decimal":0},{"indicator":{"id":"SP.DYN.AMRT.FE","value":"Mortality rate, adult, female (per 1,000 female adults)"},"country":{"id":"1A","value":"Arab World"},"countryiso3code":"ARB","date":"2002","value":141.123761196649,"unit":"","obs_status":"","decimal":0},{"indicator":{"id":"SP.DYN.AMRT.FE","value":"Mortality rate, adult, female (per 1,000 female adults)"},"country":{"id":"1A","value":"Arab World"},"countryiso3code":"ARB","date":"2001","value":142.898618575248,"unit":"","obs_status":"","decimal":0},{"indicator":{"id":"SP.DYN.AMRT.FE","value":"Mortality rate, adult, female (per 1,000 female adults)"},"country":{"id":"1A","value":"Arab World"},"countryiso3code":"ARB","date":"2000","value":144.700542690384,"unit":"","obs_status":"","decimal":0},{"indicator":{"id":"SP.DYN.AMRT.FE","value":"Mortality rate, adult, female (per 1,000 female adults)"},"country":{"id":"1A","value":"Arab World"},"countryiso3code":"ARB","date":"1999","value":146.527452748292,"unit":"","obs_status":"","decimal":0},{"indicator":{"id":"SP.DYN.AMRT.FE","value":"Mortality rate, adult, female (per 1,000 female adults)"},"country":{"id":"1A","value":"Arab World"},"countryiso3code":"ARB","date":"1998","value":148.39075307454,"unit":"","obs_status":"","decimal":0},{"indicator":{"id":"SP.DYN.AMRT.FE","value":"Mortality rate, adult, female (per 1,000 female adults)"},"country":{"id":"1A","value":"Arab World"},"countryiso3code":"ARB","date":"1997","value":150.294097192467,"unit":"","obs_status":"","decimal":0},{"indicator":{"id":"SP.DYN.AMRT.FE","value":"Mortality rate, adult, female (per 1,000 female adults)"},"country":{"id":"1A","value":"Arab World"},"countryiso3code":"ARB","date":"1996","value":152.858095763352,"unit":"","obs_status":"","decimal":0},{"indicator":{"id":"SP.DYN.AMRT.FE","value":"Mortality rate, adult, female (per 1,000 female adults)"},"country":{"id":"1A","value":"Arab World"},"countryiso3code":"ARB","date":"1995","value":155.461364911254,"unit":"","obs_status":"","decimal":0},{"indicator":{"id":"SP.DYN.AMRT.FE","value":"Mortality rate, adult, female (per 1,000 female adults)"},"country":{"id":"1A","value":"Arab World"},"countryiso3code":"ARB","date":"1994","value":158.500701902913,"unit":"","obs_status":"","decimal":0},{"indicator":{"id":"SP.DYN.AMRT.FE","value":"Mortality rate, adult, female (per 1,000 female adults)"},"country":{"id":"1A","value":"Arab World"},"countryiso3code":"ARB","date":"1993","value":161.064829317491,"unit":"","obs_status":"","decimal":0},{"indicator":{"id":"SP.DYN.AMRT.FE","value":"Mortality rate, adult, female (per 1,000 female adults)"},"country":{"id":"1A","value":"Arab World"},"countryiso3code":"ARB","date":"1992","value":163.643948557766,"unit":"","obs_status":"","decimal":0},{"indicator":{"id":"SP.DYN.AMRT.FE","value":"Mortality rate, adult, female (per 1,000 female adults)"},"country":{"id":"1A","value":"Arab World"},"countryiso3code":"ARB","date":"1991","value":165.948672534932,"unit":"","obs_status":"","decimal":0},{"indicator":{"id":"SP.DYN.AMRT.FE","value":"Mortality rate, adult, female (per 1,000 female adults)"},"country":{"id":"1A","value":"Arab World"},"countryiso3code":"ARB","date":"1990","value":168.921437089915,"unit":"","obs_status":"","decimal":0},{"indicator":{"id":"SP.DYN.AMRT.FE","value":"Mortality rate, adult, female (per 1,000 female adults)"},"country":{"id":"1A","value":"Arab World"},"countryiso3code":"ARB","date":"1989","value":171.92801214288,"unit":"","obs_status":"","decimal":0},{"indicator":{"id":"SP.DYN.AMRT.FE","value":"Mortality rate, adult, female (per 1,000 female adults)"},"country":{"id":"1A","value":"Arab World"},"countryiso3code":"ARB","date":"1988","value":174.83367274602,"unit":"","obs_status":"","decimal":0},{"indicator":{"id":"SP.DYN.AMRT.FE","value":"Mortality rate, adult, female (per 1,000 female adults)"},"country":{"id":"1A","value":"Arab World"},"countryiso3code":"ARB","date":"1987","value":177.758193127492,"unit":"","obs_status":"","decimal":0},{"indicator":{"id":"SP.DYN.AMRT.FE","value":"Mortality rate, adult, female (per 1,000 female adults)"},"country":{"id":"1A","value":"Arab World"},"countryiso3code":"ARB","date":"1986","value":181.841721726096,"unit":"","obs_status":"","decimal":0},{"indicator":{"id":"SP.DYN.AMRT.FE","value":"Mortality rate, adult, female (per 1,000 female adults)"},"country":{"id":"1A","value":"Arab World"},"countryiso3code":"ARB","date":"1985","value":185.962941552565,"unit":"","obs_status":"","decimal":0},{"indicator":{"id":"SP.DYN.AMRT.FE","value":"Mortality rate, adult, female (per 1,000 female adults)"},"country":{"id":"1A","value":"Arab World"},"countryiso3code":"ARB","date":"1984","value":190.115969474966,"unit":"","obs_status":"","decimal":0},{"indicator":{"id":"SP.DYN.AMRT.FE","value":"Mortality rate, adult, female (per 1,000 female adults)"},"country":{"id":"1A","value":"Arab World"},"countryiso3code":"ARB","date":"1983","value":194.308933222356,"unit":"","obs_status":"","decimal":0},{"indicator":{"id":"SP.DYN.AMRT.FE","value":"Mortality rate, adult, female (per 1,000 female adults)"},"country":{"id":"1A","value":"Arab World"},"countryiso3code":"ARB","date":"1982","value":198.500465422438,"unit":"","obs_status":"","decimal":0},{"indicator":{"id":"SP.DYN.AMRT.FE","value":"Mortality rate, adult, female (per 1,000 female adults)"},"country":{"id":"1A","value":"Arab World"},"countryiso3code":"ARB","date":"1981","value":204.253950552345,"unit":"","obs_status":"","decimal":0},{"indicator":{"id":"SP.DYN.AMRT.FE","value":"Mortality rate, adult, female (per 1,000 female adults)"},"country":{"id":"1A","value":"Arab World"},"countryiso3code":"ARB","date":"1980","value":209.863891863865,"unit":"","obs_status":"","decimal":0},{"indicator":{"id":"SP.DYN.AMRT.FE","value":"Mortality rate, adult, female (per 1,000 female adults)"},"country":{"id":"1A","value":"Arab World"},"countryiso3code":"ARB","date":"1979","value":215.231675348875,"unit":"","obs_status":"","decimal":0},{"indicator":{"id":"SP.DYN.AMRT.FE","value":"Mortality rate, adult, female (per 1,000 female adults)"},"country":{"id":"1A","value":"Arab World"},"countryiso3code":"ARB","date":"1978","value":220.457649660691,"unit":"","obs_status":"","decimal":0},{"indicator":{"id":"SP.DYN.AMRT.FE","value":"Mortality rate, adult, female (per 1,000 female adults)"},"country":{"id":"1A","value":"Arab World"},"countryiso3code":"ARB","date":"1977","value":225.594389490797,"unit":"","obs_status":"","decimal":0},{"indicator":{"id":"SP.DYN.AMRT.FE","value":"Mortality rate, adult, female (per 1,000 female adults)"},"country":{"id":"1A","value":"Arab World"},"countryiso3code":"ARB","date":"1976","value":229.21991408868,"unit":"","obs_status":"","decimal":0},{"indicator":{"id":"SP.DYN.AMRT.FE","value":"Mortality rate, adult, female (per 1,000 female adults)"},"country":{"id":"1A","value":"Arab World"},"countryiso3code":"ARB","date":"1975","value":232.976972434468,"unit":"","obs_status":"","decimal":0},{"indicator":{"id":"SP.DYN.AMRT.FE","value":"Mortality rate, adult, female (per 1,000 female adults)"},"country":{"id":"1A","value":"Arab World"},"countryiso3code":"ARB","date":"1974","value":236.944046754283,"unit":"","obs_status":"","decimal":0},{"indicator":{"id":"SP.DYN.AMRT.FE","value":"Mortality rate, adult, female (per 1,000 female adults)"},"country":{"id":"1A","value":"Arab World"},"countryiso3code":"ARB","date":"1973","value":241.061943689781,"unit":"","obs_status":"","decimal":0},{"indicator":{"id":"SP.DYN.AMRT.FE","value":"Mortality rate, adult, female (per 1,000 female adults)"},"country":{"id":"1A","value":"Arab World"},"countryiso3code":"ARB","date":"1972","value":245.300058883588,"unit":"","obs_status":"","decimal":0},{"indicator":{"id":"SP.DYN.AMRT.FE","value":"Mortality rate, adult, female (per 1,000 female adults)"},"country":{"id":"1A","value":"Arab World"},"countryiso3code":"ARB","date":"1971","value":249.894221077247,"unit":"","obs_status":"","decimal":0},{"indicator":{"id":"SP.DYN.AMRT.FE","value":"Mortality rate, adult, female (per 1,000 female adults)"},"country":{"id":"1A","value":"Arab World"},"countryiso3code":"ARB","date":"1970","value":254.44261866101,"unit":"","obs_status":"","decimal":0}]]