[{"page":1,"pages":317,"per_page":50,"total":15840,"sourceid":"2","lastupdated":"2020-03-18"},[{"indicator":{"id":"SP.DYN.AMRT.MA","value":"Mortality rate, adult, male (per 1,000 male adults)"},"country":{"id":"1A","value":"Arab World"},"countryiso3code":"ARB","date":"2019","value":null,"unit":"","obs_status":"","decimal":0},{"indicator":{"id":"SP.DYN.AMRT.MA","value":"Mortality rate, adult, male (per 1,000 male adults)"},"country":{"id":"1A","value":"Arab World"},"countryiso3code":"ARB","date":"2018","value":null,"unit":"","obs_status":"","decimal":0},{"indicator":{"id":"SP.DYN.AMRT.MA","value":"Mortality rate, adult, male (per 1,000 male adults)"},"country":{"id":"1A","value":"Arab World"},"countryiso3code":"ARB","date":"2017","value":158.506998763172,"unit":"","obs_status":"","decimal":0},{"indicator":{"id":"SP.DYN.AMRT.MA","value":"Mortality rate, adult, male (per 1,000 male adults)"},"country":{"id":"1A","value":"Arab World"},"countryiso3code":"ARB","date":"2016","value":160.260496357114,"unit":"","obs_status":"","decimal":0},{"indicator":{"id":"SP.DYN.AMRT.MA","value":"Mortality rate, adult, male (per 1,000 male adults)"},"country":{"id":"1A","value":"Arab World"},"countryiso3code":"ARB","date":"2015","value":162.10692262359,"unit":"","obs_status":"","decimal":0},{"indicator":{"id":"SP.DYN.AMRT.MA","value":"Mortality rate, adult, male (per 1,000 male adults)"},"country":{"id":"1A","value":"Arab World"},"countryiso3code":"ARB","date":"2014","value":163.97990006348,"unit":"","obs_status":"","decimal":0},{"indicator":{"id":"SP.DYN.AMRT.MA","value":"Mortality rate, adult, male (per 1,000 male adults)"},"country":{"id":"1A","value":"Arab World"},"countryiso3code":"ARB","date":"2013","value":165.946654597504,"unit":"","obs_status":"","decimal":0},{"indicator":{"id":"SP.DYN.AMRT.MA","value":"Mortality rate, adult, male (per 1,000 male adults)"},"country":{"id":"1A","value":"Arab World"},"countryiso3code":"ARB","date":"2012","value":168.018438026754,"unit":"","obs_status":"","decimal":0},{"indicator":{"id":"SP.DYN.AMRT.MA","value":"Mortality rate, adult, male (per 1,000 male adults)"},"country":{"id":"1A","value":"Arab World"},"countryiso3code":"ARB","date":"2011","value":169.798262102975,"unit":"","obs_status":"","decimal":0},{"indicator":{"id":"SP.DYN.AMRT.MA","value":"Mortality rate, adult, male (per 1,000 male adults)"},"country":{"id":"1A","value":"Arab World"},"countryiso3code":"ARB","date":"2010","value":171.526249475379,"unit":"","obs_status":"","decimal":0},{"indicator":{"id":"SP.DYN.AMRT.MA","value":"Mortality rate, adult, male (per 1,000 male adults)"},"country":{"id":"1A","value":"Arab World"},"countryiso3code":"ARB","date":"2009","value":173.340988431026,"unit":"","obs_status":"","decimal":0},{"indicator":{"id":"SP.DYN.AMRT.MA","value":"Mortality rate, adult, male (per 1,000 male adults)"},"country":{"id":"1A","value":"Arab World"},"countryiso3code":"ARB","date":"2008","value":175.31952746962,"unit":"","obs_status":"","decimal":0},{"indicator":{"id":"SP.DYN.AMRT.MA","value":"Mortality rate, adult, male (per 1,000 male adults)"},"country":{"id":"1A","value":"Arab World"},"countryiso3code":"ARB","date":"2007","value":177.471100345007,"unit":"","obs_status":"","decimal":0},{"indicator":{"id":"SP.DYN.AMRT.MA","value":"Mortality rate, adult, male (per 1,000 male adults)"},"country":{"id":"1A","value":"Arab World"},"countryiso3code":"ARB","date":"2006","value":180.82021329215,"unit":"","obs_status":"","decimal":0},{"indicator":{"id":"SP.DYN.AMRT.MA","value":"Mortality rate, adult, male (per 1,000 male adults)"},"country":{"id":"1A","value":"Arab World"},"countryiso3code":"ARB","date":"2005","value":184.099414625263,"unit":"","obs_status":"","decimal":0},{"indicator":{"id":"SP.DYN.AMRT.MA","value":"Mortality rate, adult, male (per 1,000 male adults)"},"country":{"id":"1A","value":"Arab World"},"countryiso3code":"ARB","date":"2004","value":187.079573965667,"unit":"","obs_status":"","decimal":0},{"indicator":{"id":"SP.DYN.AMRT.MA","value":"Mortality rate, adult, male (per 1,000 male adults)"},"country":{"id":"1A","value":"Arab World"},"countryiso3code":"ARB","date":"2003","value":189.960897262019,"unit":"","obs_status":"","decimal":0},{"indicator":{"id":"SP.DYN.AMRT.MA","value":"Mortality rate, adult, male (per 1,000 male adults)"},"country":{"id":"1A","value":"Arab World"},"countryiso3code":"ARB","date":"2002","value":192.774638828136,"unit":"","obs_status":"","decimal":0},{"indicator":{"id":"SP.DYN.AMRT.MA","value":"Mortality rate, adult, male (per 1,000 male adults)"},"country":{"id":"1A","value":"Arab World"},"countryiso3code":"ARB","date":"2001","value":195.618792205145,"unit":"","obs_status":"","decimal":0},{"indicator":{"id":"SP.DYN.AMRT.MA","value":"Mortality rate, adult, male (per 1,000 male adults)"},"country":{"id":"1A","value":"Arab World"},"countryiso3code":"ARB","date":"2000","value":198.482058249587,"unit":"","obs_status":"","decimal":0},{"indicator":{"id":"SP.DYN.AMRT.MA","value":"Mortality rate, adult, male (per 1,000 male adults)"},"country":{"id":"1A","value":"Arab World"},"countryiso3code":"ARB","date":"1999","value":201.173733709392,"unit":"","obs_status":"","decimal":0},{"indicator":{"id":"SP.DYN.AMRT.MA","value":"Mortality rate, adult, male (per 1,000 male adults)"},"country":{"id":"1A","value":"Arab World"},"countryiso3code":"ARB","date":"1998","value":203.879672122862,"unit":"","obs_status":"","decimal":0},{"indicator":{"id":"SP.DYN.AMRT.MA","value":"Mortality rate, adult, male (per 1,000 male adults)"},"country":{"id":"1A","value":"Arab World"},"countryiso3code":"ARB","date":"1997","value":206.613396092175,"unit":"","obs_status":"","decimal":0},{"indicator":{"id":"SP.DYN.AMRT.MA","value":"Mortality rate, adult, male (per 1,000 male adults)"},"country":{"id":"1A","value":"Arab World"},"countryiso3code":"ARB","date":"1996","value":209.73870790706,"unit":"","obs_status":"","decimal":0},{"indicator":{"id":"SP.DYN.AMRT.MA","value":"Mortality rate, adult, male (per 1,000 male adults)"},"country":{"id":"1A","value":"Arab World"},"countryiso3code":"ARB","date":"1995","value":212.874708780463,"unit":"","obs_status":"","decimal":0},{"indicator":{"id":"SP.DYN.AMRT.MA","value":"Mortality rate, adult, male (per 1,000 male adults)"},"country":{"id":"1A","value":"Arab World"},"countryiso3code":"ARB","date":"1994","value":216.947343246206,"unit":"","obs_status":"","decimal":0},{"indicator":{"id":"SP.DYN.AMRT.MA","value":"Mortality rate, adult, male (per 1,000 male adults)"},"country":{"id":"1A","value":"Arab World"},"countryiso3code":"ARB","date":"1993","value":220.116251226009,"unit":"","obs_status":"","decimal":0},{"indicator":{"id":"SP.DYN.AMRT.MA","value":"Mortality rate, adult, male (per 1,000 male adults)"},"country":{"id":"1A","value":"Arab World"},"countryiso3code":"ARB","date":"1992","value":223.329597904897,"unit":"","obs_status":"","decimal":0},{"indicator":{"id":"SP.DYN.AMRT.MA","value":"Mortality rate, adult, male (per 1,000 male adults)"},"country":{"id":"1A","value":"Arab World"},"countryiso3code":"ARB","date":"1991","value":225.363652502717,"unit":"","obs_status":"","decimal":0},{"indicator":{"id":"SP.DYN.AMRT.MA","value":"Mortality rate, adult, male (per 1,000 male adults)"},"country":{"id":"1A","value":"Arab World"},"countryiso3code":"ARB","date":"1990","value":228.705560982592,"unit":"","obs_status":"","decimal":0},{"indicator":{"id":"SP.DYN.AMRT.MA","value":"Mortality rate, adult, male (per 1,000 male adults)"},"country":{"id":"1A","value":"Arab World"},"countryiso3code":"ARB","date":"1989","value":232.330276184032,"unit":"","obs_status":"","decimal":0},{"indicator":{"id":"SP.DYN.AMRT.MA","value":"Mortality rate, adult, male (per 1,000 male adults)"},"country":{"id":"1A","value":"Arab World"},"countryiso3code":"ARB","date":"1988","value":235.752093611319,"unit":"","obs_status":"","decimal":0},{"indicator":{"id":"SP.DYN.AMRT.MA","value":"Mortality rate, adult, male (per 1,000 male adults)"},"country":{"id":"1A","value":"Arab World"},"countryiso3code":"ARB","date":"1987","value":239.24142543606,"unit":"","obs_status":"","decimal":0},{"indicator":{"id":"SP.DYN.AMRT.MA","value":"Mortality rate, adult, male (per 1,000 male adults)"},"country":{"id":"1A","value":"Arab World"},"countryiso3code":"ARB","date":"1986","value":246.043545418514,"unit":"","obs_status":"","decimal":0},{"indicator":{"id":"SP.DYN.AMRT.MA","value":"Mortality rate, adult, male (per 1,000 male adults)"},"country":{"id":"1A","value":"Arab World"},"countryiso3code":"ARB","date":"1985","value":252.891675329248,"unit":"","obs_status":"","decimal":0},{"indicator":{"id":"SP.DYN.AMRT.MA","value":"Mortality rate, adult, male (per 1,000 male adults)"},"country":{"id":"1A","value":"Arab World"},"countryiso3code":"ARB","date":"1984","value":259.794357250224,"unit":"","obs_status":"","decimal":0},{"indicator":{"id":"SP.DYN.AMRT.MA","value":"Mortality rate, adult, male (per 1,000 male adults)"},"country":{"id":"1A","value":"Arab World"},"countryiso3code":"ARB","date":"1983","value":266.747379283344,"unit":"","obs_status":"","decimal":0},{"indicator":{"id":"SP.DYN.AMRT.MA","value":"Mortality rate, adult, male (per 1,000 male adults)"},"country":{"id":"1A","value":"Arab World"},"countryiso3code":"ARB","date":"1982","value":273.710231274299,"unit":"","obs_status":"","decimal":0},{"indicator":{"id":"SP.DYN.AMRT.MA","value":"Mortality rate, adult, male (per 1,000 male adults)"},"country":{"id":"1A","value":"Arab World"},"countryiso3code":"ARB","date":"1981","value":275.879749284081,"unit":"","obs_status":"","decimal":0},{"indicator":{"id":"SP.DYN.AMRT.MA","value":"Mortality rate, adult, male (per 1,000 male adults)"},"country":{"id":"1A","value":"Arab World"},"countryiso3code":"ARB","date":"1980","value":277.834705910396,"unit":"","obs_status":"","decimal":0},{"indicator":{"id":"SP.DYN.AMRT.MA","value":"Mortality rate, adult, male (per 1,000 male adults)"},"country":{"id":"1A","value":"Arab World"},"countryiso3code":"ARB","date":"1979","value":279.366458249504,"unit":"","obs_status":"","decimal":0},{"indicator":{"id":"SP.DYN.AMRT.MA","value":"Mortality rate, adult, male (per 1,000 male adults)"},"country":{"id":"1A","value":"Arab World"},"countryiso3code":"ARB","date":"1978","value":280.695239282483,"unit":"","obs_status":"","decimal":0},{"indicator":{"id":"SP.DYN.AMRT.MA","value":"Mortality rate, adult, male (per 1,000 male adults)"},"country":{"id":"1A","value":"Arab World"},"countryiso3code":"ARB","date":"1977","value":281.868301356362,"unit":"","obs_status":"","decimal":0},{"indicator":{"id":"SP.DYN.AMRT.MA","value":"Mortality rate, adult, male (per 1,000 male adults)"},"country":{"id":"1A","value":"Arab World"},"countryiso3code":"ARB","date":"1976","value":285.834033913621,"unit":"","obs_status":"","decimal":0},{"indicator":{"id":"SP.DYN.AMRT.MA","value":"Mortality rate, adult, male (per 1,000 male adults)"},"country":{"id":"1A","value":"Arab World"},"countryiso3code":"ARB","date":"1975","value":289.93382992839,"unit":"","obs_status":"","decimal":0},{"indicator":{"id":"SP.DYN.AMRT.MA","value":"Mortality rate, adult, male (per 1,000 male adults)"},"country":{"id":"1A","value":"Arab World"},"countryiso3code":"ARB","date":"1974","value":294.285601943515,"unit":"","obs_status":"","decimal":0},{"indicator":{"id":"SP.DYN.AMRT.MA","value":"Mortality rate, adult, male (per 1,000 male adults)"},"country":{"id":"1A","value":"Arab World"},"countryiso3code":"ARB","date":"1973","value":298.793941547301,"unit":"","obs_status":"","decimal":0},{"indicator":{"id":"SP.DYN.AMRT.MA","value":"Mortality rate, adult, male (per 1,000 male adults)"},"country":{"id":"1A","value":"Arab World"},"countryiso3code":"ARB","date":"1972","value":303.429839883567,"unit":"","obs_status":"","decimal":0},{"indicator":{"id":"SP.DYN.AMRT.MA","value":"Mortality rate, adult, male (per 1,000 male adults)"},"country":{"id":"1A","value":"Arab World"},"countryiso3code":"ARB","date":"1971","value":308.143457028398,"unit":"","obs_status":"","decimal":0},{"indicator":{"id":"SP.DYN.AMRT.MA","value":"Mortality rate, adult, male (per 1,000 male adults)"},"country":{"id":"1A","value":"Arab World"},"countryiso3code":"ARB","date":"1970","value":312.814772594313,"unit":"","obs_status":"","decimal":0}]]