[{"page":1,"pages":317,"per_page":50,"total":15840,"sourceid":"2","lastupdated":"2020-03-18"},[{"indicator":{"id":"SH.XPD.OOPC.CH.ZS","value":"Out-of-pocket expenditure (% of current health expenditure)"},"country":{"id":"1A","value":"Arab World"},"countryiso3code":"ARB","date":"2019","value":null,"unit":"","obs_status":"","decimal":2},{"indicator":{"id":"SH.XPD.OOPC.CH.ZS","value":"Out-of-pocket expenditure (% of current health expenditure)"},"country":{"id":"1A","value":"Arab World"},"countryiso3code":"ARB","date":"2018","value":null,"unit":"","obs_status":"","decimal":2},{"indicator":{"id":"SH.XPD.OOPC.CH.ZS","value":"Out-of-pocket expenditure (% of current health expenditure)"},"country":{"id":"1A","value":"Arab World"},"countryiso3code":"ARB","date":"2017","value":null,"unit":"","obs_status":"","decimal":2},{"indicator":{"id":"SH.XPD.OOPC.CH.ZS","value":"Out-of-pocket expenditure (% of current health expenditure)"},"country":{"id":"1A","value":"Arab World"},"countryiso3code":"ARB","date":"2016","value":31.3138635156071,"unit":"","obs_status":"","decimal":2},{"indicator":{"id":"SH.XPD.OOPC.CH.ZS","value":"Out-of-pocket expenditure (% of current health expenditure)"},"country":{"id":"1A","value":"Arab World"},"countryiso3code":"ARB","date":"2015","value":31.0896274297721,"unit":"","obs_status":"","decimal":2},{"indicator":{"id":"SH.XPD.OOPC.CH.ZS","value":"Out-of-pocket expenditure (% of current health expenditure)"},"country":{"id":"1A","value":"Arab World"},"countryiso3code":"ARB","date":"2014","value":28.8884807971799,"unit":"","obs_status":"","decimal":2},{"indicator":{"id":"SH.XPD.OOPC.CH.ZS","value":"Out-of-pocket expenditure (% of current health expenditure)"},"country":{"id":"1A","value":"Arab World"},"countryiso3code":"ARB","date":"2013","value":30.7418710484407,"unit":"","obs_status":"","decimal":2},{"indicator":{"id":"SH.XPD.OOPC.CH.ZS","value":"Out-of-pocket expenditure (% of current health expenditure)"},"country":{"id":"1A","value":"Arab World"},"countryiso3code":"ARB","date":"2012","value":31.4840397259417,"unit":"","obs_status":"","decimal":2},{"indicator":{"id":"SH.XPD.OOPC.CH.ZS","value":"Out-of-pocket expenditure (% of current health expenditure)"},"country":{"id":"1A","value":"Arab World"},"countryiso3code":"ARB","date":"2011","value":30.8845109524647,"unit":"","obs_status":"","decimal":2},{"indicator":{"id":"SH.XPD.OOPC.CH.ZS","value":"Out-of-pocket expenditure (% of current health expenditure)"},"country":{"id":"1A","value":"Arab World"},"countryiso3code":"ARB","date":"2010","value":33.0512097062039,"unit":"","obs_status":"","decimal":2},{"indicator":{"id":"SH.XPD.OOPC.CH.ZS","value":"Out-of-pocket expenditure (% of current health expenditure)"},"country":{"id":"1A","value":"Arab World"},"countryiso3code":"ARB","date":"2009","value":31.3552860499509,"unit":"","obs_status":"","decimal":2},{"indicator":{"id":"SH.XPD.OOPC.CH.ZS","value":"Out-of-pocket expenditure (% of current health expenditure)"},"country":{"id":"1A","value":"Arab World"},"countryiso3code":"ARB","date":"2008","value":34.5982352407433,"unit":"","obs_status":"","decimal":2},{"indicator":{"id":"SH.XPD.OOPC.CH.ZS","value":"Out-of-pocket expenditure (% of current health expenditure)"},"country":{"id":"1A","value":"Arab World"},"countryiso3code":"ARB","date":"2007","value":34.62290131588,"unit":"","obs_status":"","decimal":2},{"indicator":{"id":"SH.XPD.OOPC.CH.ZS","value":"Out-of-pocket expenditure (% of current health expenditure)"},"country":{"id":"1A","value":"Arab World"},"countryiso3code":"ARB","date":"2006","value":34.0798339889543,"unit":"","obs_status":"","decimal":2},{"indicator":{"id":"SH.XPD.OOPC.CH.ZS","value":"Out-of-pocket expenditure (% of current health expenditure)"},"country":{"id":"1A","value":"Arab World"},"countryiso3code":"ARB","date":"2005","value":34.9392986940257,"unit":"","obs_status":"","decimal":2},{"indicator":{"id":"SH.XPD.OOPC.CH.ZS","value":"Out-of-pocket expenditure (% of current health expenditure)"},"country":{"id":"1A","value":"Arab World"},"countryiso3code":"ARB","date":"2004","value":35.3479372691781,"unit":"","obs_status":"","decimal":2},{"indicator":{"id":"SH.XPD.OOPC.CH.ZS","value":"Out-of-pocket expenditure (% of current health expenditure)"},"country":{"id":"1A","value":"Arab World"},"countryiso3code":"ARB","date":"2003","value":35.541650231479,"unit":"","obs_status":"","decimal":2},{"indicator":{"id":"SH.XPD.OOPC.CH.ZS","value":"Out-of-pocket expenditure (% of current health expenditure)"},"country":{"id":"1A","value":"Arab World"},"countryiso3code":"ARB","date":"2002","value":36.2772556423585,"unit":"","obs_status":"","decimal":2},{"indicator":{"id":"SH.XPD.OOPC.CH.ZS","value":"Out-of-pocket expenditure (% of current health expenditure)"},"country":{"id":"1A","value":"Arab World"},"countryiso3code":"ARB","date":"2001","value":35.7310045677945,"unit":"","obs_status":"","decimal":2},{"indicator":{"id":"SH.XPD.OOPC.CH.ZS","value":"Out-of-pocket expenditure (% of current health expenditure)"},"country":{"id":"1A","value":"Arab World"},"countryiso3code":"ARB","date":"2000","value":37.6351679556105,"unit":"","obs_status":"","decimal":2},{"indicator":{"id":"SH.XPD.OOPC.CH.ZS","value":"Out-of-pocket expenditure (% of current health expenditure)"},"country":{"id":"1A","value":"Arab World"},"countryiso3code":"ARB","date":"1999","value":null,"unit":"","obs_status":"","decimal":2},{"indicator":{"id":"SH.XPD.OOPC.CH.ZS","value":"Out-of-pocket expenditure (% of current health expenditure)"},"country":{"id":"1A","value":"Arab World"},"countryiso3code":"ARB","date":"1998","value":null,"unit":"","obs_status":"","decimal":2},{"indicator":{"id":"SH.XPD.OOPC.CH.ZS","value":"Out-of-pocket expenditure (% of current health expenditure)"},"country":{"id":"1A","value":"Arab World"},"countryiso3code":"ARB","date":"1997","value":null,"unit":"","obs_status":"","decimal":2},{"indicator":{"id":"SH.XPD.OOPC.CH.ZS","value":"Out-of-pocket expenditure (% of current health expenditure)"},"country":{"id":"1A","value":"Arab World"},"countryiso3code":"ARB","date":"1996","value":null,"unit":"","obs_status":"","decimal":2},{"indicator":{"id":"SH.XPD.OOPC.CH.ZS","value":"Out-of-pocket expenditure (% of current health expenditure)"},"country":{"id":"1A","value":"Arab World"},"countryiso3code":"ARB","date":"1995","value":null,"unit":"","obs_status":"","decimal":2},{"indicator":{"id":"SH.XPD.OOPC.CH.ZS","value":"Out-of-pocket expenditure (% of current health expenditure)"},"country":{"id":"1A","value":"Arab World"},"countryiso3code":"ARB","date":"1994","value":null,"unit":"","obs_status":"","decimal":2},{"indicator":{"id":"SH.XPD.OOPC.CH.ZS","value":"Out-of-pocket expenditure (% of current health expenditure)"},"country":{"id":"1A","value":"Arab World"},"countryiso3code":"ARB","date":"1993","value":null,"unit":"","obs_status":"","decimal":2},{"indicator":{"id":"SH.XPD.OOPC.CH.ZS","value":"Out-of-pocket expenditure (% of current health expenditure)"},"country":{"id":"1A","value":"Arab World"},"countryiso3code":"ARB","date":"1992","value":null,"unit":"","obs_status":"","decimal":2},{"indicator":{"id":"SH.XPD.OOPC.CH.ZS","value":"Out-of-pocket expenditure (% of current health expenditure)"},"country":{"id":"1A","value":"Arab World"},"countryiso3code":"ARB","date":"1991","value":null,"unit":"","obs_status":"","decimal":2},{"indicator":{"id":"SH.XPD.OOPC.CH.ZS","value":"Out-of-pocket expenditure (% of current health expenditure)"},"country":{"id":"1A","value":"Arab World"},"countryiso3code":"ARB","date":"1990","value":null,"unit":"","obs_status":"","decimal":2},{"indicator":{"id":"SH.XPD.OOPC.CH.ZS","value":"Out-of-pocket expenditure (% of current health expenditure)"},"country":{"id":"1A","value":"Arab World"},"countryiso3code":"ARB","date":"1989","value":null,"unit":"","obs_status":"","decimal":2},{"indicator":{"id":"SH.XPD.OOPC.CH.ZS","value":"Out-of-pocket expenditure (% of current health expenditure)"},"country":{"id":"1A","value":"Arab World"},"countryiso3code":"ARB","date":"1988","value":null,"unit":"","obs_status":"","decimal":2},{"indicator":{"id":"SH.XPD.OOPC.CH.ZS","value":"Out-of-pocket expenditure (% of current health expenditure)"},"country":{"id":"1A","value":"Arab World"},"countryiso3code":"ARB","date":"1987","value":null,"unit":"","obs_status":"","decimal":2},{"indicator":{"id":"SH.XPD.OOPC.CH.ZS","value":"Out-of-pocket expenditure (% of current health expenditure)"},"country":{"id":"1A","value":"Arab World"},"countryiso3code":"ARB","date":"1986","value":null,"unit":"","obs_status":"","decimal":2},{"indicator":{"id":"SH.XPD.OOPC.CH.ZS","value":"Out-of-pocket expenditure (% of current health expenditure)"},"country":{"id":"1A","value":"Arab World"},"countryiso3code":"ARB","date":"1985","value":null,"unit":"","obs_status":"","decimal":2},{"indicator":{"id":"SH.XPD.OOPC.CH.ZS","value":"Out-of-pocket expenditure (% of current health expenditure)"},"country":{"id":"1A","value":"Arab World"},"countryiso3code":"ARB","date":"1984","value":null,"unit":"","obs_status":"","decimal":2},{"indicator":{"id":"SH.XPD.OOPC.CH.ZS","value":"Out-of-pocket expenditure (% of current health expenditure)"},"country":{"id":"1A","value":"Arab World"},"countryiso3code":"ARB","date":"1983","value":null,"unit":"","obs_status":"","decimal":2},{"indicator":{"id":"SH.XPD.OOPC.CH.ZS","value":"Out-of-pocket expenditure (% of current health expenditure)"},"country":{"id":"1A","value":"Arab World"},"countryiso3code":"ARB","date":"1982","value":null,"unit":"","obs_status":"","decimal":2},{"indicator":{"id":"SH.XPD.OOPC.CH.ZS","value":"Out-of-pocket expenditure (% of current health expenditure)"},"country":{"id":"1A","value":"Arab World"},"countryiso3code":"ARB","date":"1981","value":null,"unit":"","obs_status":"","decimal":2},{"indicator":{"id":"SH.XPD.OOPC.CH.ZS","value":"Out-of-pocket expenditure (% of current health expenditure)"},"country":{"id":"1A","value":"Arab World"},"countryiso3code":"ARB","date":"1980","value":null,"unit":"","obs_status":"","decimal":2},{"indicator":{"id":"SH.XPD.OOPC.CH.ZS","value":"Out-of-pocket expenditure (% of current health expenditure)"},"country":{"id":"1A","value":"Arab World"},"countryiso3code":"ARB","date":"1979","value":null,"unit":"","obs_status":"","decimal":2},{"indicator":{"id":"SH.XPD.OOPC.CH.ZS","value":"Out-of-pocket expenditure (% of current health expenditure)"},"country":{"id":"1A","value":"Arab World"},"countryiso3code":"ARB","date":"1978","value":null,"unit":"","obs_status":"","decimal":2},{"indicator":{"id":"SH.XPD.OOPC.CH.ZS","value":"Out-of-pocket expenditure (% of current health expenditure)"},"country":{"id":"1A","value":"Arab World"},"countryiso3code":"ARB","date":"1977","value":null,"unit":"","obs_status":"","decimal":2},{"indicator":{"id":"SH.XPD.OOPC.CH.ZS","value":"Out-of-pocket expenditure (% of current health expenditure)"},"country":{"id":"1A","value":"Arab World"},"countryiso3code":"ARB","date":"1976","value":null,"unit":"","obs_status":"","decimal":2},{"indicator":{"id":"SH.XPD.OOPC.CH.ZS","value":"Out-of-pocket expenditure (% of current health expenditure)"},"country":{"id":"1A","value":"Arab World"},"countryiso3code":"ARB","date":"1975","value":null,"unit":"","obs_status":"","decimal":2},{"indicator":{"id":"SH.XPD.OOPC.CH.ZS","value":"Out-of-pocket expenditure (% of current health expenditure)"},"country":{"id":"1A","value":"Arab World"},"countryiso3code":"ARB","date":"1974","value":null,"unit":"","obs_status":"","decimal":2},{"indicator":{"id":"SH.XPD.OOPC.CH.ZS","value":"Out-of-pocket expenditure (% of current health expenditure)"},"country":{"id":"1A","value":"Arab World"},"countryiso3code":"ARB","date":"1973","value":null,"unit":"","obs_status":"","decimal":2},{"indicator":{"id":"SH.XPD.OOPC.CH.ZS","value":"Out-of-pocket expenditure (% of current health expenditure)"},"country":{"id":"1A","value":"Arab World"},"countryiso3code":"ARB","date":"1972","value":null,"unit":"","obs_status":"","decimal":2},{"indicator":{"id":"SH.XPD.OOPC.CH.ZS","value":"Out-of-pocket expenditure (% of current health expenditure)"},"country":{"id":"1A","value":"Arab World"},"countryiso3code":"ARB","date":"1971","value":null,"unit":"","obs_status":"","decimal":2},{"indicator":{"id":"SH.XPD.OOPC.CH.ZS","value":"Out-of-pocket expenditure (% of current health expenditure)"},"country":{"id":"1A","value":"Arab World"},"countryiso3code":"ARB","date":"1970","value":null,"unit":"","obs_status":"","decimal":2}]]