[{"page":1,"pages":317,"per_page":50,"total":15840,"sourceid":"2","lastupdated":"2020-03-18"},[{"indicator":{"id":"SH.XPD.OOPC.PC.CD","value":"Out-of-pocket expenditure per capita (current US$)"},"country":{"id":"1A","value":"Arab World"},"countryiso3code":"ARB","date":"2019","value":null,"unit":"","obs_status":"","decimal":2},{"indicator":{"id":"SH.XPD.OOPC.PC.CD","value":"Out-of-pocket expenditure per capita (current US$)"},"country":{"id":"1A","value":"Arab World"},"countryiso3code":"ARB","date":"2018","value":null,"unit":"","obs_status":"","decimal":2},{"indicator":{"id":"SH.XPD.OOPC.PC.CD","value":"Out-of-pocket expenditure per capita (current US$)"},"country":{"id":"1A","value":"Arab World"},"countryiso3code":"ARB","date":"2017","value":null,"unit":"","obs_status":"","decimal":2},{"indicator":{"id":"SH.XPD.OOPC.PC.CD","value":"Out-of-pocket expenditure per capita (current US$)"},"country":{"id":"1A","value":"Arab World"},"countryiso3code":"ARB","date":"2016","value":105.868153975892,"unit":"","obs_status":"","decimal":2},{"indicator":{"id":"SH.XPD.OOPC.PC.CD","value":"Out-of-pocket expenditure per capita (current US$)"},"country":{"id":"1A","value":"Arab World"},"countryiso3code":"ARB","date":"2015","value":106.593895927314,"unit":"","obs_status":"","decimal":2},{"indicator":{"id":"SH.XPD.OOPC.PC.CD","value":"Out-of-pocket expenditure per capita (current US$)"},"country":{"id":"1A","value":"Arab World"},"countryiso3code":"ARB","date":"2014","value":105.47899474588,"unit":"","obs_status":"","decimal":2},{"indicator":{"id":"SH.XPD.OOPC.PC.CD","value":"Out-of-pocket expenditure per capita (current US$)"},"country":{"id":"1A","value":"Arab World"},"countryiso3code":"ARB","date":"2013","value":103.610376967037,"unit":"","obs_status":"","decimal":2},{"indicator":{"id":"SH.XPD.OOPC.PC.CD","value":"Out-of-pocket expenditure per capita (current US$)"},"country":{"id":"1A","value":"Arab World"},"countryiso3code":"ARB","date":"2012","value":95.7207168945541,"unit":"","obs_status":"","decimal":2},{"indicator":{"id":"SH.XPD.OOPC.PC.CD","value":"Out-of-pocket expenditure per capita (current US$)"},"country":{"id":"1A","value":"Arab World"},"countryiso3code":"ARB","date":"2011","value":87.3931996042064,"unit":"","obs_status":"","decimal":2},{"indicator":{"id":"SH.XPD.OOPC.PC.CD","value":"Out-of-pocket expenditure per capita (current US$)"},"country":{"id":"1A","value":"Arab World"},"countryiso3code":"ARB","date":"2010","value":82.0492358519139,"unit":"","obs_status":"","decimal":2},{"indicator":{"id":"SH.XPD.OOPC.PC.CD","value":"Out-of-pocket expenditure per capita (current US$)"},"country":{"id":"1A","value":"Arab World"},"countryiso3code":"ARB","date":"2009","value":76.3190165138186,"unit":"","obs_status":"","decimal":2},{"indicator":{"id":"SH.XPD.OOPC.PC.CD","value":"Out-of-pocket expenditure per capita (current US$)"},"country":{"id":"1A","value":"Arab World"},"countryiso3code":"ARB","date":"2008","value":76.0621386911832,"unit":"","obs_status":"","decimal":2},{"indicator":{"id":"SH.XPD.OOPC.PC.CD","value":"Out-of-pocket expenditure per capita (current US$)"},"country":{"id":"1A","value":"Arab World"},"countryiso3code":"ARB","date":"2007","value":65.2661010064765,"unit":"","obs_status":"","decimal":2},{"indicator":{"id":"SH.XPD.OOPC.PC.CD","value":"Out-of-pocket expenditure per capita (current US$)"},"country":{"id":"1A","value":"Arab World"},"countryiso3code":"ARB","date":"2006","value":54.7443979062919,"unit":"","obs_status":"","decimal":2},{"indicator":{"id":"SH.XPD.OOPC.PC.CD","value":"Out-of-pocket expenditure per capita (current US$)"},"country":{"id":"1A","value":"Arab World"},"countryiso3code":"ARB","date":"2005","value":48.6138671339716,"unit":"","obs_status":"","decimal":2},{"indicator":{"id":"SH.XPD.OOPC.PC.CD","value":"Out-of-pocket expenditure per capita (current US$)"},"country":{"id":"1A","value":"Arab World"},"countryiso3code":"ARB","date":"2004","value":44.2952708070892,"unit":"","obs_status":"","decimal":2},{"indicator":{"id":"SH.XPD.OOPC.PC.CD","value":"Out-of-pocket expenditure per capita (current US$)"},"country":{"id":"1A","value":"Arab World"},"countryiso3code":"ARB","date":"2003","value":40.7297241442564,"unit":"","obs_status":"","decimal":2},{"indicator":{"id":"SH.XPD.OOPC.PC.CD","value":"Out-of-pocket expenditure per capita (current US$)"},"country":{"id":"1A","value":"Arab World"},"countryiso3code":"ARB","date":"2002","value":42.7441161986232,"unit":"","obs_status":"","decimal":2},{"indicator":{"id":"SH.XPD.OOPC.PC.CD","value":"Out-of-pocket expenditure per capita (current US$)"},"country":{"id":"1A","value":"Arab World"},"countryiso3code":"ARB","date":"2001","value":42.4046068398421,"unit":"","obs_status":"","decimal":2},{"indicator":{"id":"SH.XPD.OOPC.PC.CD","value":"Out-of-pocket expenditure per capita (current US$)"},"country":{"id":"1A","value":"Arab World"},"countryiso3code":"ARB","date":"2000","value":43.4526583781752,"unit":"","obs_status":"","decimal":2},{"indicator":{"id":"SH.XPD.OOPC.PC.CD","value":"Out-of-pocket expenditure per capita (current US$)"},"country":{"id":"1A","value":"Arab World"},"countryiso3code":"ARB","date":"1999","value":null,"unit":"","obs_status":"","decimal":2},{"indicator":{"id":"SH.XPD.OOPC.PC.CD","value":"Out-of-pocket expenditure per capita (current US$)"},"country":{"id":"1A","value":"Arab World"},"countryiso3code":"ARB","date":"1998","value":null,"unit":"","obs_status":"","decimal":2},{"indicator":{"id":"SH.XPD.OOPC.PC.CD","value":"Out-of-pocket expenditure per capita (current US$)"},"country":{"id":"1A","value":"Arab World"},"countryiso3code":"ARB","date":"1997","value":null,"unit":"","obs_status":"","decimal":2},{"indicator":{"id":"SH.XPD.OOPC.PC.CD","value":"Out-of-pocket expenditure per capita (current US$)"},"country":{"id":"1A","value":"Arab World"},"countryiso3code":"ARB","date":"1996","value":null,"unit":"","obs_status":"","decimal":2},{"indicator":{"id":"SH.XPD.OOPC.PC.CD","value":"Out-of-pocket expenditure per capita (current US$)"},"country":{"id":"1A","value":"Arab World"},"countryiso3code":"ARB","date":"1995","value":null,"unit":"","obs_status":"","decimal":2},{"indicator":{"id":"SH.XPD.OOPC.PC.CD","value":"Out-of-pocket expenditure per capita (current US$)"},"country":{"id":"1A","value":"Arab World"},"countryiso3code":"ARB","date":"1994","value":null,"unit":"","obs_status":"","decimal":2},{"indicator":{"id":"SH.XPD.OOPC.PC.CD","value":"Out-of-pocket expenditure per capita (current US$)"},"country":{"id":"1A","value":"Arab World"},"countryiso3code":"ARB","date":"1993","value":null,"unit":"","obs_status":"","decimal":2},{"indicator":{"id":"SH.XPD.OOPC.PC.CD","value":"Out-of-pocket expenditure per capita (current US$)"},"country":{"id":"1A","value":"Arab World"},"countryiso3code":"ARB","date":"1992","value":null,"unit":"","obs_status":"","decimal":2},{"indicator":{"id":"SH.XPD.OOPC.PC.CD","value":"Out-of-pocket expenditure per capita (current US$)"},"country":{"id":"1A","value":"Arab World"},"countryiso3code":"ARB","date":"1991","value":null,"unit":"","obs_status":"","decimal":2},{"indicator":{"id":"SH.XPD.OOPC.PC.CD","value":"Out-of-pocket expenditure per capita (current US$)"},"country":{"id":"1A","value":"Arab World"},"countryiso3code":"ARB","date":"1990","value":null,"unit":"","obs_status":"","decimal":2},{"indicator":{"id":"SH.XPD.OOPC.PC.CD","value":"Out-of-pocket expenditure per capita (current US$)"},"country":{"id":"1A","value":"Arab World"},"countryiso3code":"ARB","date":"1989","value":null,"unit":"","obs_status":"","decimal":2},{"indicator":{"id":"SH.XPD.OOPC.PC.CD","value":"Out-of-pocket expenditure per capita (current US$)"},"country":{"id":"1A","value":"Arab World"},"countryiso3code":"ARB","date":"1988","value":null,"unit":"","obs_status":"","decimal":2},{"indicator":{"id":"SH.XPD.OOPC.PC.CD","value":"Out-of-pocket expenditure per capita (current US$)"},"country":{"id":"1A","value":"Arab World"},"countryiso3code":"ARB","date":"1987","value":null,"unit":"","obs_status":"","decimal":2},{"indicator":{"id":"SH.XPD.OOPC.PC.CD","value":"Out-of-pocket expenditure per capita (current US$)"},"country":{"id":"1A","value":"Arab World"},"countryiso3code":"ARB","date":"1986","value":null,"unit":"","obs_status":"","decimal":2},{"indicator":{"id":"SH.XPD.OOPC.PC.CD","value":"Out-of-pocket expenditure per capita (current US$)"},"country":{"id":"1A","value":"Arab World"},"countryiso3code":"ARB","date":"1985","value":null,"unit":"","obs_status":"","decimal":2},{"indicator":{"id":"SH.XPD.OOPC.PC.CD","value":"Out-of-pocket expenditure per capita (current US$)"},"country":{"id":"1A","value":"Arab World"},"countryiso3code":"ARB","date":"1984","value":null,"unit":"","obs_status":"","decimal":2},{"indicator":{"id":"SH.XPD.OOPC.PC.CD","value":"Out-of-pocket expenditure per capita (current US$)"},"country":{"id":"1A","value":"Arab World"},"countryiso3code":"ARB","date":"1983","value":null,"unit":"","obs_status":"","decimal":2},{"indicator":{"id":"SH.XPD.OOPC.PC.CD","value":"Out-of-pocket expenditure per capita (current US$)"},"country":{"id":"1A","value":"Arab World"},"countryiso3code":"ARB","date":"1982","value":null,"unit":"","obs_status":"","decimal":2},{"indicator":{"id":"SH.XPD.OOPC.PC.CD","value":"Out-of-pocket expenditure per capita (current US$)"},"country":{"id":"1A","value":"Arab World"},"countryiso3code":"ARB","date":"1981","value":null,"unit":"","obs_status":"","decimal":2},{"indicator":{"id":"SH.XPD.OOPC.PC.CD","value":"Out-of-pocket expenditure per capita (current US$)"},"country":{"id":"1A","value":"Arab World"},"countryiso3code":"ARB","date":"1980","value":null,"unit":"","obs_status":"","decimal":2},{"indicator":{"id":"SH.XPD.OOPC.PC.CD","value":"Out-of-pocket expenditure per capita (current US$)"},"country":{"id":"1A","value":"Arab World"},"countryiso3code":"ARB","date":"1979","value":null,"unit":"","obs_status":"","decimal":2},{"indicator":{"id":"SH.XPD.OOPC.PC.CD","value":"Out-of-pocket expenditure per capita (current US$)"},"country":{"id":"1A","value":"Arab World"},"countryiso3code":"ARB","date":"1978","value":null,"unit":"","obs_status":"","decimal":2},{"indicator":{"id":"SH.XPD.OOPC.PC.CD","value":"Out-of-pocket expenditure per capita (current US$)"},"country":{"id":"1A","value":"Arab World"},"countryiso3code":"ARB","date":"1977","value":null,"unit":"","obs_status":"","decimal":2},{"indicator":{"id":"SH.XPD.OOPC.PC.CD","value":"Out-of-pocket expenditure per capita (current US$)"},"country":{"id":"1A","value":"Arab World"},"countryiso3code":"ARB","date":"1976","value":null,"unit":"","obs_status":"","decimal":2},{"indicator":{"id":"SH.XPD.OOPC.PC.CD","value":"Out-of-pocket expenditure per capita (current US$)"},"country":{"id":"1A","value":"Arab World"},"countryiso3code":"ARB","date":"1975","value":null,"unit":"","obs_status":"","decimal":2},{"indicator":{"id":"SH.XPD.OOPC.PC.CD","value":"Out-of-pocket expenditure per capita (current US$)"},"country":{"id":"1A","value":"Arab World"},"countryiso3code":"ARB","date":"1974","value":null,"unit":"","obs_status":"","decimal":2},{"indicator":{"id":"SH.XPD.OOPC.PC.CD","value":"Out-of-pocket expenditure per capita (current US$)"},"country":{"id":"1A","value":"Arab World"},"countryiso3code":"ARB","date":"1973","value":null,"unit":"","obs_status":"","decimal":2},{"indicator":{"id":"SH.XPD.OOPC.PC.CD","value":"Out-of-pocket expenditure per capita (current US$)"},"country":{"id":"1A","value":"Arab World"},"countryiso3code":"ARB","date":"1972","value":null,"unit":"","obs_status":"","decimal":2},{"indicator":{"id":"SH.XPD.OOPC.PC.CD","value":"Out-of-pocket expenditure per capita (current US$)"},"country":{"id":"1A","value":"Arab World"},"countryiso3code":"ARB","date":"1971","value":null,"unit":"","obs_status":"","decimal":2},{"indicator":{"id":"SH.XPD.OOPC.PC.CD","value":"Out-of-pocket expenditure per capita (current US$)"},"country":{"id":"1A","value":"Arab World"},"countryiso3code":"ARB","date":"1970","value":null,"unit":"","obs_status":"","decimal":2}]]