[{"page":1,"pages":317,"per_page":50,"total":15840,"sourceid":"2","lastupdated":"2020-03-18"},[{"indicator":{"id":"SH.XPD.OOPC.PP.CD","value":"Out-of-pocket expenditure per capita, PPP (current international $)"},"country":{"id":"1A","value":"Arab World"},"countryiso3code":"ARB","date":"2019","value":null,"unit":"","obs_status":"","decimal":2},{"indicator":{"id":"SH.XPD.OOPC.PP.CD","value":"Out-of-pocket expenditure per capita, PPP (current international $)"},"country":{"id":"1A","value":"Arab World"},"countryiso3code":"ARB","date":"2018","value":null,"unit":"","obs_status":"","decimal":2},{"indicator":{"id":"SH.XPD.OOPC.PP.CD","value":"Out-of-pocket expenditure per capita, PPP (current international $)"},"country":{"id":"1A","value":"Arab World"},"countryiso3code":"ARB","date":"2017","value":null,"unit":"","obs_status":"","decimal":2},{"indicator":{"id":"SH.XPD.OOPC.PP.CD","value":"Out-of-pocket expenditure per capita, PPP (current international $)"},"country":{"id":"1A","value":"Arab World"},"countryiso3code":"ARB","date":"2016","value":303.938948827234,"unit":"","obs_status":"","decimal":2},{"indicator":{"id":"SH.XPD.OOPC.PP.CD","value":"Out-of-pocket expenditure per capita, PPP (current international $)"},"country":{"id":"1A","value":"Arab World"},"countryiso3code":"ARB","date":"2015","value":287.411241053007,"unit":"","obs_status":"","decimal":2},{"indicator":{"id":"SH.XPD.OOPC.PP.CD","value":"Out-of-pocket expenditure per capita, PPP (current international $)"},"country":{"id":"1A","value":"Arab World"},"countryiso3code":"ARB","date":"2014","value":253.433466226202,"unit":"","obs_status":"","decimal":2},{"indicator":{"id":"SH.XPD.OOPC.PP.CD","value":"Out-of-pocket expenditure per capita, PPP (current international $)"},"country":{"id":"1A","value":"Arab World"},"countryiso3code":"ARB","date":"2013","value":250.976276088309,"unit":"","obs_status":"","decimal":2},{"indicator":{"id":"SH.XPD.OOPC.PP.CD","value":"Out-of-pocket expenditure per capita, PPP (current international $)"},"country":{"id":"1A","value":"Arab World"},"countryiso3code":"ARB","date":"2012","value":228.6605962218,"unit":"","obs_status":"","decimal":2},{"indicator":{"id":"SH.XPD.OOPC.PP.CD","value":"Out-of-pocket expenditure per capita, PPP (current international $)"},"country":{"id":"1A","value":"Arab World"},"countryiso3code":"ARB","date":"2011","value":212.237232116783,"unit":"","obs_status":"","decimal":2},{"indicator":{"id":"SH.XPD.OOPC.PP.CD","value":"Out-of-pocket expenditure per capita, PPP (current international $)"},"country":{"id":"1A","value":"Arab World"},"countryiso3code":"ARB","date":"2010","value":213.542503651844,"unit":"","obs_status":"","decimal":2},{"indicator":{"id":"SH.XPD.OOPC.PP.CD","value":"Out-of-pocket expenditure per capita, PPP (current international $)"},"country":{"id":"1A","value":"Arab World"},"countryiso3code":"ARB","date":"2009","value":213.937433770676,"unit":"","obs_status":"","decimal":2},{"indicator":{"id":"SH.XPD.OOPC.PP.CD","value":"Out-of-pocket expenditure per capita, PPP (current international $)"},"country":{"id":"1A","value":"Arab World"},"countryiso3code":"ARB","date":"2008","value":197.711579739479,"unit":"","obs_status":"","decimal":2},{"indicator":{"id":"SH.XPD.OOPC.PP.CD","value":"Out-of-pocket expenditure per capita, PPP (current international $)"},"country":{"id":"1A","value":"Arab World"},"countryiso3code":"ARB","date":"2007","value":192.6128882932,"unit":"","obs_status":"","decimal":2},{"indicator":{"id":"SH.XPD.OOPC.PP.CD","value":"Out-of-pocket expenditure per capita, PPP (current international $)"},"country":{"id":"1A","value":"Arab World"},"countryiso3code":"ARB","date":"2006","value":178.594927107921,"unit":"","obs_status":"","decimal":2},{"indicator":{"id":"SH.XPD.OOPC.PP.CD","value":"Out-of-pocket expenditure per capita, PPP (current international $)"},"country":{"id":"1A","value":"Arab World"},"countryiso3code":"ARB","date":"2005","value":170.354422128459,"unit":"","obs_status":"","decimal":2},{"indicator":{"id":"SH.XPD.OOPC.PP.CD","value":"Out-of-pocket expenditure per capita, PPP (current international $)"},"country":{"id":"1A","value":"Arab World"},"countryiso3code":"ARB","date":"2004","value":167.439878258819,"unit":"","obs_status":"","decimal":2},{"indicator":{"id":"SH.XPD.OOPC.PP.CD","value":"Out-of-pocket expenditure per capita, PPP (current international $)"},"country":{"id":"1A","value":"Arab World"},"countryiso3code":"ARB","date":"2003","value":164.892896093961,"unit":"","obs_status":"","decimal":2},{"indicator":{"id":"SH.XPD.OOPC.PP.CD","value":"Out-of-pocket expenditure per capita, PPP (current international $)"},"country":{"id":"1A","value":"Arab World"},"countryiso3code":"ARB","date":"2002","value":164.753057683823,"unit":"","obs_status":"","decimal":2},{"indicator":{"id":"SH.XPD.OOPC.PP.CD","value":"Out-of-pocket expenditure per capita, PPP (current international $)"},"country":{"id":"1A","value":"Arab World"},"countryiso3code":"ARB","date":"2001","value":158.759223154573,"unit":"","obs_status":"","decimal":2},{"indicator":{"id":"SH.XPD.OOPC.PP.CD","value":"Out-of-pocket expenditure per capita, PPP (current international $)"},"country":{"id":"1A","value":"Arab World"},"countryiso3code":"ARB","date":"2000","value":148.535163803227,"unit":"","obs_status":"","decimal":2},{"indicator":{"id":"SH.XPD.OOPC.PP.CD","value":"Out-of-pocket expenditure per capita, PPP (current international $)"},"country":{"id":"1A","value":"Arab World"},"countryiso3code":"ARB","date":"1999","value":null,"unit":"","obs_status":"","decimal":2},{"indicator":{"id":"SH.XPD.OOPC.PP.CD","value":"Out-of-pocket expenditure per capita, PPP (current international $)"},"country":{"id":"1A","value":"Arab World"},"countryiso3code":"ARB","date":"1998","value":null,"unit":"","obs_status":"","decimal":2},{"indicator":{"id":"SH.XPD.OOPC.PP.CD","value":"Out-of-pocket expenditure per capita, PPP (current international $)"},"country":{"id":"1A","value":"Arab World"},"countryiso3code":"ARB","date":"1997","value":null,"unit":"","obs_status":"","decimal":2},{"indicator":{"id":"SH.XPD.OOPC.PP.CD","value":"Out-of-pocket expenditure per capita, PPP (current international $)"},"country":{"id":"1A","value":"Arab World"},"countryiso3code":"ARB","date":"1996","value":null,"unit":"","obs_status":"","decimal":2},{"indicator":{"id":"SH.XPD.OOPC.PP.CD","value":"Out-of-pocket expenditure per capita, PPP (current international $)"},"country":{"id":"1A","value":"Arab World"},"countryiso3code":"ARB","date":"1995","value":null,"unit":"","obs_status":"","decimal":2},{"indicator":{"id":"SH.XPD.OOPC.PP.CD","value":"Out-of-pocket expenditure per capita, PPP (current international $)"},"country":{"id":"1A","value":"Arab World"},"countryiso3code":"ARB","date":"1994","value":null,"unit":"","obs_status":"","decimal":2},{"indicator":{"id":"SH.XPD.OOPC.PP.CD","value":"Out-of-pocket expenditure per capita, PPP (current international $)"},"country":{"id":"1A","value":"Arab World"},"countryiso3code":"ARB","date":"1993","value":null,"unit":"","obs_status":"","decimal":2},{"indicator":{"id":"SH.XPD.OOPC.PP.CD","value":"Out-of-pocket expenditure per capita, PPP (current international $)"},"country":{"id":"1A","value":"Arab World"},"countryiso3code":"ARB","date":"1992","value":null,"unit":"","obs_status":"","decimal":2},{"indicator":{"id":"SH.XPD.OOPC.PP.CD","value":"Out-of-pocket expenditure per capita, PPP (current international $)"},"country":{"id":"1A","value":"Arab World"},"countryiso3code":"ARB","date":"1991","value":null,"unit":"","obs_status":"","decimal":2},{"indicator":{"id":"SH.XPD.OOPC.PP.CD","value":"Out-of-pocket expenditure per capita, PPP (current international $)"},"country":{"id":"1A","value":"Arab World"},"countryiso3code":"ARB","date":"1990","value":null,"unit":"","obs_status":"","decimal":2},{"indicator":{"id":"SH.XPD.OOPC.PP.CD","value":"Out-of-pocket expenditure per capita, PPP (current international $)"},"country":{"id":"1A","value":"Arab World"},"countryiso3code":"ARB","date":"1989","value":null,"unit":"","obs_status":"","decimal":2},{"indicator":{"id":"SH.XPD.OOPC.PP.CD","value":"Out-of-pocket expenditure per capita, PPP (current international $)"},"country":{"id":"1A","value":"Arab World"},"countryiso3code":"ARB","date":"1988","value":null,"unit":"","obs_status":"","decimal":2},{"indicator":{"id":"SH.XPD.OOPC.PP.CD","value":"Out-of-pocket expenditure per capita, PPP (current international $)"},"country":{"id":"1A","value":"Arab World"},"countryiso3code":"ARB","date":"1987","value":null,"unit":"","obs_status":"","decimal":2},{"indicator":{"id":"SH.XPD.OOPC.PP.CD","value":"Out-of-pocket expenditure per capita, PPP (current international $)"},"country":{"id":"1A","value":"Arab World"},"countryiso3code":"ARB","date":"1986","value":null,"unit":"","obs_status":"","decimal":2},{"indicator":{"id":"SH.XPD.OOPC.PP.CD","value":"Out-of-pocket expenditure per capita, PPP (current international $)"},"country":{"id":"1A","value":"Arab World"},"countryiso3code":"ARB","date":"1985","value":null,"unit":"","obs_status":"","decimal":2},{"indicator":{"id":"SH.XPD.OOPC.PP.CD","value":"Out-of-pocket expenditure per capita, PPP (current international $)"},"country":{"id":"1A","value":"Arab World"},"countryiso3code":"ARB","date":"1984","value":null,"unit":"","obs_status":"","decimal":2},{"indicator":{"id":"SH.XPD.OOPC.PP.CD","value":"Out-of-pocket expenditure per capita, PPP (current international $)"},"country":{"id":"1A","value":"Arab World"},"countryiso3code":"ARB","date":"1983","value":null,"unit":"","obs_status":"","decimal":2},{"indicator":{"id":"SH.XPD.OOPC.PP.CD","value":"Out-of-pocket expenditure per capita, PPP (current international $)"},"country":{"id":"1A","value":"Arab World"},"countryiso3code":"ARB","date":"1982","value":null,"unit":"","obs_status":"","decimal":2},{"indicator":{"id":"SH.XPD.OOPC.PP.CD","value":"Out-of-pocket expenditure per capita, PPP (current international $)"},"country":{"id":"1A","value":"Arab World"},"countryiso3code":"ARB","date":"1981","value":null,"unit":"","obs_status":"","decimal":2},{"indicator":{"id":"SH.XPD.OOPC.PP.CD","value":"Out-of-pocket expenditure per capita, PPP (current international $)"},"country":{"id":"1A","value":"Arab World"},"countryiso3code":"ARB","date":"1980","value":null,"unit":"","obs_status":"","decimal":2},{"indicator":{"id":"SH.XPD.OOPC.PP.CD","value":"Out-of-pocket expenditure per capita, PPP (current international $)"},"country":{"id":"1A","value":"Arab World"},"countryiso3code":"ARB","date":"1979","value":null,"unit":"","obs_status":"","decimal":2},{"indicator":{"id":"SH.XPD.OOPC.PP.CD","value":"Out-of-pocket expenditure per capita, PPP (current international $)"},"country":{"id":"1A","value":"Arab World"},"countryiso3code":"ARB","date":"1978","value":null,"unit":"","obs_status":"","decimal":2},{"indicator":{"id":"SH.XPD.OOPC.PP.CD","value":"Out-of-pocket expenditure per capita, PPP (current international $)"},"country":{"id":"1A","value":"Arab World"},"countryiso3code":"ARB","date":"1977","value":null,"unit":"","obs_status":"","decimal":2},{"indicator":{"id":"SH.XPD.OOPC.PP.CD","value":"Out-of-pocket expenditure per capita, PPP (current international $)"},"country":{"id":"1A","value":"Arab World"},"countryiso3code":"ARB","date":"1976","value":null,"unit":"","obs_status":"","decimal":2},{"indicator":{"id":"SH.XPD.OOPC.PP.CD","value":"Out-of-pocket expenditure per capita, PPP (current international $)"},"country":{"id":"1A","value":"Arab World"},"countryiso3code":"ARB","date":"1975","value":null,"unit":"","obs_status":"","decimal":2},{"indicator":{"id":"SH.XPD.OOPC.PP.CD","value":"Out-of-pocket expenditure per capita, PPP (current international $)"},"country":{"id":"1A","value":"Arab World"},"countryiso3code":"ARB","date":"1974","value":null,"unit":"","obs_status":"","decimal":2},{"indicator":{"id":"SH.XPD.OOPC.PP.CD","value":"Out-of-pocket expenditure per capita, PPP (current international $)"},"country":{"id":"1A","value":"Arab World"},"countryiso3code":"ARB","date":"1973","value":null,"unit":"","obs_status":"","decimal":2},{"indicator":{"id":"SH.XPD.OOPC.PP.CD","value":"Out-of-pocket expenditure per capita, PPP (current international $)"},"country":{"id":"1A","value":"Arab World"},"countryiso3code":"ARB","date":"1972","value":null,"unit":"","obs_status":"","decimal":2},{"indicator":{"id":"SH.XPD.OOPC.PP.CD","value":"Out-of-pocket expenditure per capita, PPP (current international $)"},"country":{"id":"1A","value":"Arab World"},"countryiso3code":"ARB","date":"1971","value":null,"unit":"","obs_status":"","decimal":2},{"indicator":{"id":"SH.XPD.OOPC.PP.CD","value":"Out-of-pocket expenditure per capita, PPP (current international $)"},"country":{"id":"1A","value":"Arab World"},"countryiso3code":"ARB","date":"1970","value":null,"unit":"","obs_status":"","decimal":2}]]