[{"page":1,"pages":317,"per_page":50,"total":15840,"sourceid":"2","lastupdated":"2020-03-18"},[{"indicator":{"id":"SH.H2O.BASW.UR.ZS","value":"People using at least basic drinking water services, urban (% of urban population)"},"country":{"id":"1A","value":"Arab World"},"countryiso3code":"ARB","date":"2019","value":null,"unit":"","obs_status":"","decimal":0},{"indicator":{"id":"SH.H2O.BASW.UR.ZS","value":"People using at least basic drinking water services, urban (% of urban population)"},"country":{"id":"1A","value":"Arab World"},"countryiso3code":"ARB","date":"2018","value":null,"unit":"","obs_status":"","decimal":0},{"indicator":{"id":"SH.H2O.BASW.UR.ZS","value":"People using at least basic drinking water services, urban (% of urban population)"},"country":{"id":"1A","value":"Arab World"},"countryiso3code":"ARB","date":"2017","value":94.4244346793422,"unit":"","obs_status":"","decimal":0},{"indicator":{"id":"SH.H2O.BASW.UR.ZS","value":"People using at least basic drinking water services, urban (% of urban population)"},"country":{"id":"1A","value":"Arab World"},"countryiso3code":"ARB","date":"2016","value":94.3315266847997,"unit":"","obs_status":"","decimal":0},{"indicator":{"id":"SH.H2O.BASW.UR.ZS","value":"People using at least basic drinking water services, urban (% of urban population)"},"country":{"id":"1A","value":"Arab World"},"countryiso3code":"ARB","date":"2015","value":94.1535568275951,"unit":"","obs_status":"","decimal":0},{"indicator":{"id":"SH.H2O.BASW.UR.ZS","value":"People using at least basic drinking water services, urban (% of urban population)"},"country":{"id":"1A","value":"Arab World"},"countryiso3code":"ARB","date":"2014","value":93.891744876719,"unit":"","obs_status":"","decimal":0},{"indicator":{"id":"SH.H2O.BASW.UR.ZS","value":"People using at least basic drinking water services, urban (% of urban population)"},"country":{"id":"1A","value":"Arab World"},"countryiso3code":"ARB","date":"2013","value":93.6306574694869,"unit":"","obs_status":"","decimal":0},{"indicator":{"id":"SH.H2O.BASW.UR.ZS","value":"People using at least basic drinking water services, urban (% of urban population)"},"country":{"id":"1A","value":"Arab World"},"countryiso3code":"ARB","date":"2012","value":93.371890168839,"unit":"","obs_status":"","decimal":0},{"indicator":{"id":"SH.H2O.BASW.UR.ZS","value":"People using at least basic drinking water services, urban (% of urban population)"},"country":{"id":"1A","value":"Arab World"},"countryiso3code":"ARB","date":"2011","value":93.1184243210483,"unit":"","obs_status":"","decimal":0},{"indicator":{"id":"SH.H2O.BASW.UR.ZS","value":"People using at least basic drinking water services, urban (% of urban population)"},"country":{"id":"1A","value":"Arab World"},"countryiso3code":"ARB","date":"2010","value":92.8877031783733,"unit":"","obs_status":"","decimal":0},{"indicator":{"id":"SH.H2O.BASW.UR.ZS","value":"People using at least basic drinking water services, urban (% of urban population)"},"country":{"id":"1A","value":"Arab World"},"countryiso3code":"ARB","date":"2009","value":92.6466009135765,"unit":"","obs_status":"","decimal":0},{"indicator":{"id":"SH.H2O.BASW.UR.ZS","value":"People using at least basic drinking water services, urban (% of urban population)"},"country":{"id":"1A","value":"Arab World"},"countryiso3code":"ARB","date":"2008","value":92.4047452345691,"unit":"","obs_status":"","decimal":0},{"indicator":{"id":"SH.H2O.BASW.UR.ZS","value":"People using at least basic drinking water services, urban (% of urban population)"},"country":{"id":"1A","value":"Arab World"},"countryiso3code":"ARB","date":"2007","value":92.1631326784786,"unit":"","obs_status":"","decimal":0},{"indicator":{"id":"SH.H2O.BASW.UR.ZS","value":"People using at least basic drinking water services, urban (% of urban population)"},"country":{"id":"1A","value":"Arab World"},"countryiso3code":"ARB","date":"2006","value":91.8251314407079,"unit":"","obs_status":"","decimal":0},{"indicator":{"id":"SH.H2O.BASW.UR.ZS","value":"People using at least basic drinking water services, urban (% of urban population)"},"country":{"id":"1A","value":"Arab World"},"countryiso3code":"ARB","date":"2005","value":91.5719548458432,"unit":"","obs_status":"","decimal":0},{"indicator":{"id":"SH.H2O.BASW.UR.ZS","value":"People using at least basic drinking water services, urban (% of urban population)"},"country":{"id":"1A","value":"Arab World"},"countryiso3code":"ARB","date":"2004","value":91.3455282233152,"unit":"","obs_status":"","decimal":0},{"indicator":{"id":"SH.H2O.BASW.UR.ZS","value":"People using at least basic drinking water services, urban (% of urban population)"},"country":{"id":"1A","value":"Arab World"},"countryiso3code":"ARB","date":"2003","value":91.2244346031335,"unit":"","obs_status":"","decimal":0},{"indicator":{"id":"SH.H2O.BASW.UR.ZS","value":"People using at least basic drinking water services, urban (% of urban population)"},"country":{"id":"1A","value":"Arab World"},"countryiso3code":"ARB","date":"2002","value":91.1107317229927,"unit":"","obs_status":"","decimal":0},{"indicator":{"id":"SH.H2O.BASW.UR.ZS","value":"People using at least basic drinking water services, urban (% of urban population)"},"country":{"id":"1A","value":"Arab World"},"countryiso3code":"ARB","date":"2001","value":91.0103248433408,"unit":"","obs_status":"","decimal":0},{"indicator":{"id":"SH.H2O.BASW.UR.ZS","value":"People using at least basic drinking water services, urban (% of urban population)"},"country":{"id":"1A","value":"Arab World"},"countryiso3code":"ARB","date":"2000","value":91.0934324111477,"unit":"","obs_status":"","decimal":0},{"indicator":{"id":"SH.H2O.BASW.UR.ZS","value":"People using at least basic drinking water services, urban (% of urban population)"},"country":{"id":"1A","value":"Arab World"},"countryiso3code":"ARB","date":"1999","value":null,"unit":"","obs_status":"","decimal":0},{"indicator":{"id":"SH.H2O.BASW.UR.ZS","value":"People using at least basic drinking water services, urban (% of urban population)"},"country":{"id":"1A","value":"Arab World"},"countryiso3code":"ARB","date":"1998","value":null,"unit":"","obs_status":"","decimal":0},{"indicator":{"id":"SH.H2O.BASW.UR.ZS","value":"People using at least basic drinking water services, urban (% of urban population)"},"country":{"id":"1A","value":"Arab World"},"countryiso3code":"ARB","date":"1997","value":null,"unit":"","obs_status":"","decimal":0},{"indicator":{"id":"SH.H2O.BASW.UR.ZS","value":"People using at least basic drinking water services, urban (% of urban population)"},"country":{"id":"1A","value":"Arab World"},"countryiso3code":"ARB","date":"1996","value":null,"unit":"","obs_status":"","decimal":0},{"indicator":{"id":"SH.H2O.BASW.UR.ZS","value":"People using at least basic drinking water services, urban (% of urban population)"},"country":{"id":"1A","value":"Arab World"},"countryiso3code":"ARB","date":"1995","value":null,"unit":"","obs_status":"","decimal":0},{"indicator":{"id":"SH.H2O.BASW.UR.ZS","value":"People using at least basic drinking water services, urban (% of urban population)"},"country":{"id":"1A","value":"Arab World"},"countryiso3code":"ARB","date":"1994","value":null,"unit":"","obs_status":"","decimal":0},{"indicator":{"id":"SH.H2O.BASW.UR.ZS","value":"People using at least basic drinking water services, urban (% of urban population)"},"country":{"id":"1A","value":"Arab World"},"countryiso3code":"ARB","date":"1993","value":null,"unit":"","obs_status":"","decimal":0},{"indicator":{"id":"SH.H2O.BASW.UR.ZS","value":"People using at least basic drinking water services, urban (% of urban population)"},"country":{"id":"1A","value":"Arab World"},"countryiso3code":"ARB","date":"1992","value":null,"unit":"","obs_status":"","decimal":0},{"indicator":{"id":"SH.H2O.BASW.UR.ZS","value":"People using at least basic drinking water services, urban (% of urban population)"},"country":{"id":"1A","value":"Arab World"},"countryiso3code":"ARB","date":"1991","value":null,"unit":"","obs_status":"","decimal":0},{"indicator":{"id":"SH.H2O.BASW.UR.ZS","value":"People using at least basic drinking water services, urban (% of urban population)"},"country":{"id":"1A","value":"Arab World"},"countryiso3code":"ARB","date":"1990","value":null,"unit":"","obs_status":"","decimal":0},{"indicator":{"id":"SH.H2O.BASW.UR.ZS","value":"People using at least basic drinking water services, urban (% of urban population)"},"country":{"id":"1A","value":"Arab World"},"countryiso3code":"ARB","date":"1989","value":null,"unit":"","obs_status":"","decimal":0},{"indicator":{"id":"SH.H2O.BASW.UR.ZS","value":"People using at least basic drinking water services, urban (% of urban population)"},"country":{"id":"1A","value":"Arab World"},"countryiso3code":"ARB","date":"1988","value":null,"unit":"","obs_status":"","decimal":0},{"indicator":{"id":"SH.H2O.BASW.UR.ZS","value":"People using at least basic drinking water services, urban (% of urban population)"},"country":{"id":"1A","value":"Arab World"},"countryiso3code":"ARB","date":"1987","value":null,"unit":"","obs_status":"","decimal":0},{"indicator":{"id":"SH.H2O.BASW.UR.ZS","value":"People using at least basic drinking water services, urban (% of urban population)"},"country":{"id":"1A","value":"Arab World"},"countryiso3code":"ARB","date":"1986","value":null,"unit":"","obs_status":"","decimal":0},{"indicator":{"id":"SH.H2O.BASW.UR.ZS","value":"People using at least basic drinking water services, urban (% of urban population)"},"country":{"id":"1A","value":"Arab World"},"countryiso3code":"ARB","date":"1985","value":null,"unit":"","obs_status":"","decimal":0},{"indicator":{"id":"SH.H2O.BASW.UR.ZS","value":"People using at least basic drinking water services, urban (% of urban population)"},"country":{"id":"1A","value":"Arab World"},"countryiso3code":"ARB","date":"1984","value":null,"unit":"","obs_status":"","decimal":0},{"indicator":{"id":"SH.H2O.BASW.UR.ZS","value":"People using at least basic drinking water services, urban (% of urban population)"},"country":{"id":"1A","value":"Arab World"},"countryiso3code":"ARB","date":"1983","value":null,"unit":"","obs_status":"","decimal":0},{"indicator":{"id":"SH.H2O.BASW.UR.ZS","value":"People using at least basic drinking water services, urban (% of urban population)"},"country":{"id":"1A","value":"Arab World"},"countryiso3code":"ARB","date":"1982","value":null,"unit":"","obs_status":"","decimal":0},{"indicator":{"id":"SH.H2O.BASW.UR.ZS","value":"People using at least basic drinking water services, urban (% of urban population)"},"country":{"id":"1A","value":"Arab World"},"countryiso3code":"ARB","date":"1981","value":null,"unit":"","obs_status":"","decimal":0},{"indicator":{"id":"SH.H2O.BASW.UR.ZS","value":"People using at least basic drinking water services, urban (% of urban population)"},"country":{"id":"1A","value":"Arab World"},"countryiso3code":"ARB","date":"1980","value":null,"unit":"","obs_status":"","decimal":0},{"indicator":{"id":"SH.H2O.BASW.UR.ZS","value":"People using at least basic drinking water services, urban (% of urban population)"},"country":{"id":"1A","value":"Arab World"},"countryiso3code":"ARB","date":"1979","value":null,"unit":"","obs_status":"","decimal":0},{"indicator":{"id":"SH.H2O.BASW.UR.ZS","value":"People using at least basic drinking water services, urban (% of urban population)"},"country":{"id":"1A","value":"Arab World"},"countryiso3code":"ARB","date":"1978","value":null,"unit":"","obs_status":"","decimal":0},{"indicator":{"id":"SH.H2O.BASW.UR.ZS","value":"People using at least basic drinking water services, urban (% of urban population)"},"country":{"id":"1A","value":"Arab World"},"countryiso3code":"ARB","date":"1977","value":null,"unit":"","obs_status":"","decimal":0},{"indicator":{"id":"SH.H2O.BASW.UR.ZS","value":"People using at least basic drinking water services, urban (% of urban population)"},"country":{"id":"1A","value":"Arab World"},"countryiso3code":"ARB","date":"1976","value":null,"unit":"","obs_status":"","decimal":0},{"indicator":{"id":"SH.H2O.BASW.UR.ZS","value":"People using at least basic drinking water services, urban (% of urban population)"},"country":{"id":"1A","value":"Arab World"},"countryiso3code":"ARB","date":"1975","value":null,"unit":"","obs_status":"","decimal":0},{"indicator":{"id":"SH.H2O.BASW.UR.ZS","value":"People using at least basic drinking water services, urban (% of urban population)"},"country":{"id":"1A","value":"Arab World"},"countryiso3code":"ARB","date":"1974","value":null,"unit":"","obs_status":"","decimal":0},{"indicator":{"id":"SH.H2O.BASW.UR.ZS","value":"People using at least basic drinking water services, urban (% of urban population)"},"country":{"id":"1A","value":"Arab World"},"countryiso3code":"ARB","date":"1973","value":null,"unit":"","obs_status":"","decimal":0},{"indicator":{"id":"SH.H2O.BASW.UR.ZS","value":"People using at least basic drinking water services, urban (% of urban population)"},"country":{"id":"1A","value":"Arab World"},"countryiso3code":"ARB","date":"1972","value":null,"unit":"","obs_status":"","decimal":0},{"indicator":{"id":"SH.H2O.BASW.UR.ZS","value":"People using at least basic drinking water services, urban (% of urban population)"},"country":{"id":"1A","value":"Arab World"},"countryiso3code":"ARB","date":"1971","value":null,"unit":"","obs_status":"","decimal":0},{"indicator":{"id":"SH.H2O.BASW.UR.ZS","value":"People using at least basic drinking water services, urban (% of urban population)"},"country":{"id":"1A","value":"Arab World"},"countryiso3code":"ARB","date":"1970","value":null,"unit":"","obs_status":"","decimal":0}]]