[{"page":1,"pages":317,"per_page":50,"total":15840,"sourceid":"12","lastupdated":"2020-03-18"},[{"indicator":{"id":"SH.H2O.BASW.ZS","value":"People using at least basic drinking water services (% of population)"},"country":{"id":"1A","value":"Arab World"},"countryiso3code":"ARB","date":"2019","value":null,"unit":"","obs_status":"","decimal":0},{"indicator":{"id":"SH.H2O.BASW.ZS","value":"People using at least basic drinking water services (% of population)"},"country":{"id":"1A","value":"Arab World"},"countryiso3code":"ARB","date":"2018","value":null,"unit":"","obs_status":"","decimal":0},{"indicator":{"id":"SH.H2O.BASW.ZS","value":"People using at least basic drinking water services (% of population)"},"country":{"id":"1A","value":"Arab World"},"countryiso3code":"ARB","date":"2017","value":88.6312853680334,"unit":"","obs_status":"","decimal":0},{"indicator":{"id":"SH.H2O.BASW.ZS","value":"People using at least basic drinking water services (% of population)"},"country":{"id":"1A","value":"Arab World"},"countryiso3code":"ARB","date":"2016","value":88.4173413280615,"unit":"","obs_status":"","decimal":0},{"indicator":{"id":"SH.H2O.BASW.ZS","value":"People using at least basic drinking water services (% of population)"},"country":{"id":"1A","value":"Arab World"},"countryiso3code":"ARB","date":"2015","value":87.9368319209243,"unit":"","obs_status":"","decimal":0},{"indicator":{"id":"SH.H2O.BASW.ZS","value":"People using at least basic drinking water services (% of population)"},"country":{"id":"1A","value":"Arab World"},"countryiso3code":"ARB","date":"2014","value":87.2999553718975,"unit":"","obs_status":"","decimal":0},{"indicator":{"id":"SH.H2O.BASW.ZS","value":"People using at least basic drinking water services (% of population)"},"country":{"id":"1A","value":"Arab World"},"countryiso3code":"ARB","date":"2013","value":86.654750848158,"unit":"","obs_status":"","decimal":0},{"indicator":{"id":"SH.H2O.BASW.ZS","value":"People using at least basic drinking water services (% of population)"},"country":{"id":"1A","value":"Arab World"},"countryiso3code":"ARB","date":"2012","value":86.008024254536,"unit":"","obs_status":"","decimal":0},{"indicator":{"id":"SH.H2O.BASW.ZS","value":"People using at least basic drinking water services (% of population)"},"country":{"id":"1A","value":"Arab World"},"countryiso3code":"ARB","date":"2011","value":85.3522179227568,"unit":"","obs_status":"","decimal":0},{"indicator":{"id":"SH.H2O.BASW.ZS","value":"People using at least basic drinking water services (% of population)"},"country":{"id":"1A","value":"Arab World"},"countryiso3code":"ARB","date":"2010","value":84.6650502050644,"unit":"","obs_status":"","decimal":0},{"indicator":{"id":"SH.H2O.BASW.ZS","value":"People using at least basic drinking water services (% of population)"},"country":{"id":"1A","value":"Arab World"},"countryiso3code":"ARB","date":"2009","value":83.9552983553725,"unit":"","obs_status":"","decimal":0},{"indicator":{"id":"SH.H2O.BASW.ZS","value":"People using at least basic drinking water services (% of population)"},"country":{"id":"1A","value":"Arab World"},"countryiso3code":"ARB","date":"2008","value":83.2344548734768,"unit":"","obs_status":"","decimal":0},{"indicator":{"id":"SH.H2O.BASW.ZS","value":"People using at least basic drinking water services (% of population)"},"country":{"id":"1A","value":"Arab World"},"countryiso3code":"ARB","date":"2007","value":82.5022243082266,"unit":"","obs_status":"","decimal":0},{"indicator":{"id":"SH.H2O.BASW.ZS","value":"People using at least basic drinking water services (% of population)"},"country":{"id":"1A","value":"Arab World"},"countryiso3code":"ARB","date":"2006","value":81.8325597061232,"unit":"","obs_status":"","decimal":0},{"indicator":{"id":"SH.H2O.BASW.ZS","value":"People using at least basic drinking water services (% of population)"},"country":{"id":"1A","value":"Arab World"},"countryiso3code":"ARB","date":"2005","value":81.1176935380443,"unit":"","obs_status":"","decimal":0},{"indicator":{"id":"SH.H2O.BASW.ZS","value":"People using at least basic drinking water services (% of population)"},"country":{"id":"1A","value":"Arab World"},"countryiso3code":"ARB","date":"2004","value":80.4337849106248,"unit":"","obs_status":"","decimal":0},{"indicator":{"id":"SH.H2O.BASW.ZS","value":"People using at least basic drinking water services (% of population)"},"country":{"id":"1A","value":"Arab World"},"countryiso3code":"ARB","date":"2003","value":79.9126728829356,"unit":"","obs_status":"","decimal":0},{"indicator":{"id":"SH.H2O.BASW.ZS","value":"People using at least basic drinking water services (% of population)"},"country":{"id":"1A","value":"Arab World"},"countryiso3code":"ARB","date":"2002","value":79.4086534949348,"unit":"","obs_status":"","decimal":0},{"indicator":{"id":"SH.H2O.BASW.ZS","value":"People using at least basic drinking water services (% of population)"},"country":{"id":"1A","value":"Arab World"},"countryiso3code":"ARB","date":"2001","value":79.0407784698596,"unit":"","obs_status":"","decimal":0},{"indicator":{"id":"SH.H2O.BASW.ZS","value":"People using at least basic drinking water services (% of population)"},"country":{"id":"1A","value":"Arab World"},"countryiso3code":"ARB","date":"2000","value":78.7492899316702,"unit":"","obs_status":"","decimal":0},{"indicator":{"id":"SH.H2O.BASW.ZS","value":"People using at least basic drinking water services (% of population)"},"country":{"id":"1A","value":"Arab World"},"countryiso3code":"ARB","date":"1999","value":null,"unit":"","obs_status":"","decimal":0},{"indicator":{"id":"SH.H2O.BASW.ZS","value":"People using at least basic drinking water services (% of population)"},"country":{"id":"1A","value":"Arab World"},"countryiso3code":"ARB","date":"1998","value":null,"unit":"","obs_status":"","decimal":0},{"indicator":{"id":"SH.H2O.BASW.ZS","value":"People using at least basic drinking water services (% of population)"},"country":{"id":"1A","value":"Arab World"},"countryiso3code":"ARB","date":"1997","value":null,"unit":"","obs_status":"","decimal":0},{"indicator":{"id":"SH.H2O.BASW.ZS","value":"People using at least basic drinking water services (% of population)"},"country":{"id":"1A","value":"Arab World"},"countryiso3code":"ARB","date":"1996","value":null,"unit":"","obs_status":"","decimal":0},{"indicator":{"id":"SH.H2O.BASW.ZS","value":"People using at least basic drinking water services (% of population)"},"country":{"id":"1A","value":"Arab World"},"countryiso3code":"ARB","date":"1995","value":null,"unit":"","obs_status":"","decimal":0},{"indicator":{"id":"SH.H2O.BASW.ZS","value":"People using at least basic drinking water services (% of population)"},"country":{"id":"1A","value":"Arab World"},"countryiso3code":"ARB","date":"1994","value":null,"unit":"","obs_status":"","decimal":0},{"indicator":{"id":"SH.H2O.BASW.ZS","value":"People using at least basic drinking water services (% of population)"},"country":{"id":"1A","value":"Arab World"},"countryiso3code":"ARB","date":"1993","value":null,"unit":"","obs_status":"","decimal":0},{"indicator":{"id":"SH.H2O.BASW.ZS","value":"People using at least basic drinking water services (% of population)"},"country":{"id":"1A","value":"Arab World"},"countryiso3code":"ARB","date":"1992","value":null,"unit":"","obs_status":"","decimal":0},{"indicator":{"id":"SH.H2O.BASW.ZS","value":"People using at least basic drinking water services (% of population)"},"country":{"id":"1A","value":"Arab World"},"countryiso3code":"ARB","date":"1991","value":null,"unit":"","obs_status":"","decimal":0},{"indicator":{"id":"SH.H2O.BASW.ZS","value":"People using at least basic drinking water services (% of population)"},"country":{"id":"1A","value":"Arab World"},"countryiso3code":"ARB","date":"1990","value":null,"unit":"","obs_status":"","decimal":0},{"indicator":{"id":"SH.H2O.BASW.ZS","value":"People using at least basic drinking water services (% of population)"},"country":{"id":"1A","value":"Arab World"},"countryiso3code":"ARB","date":"1989","value":null,"unit":"","obs_status":"","decimal":0},{"indicator":{"id":"SH.H2O.BASW.ZS","value":"People using at least basic drinking water services (% of population)"},"country":{"id":"1A","value":"Arab World"},"countryiso3code":"ARB","date":"1988","value":null,"unit":"","obs_status":"","decimal":0},{"indicator":{"id":"SH.H2O.BASW.ZS","value":"People using at least basic drinking water services (% of population)"},"country":{"id":"1A","value":"Arab World"},"countryiso3code":"ARB","date":"1987","value":null,"unit":"","obs_status":"","decimal":0},{"indicator":{"id":"SH.H2O.BASW.ZS","value":"People using at least basic drinking water services (% of population)"},"country":{"id":"1A","value":"Arab World"},"countryiso3code":"ARB","date":"1986","value":null,"unit":"","obs_status":"","decimal":0},{"indicator":{"id":"SH.H2O.BASW.ZS","value":"People using at least basic drinking water services (% of population)"},"country":{"id":"1A","value":"Arab World"},"countryiso3code":"ARB","date":"1985","value":null,"unit":"","obs_status":"","decimal":0},{"indicator":{"id":"SH.H2O.BASW.ZS","value":"People using at least basic drinking water services (% of population)"},"country":{"id":"1A","value":"Arab World"},"countryiso3code":"ARB","date":"1984","value":null,"unit":"","obs_status":"","decimal":0},{"indicator":{"id":"SH.H2O.BASW.ZS","value":"People using at least basic drinking water services (% of population)"},"country":{"id":"1A","value":"Arab World"},"countryiso3code":"ARB","date":"1983","value":null,"unit":"","obs_status":"","decimal":0},{"indicator":{"id":"SH.H2O.BASW.ZS","value":"People using at least basic drinking water services (% of population)"},"country":{"id":"1A","value":"Arab World"},"countryiso3code":"ARB","date":"1982","value":null,"unit":"","obs_status":"","decimal":0},{"indicator":{"id":"SH.H2O.BASW.ZS","value":"People using at least basic drinking water services (% of population)"},"country":{"id":"1A","value":"Arab World"},"countryiso3code":"ARB","date":"1981","value":null,"unit":"","obs_status":"","decimal":0},{"indicator":{"id":"SH.H2O.BASW.ZS","value":"People using at least basic drinking water services (% of population)"},"country":{"id":"1A","value":"Arab World"},"countryiso3code":"ARB","date":"1980","value":null,"unit":"","obs_status":"","decimal":0},{"indicator":{"id":"SH.H2O.BASW.ZS","value":"People using at least basic drinking water services (% of population)"},"country":{"id":"1A","value":"Arab World"},"countryiso3code":"ARB","date":"1979","value":null,"unit":"","obs_status":"","decimal":0},{"indicator":{"id":"SH.H2O.BASW.ZS","value":"People using at least basic drinking water services (% of population)"},"country":{"id":"1A","value":"Arab World"},"countryiso3code":"ARB","date":"1978","value":null,"unit":"","obs_status":"","decimal":0},{"indicator":{"id":"SH.H2O.BASW.ZS","value":"People using at least basic drinking water services (% of population)"},"country":{"id":"1A","value":"Arab World"},"countryiso3code":"ARB","date":"1977","value":null,"unit":"","obs_status":"","decimal":0},{"indicator":{"id":"SH.H2O.BASW.ZS","value":"People using at least basic drinking water services (% of population)"},"country":{"id":"1A","value":"Arab World"},"countryiso3code":"ARB","date":"1976","value":null,"unit":"","obs_status":"","decimal":0},{"indicator":{"id":"SH.H2O.BASW.ZS","value":"People using at least basic drinking water services (% of population)"},"country":{"id":"1A","value":"Arab World"},"countryiso3code":"ARB","date":"1975","value":null,"unit":"","obs_status":"","decimal":0},{"indicator":{"id":"SH.H2O.BASW.ZS","value":"People using at least basic drinking water services (% of population)"},"country":{"id":"1A","value":"Arab World"},"countryiso3code":"ARB","date":"1974","value":null,"unit":"","obs_status":"","decimal":0},{"indicator":{"id":"SH.H2O.BASW.ZS","value":"People using at least basic drinking water services (% of population)"},"country":{"id":"1A","value":"Arab World"},"countryiso3code":"ARB","date":"1973","value":null,"unit":"","obs_status":"","decimal":0},{"indicator":{"id":"SH.H2O.BASW.ZS","value":"People using at least basic drinking water services (% of population)"},"country":{"id":"1A","value":"Arab World"},"countryiso3code":"ARB","date":"1972","value":null,"unit":"","obs_status":"","decimal":0},{"indicator":{"id":"SH.H2O.BASW.ZS","value":"People using at least basic drinking water services (% of population)"},"country":{"id":"1A","value":"Arab World"},"countryiso3code":"ARB","date":"1971","value":null,"unit":"","obs_status":"","decimal":0},{"indicator":{"id":"SH.H2O.BASW.ZS","value":"People using at least basic drinking water services (% of population)"},"country":{"id":"1A","value":"Arab World"},"countryiso3code":"ARB","date":"1970","value":null,"unit":"","obs_status":"","decimal":0}]]