[{"page":1,"pages":317,"per_page":50,"total":15840,"sourceid":"2","lastupdated":"2020-03-18"},[{"indicator":{"id":"SH.STA.BASS.UR.ZS","value":"People using at least basic sanitation services, urban (% of urban population)"},"country":{"id":"1A","value":"Arab World"},"countryiso3code":"ARB","date":"2019","value":null,"unit":"","obs_status":"","decimal":0},{"indicator":{"id":"SH.STA.BASS.UR.ZS","value":"People using at least basic sanitation services, urban (% of urban population)"},"country":{"id":"1A","value":"Arab World"},"countryiso3code":"ARB","date":"2018","value":null,"unit":"","obs_status":"","decimal":0},{"indicator":{"id":"SH.STA.BASS.UR.ZS","value":"People using at least basic sanitation services, urban (% of urban population)"},"country":{"id":"1A","value":"Arab World"},"countryiso3code":"ARB","date":"2017","value":90.5706943187442,"unit":"","obs_status":"","decimal":0},{"indicator":{"id":"SH.STA.BASS.UR.ZS","value":"People using at least basic sanitation services, urban (% of urban population)"},"country":{"id":"1A","value":"Arab World"},"countryiso3code":"ARB","date":"2016","value":90.310782641877,"unit":"","obs_status":"","decimal":0},{"indicator":{"id":"SH.STA.BASS.UR.ZS","value":"People using at least basic sanitation services, urban (% of urban population)"},"country":{"id":"1A","value":"Arab World"},"countryiso3code":"ARB","date":"2015","value":89.9031457744933,"unit":"","obs_status":"","decimal":0},{"indicator":{"id":"SH.STA.BASS.UR.ZS","value":"People using at least basic sanitation services, urban (% of urban population)"},"country":{"id":"1A","value":"Arab World"},"countryiso3code":"ARB","date":"2014","value":89.5030848360546,"unit":"","obs_status":"","decimal":0},{"indicator":{"id":"SH.STA.BASS.UR.ZS","value":"People using at least basic sanitation services, urban (% of urban population)"},"country":{"id":"1A","value":"Arab World"},"countryiso3code":"ARB","date":"2013","value":89.1094854516766,"unit":"","obs_status":"","decimal":0},{"indicator":{"id":"SH.STA.BASS.UR.ZS","value":"People using at least basic sanitation services, urban (% of urban population)"},"country":{"id":"1A","value":"Arab World"},"countryiso3code":"ARB","date":"2012","value":88.6287413738818,"unit":"","obs_status":"","decimal":0},{"indicator":{"id":"SH.STA.BASS.UR.ZS","value":"People using at least basic sanitation services, urban (% of urban population)"},"country":{"id":"1A","value":"Arab World"},"countryiso3code":"ARB","date":"2011","value":88.1548479715414,"unit":"","obs_status":"","decimal":0},{"indicator":{"id":"SH.STA.BASS.UR.ZS","value":"People using at least basic sanitation services, urban (% of urban population)"},"country":{"id":"1A","value":"Arab World"},"countryiso3code":"ARB","date":"2010","value":87.7182016966738,"unit":"","obs_status":"","decimal":0},{"indicator":{"id":"SH.STA.BASS.UR.ZS","value":"People using at least basic sanitation services, urban (% of urban population)"},"country":{"id":"1A","value":"Arab World"},"countryiso3code":"ARB","date":"2009","value":87.2697992168422,"unit":"","obs_status":"","decimal":0},{"indicator":{"id":"SH.STA.BASS.UR.ZS","value":"People using at least basic sanitation services, urban (% of urban population)"},"country":{"id":"1A","value":"Arab World"},"countryiso3code":"ARB","date":"2008","value":86.8131173108319,"unit":"","obs_status":"","decimal":0},{"indicator":{"id":"SH.STA.BASS.UR.ZS","value":"People using at least basic sanitation services, urban (% of urban population)"},"country":{"id":"1A","value":"Arab World"},"countryiso3code":"ARB","date":"2007","value":86.3485957497174,"unit":"","obs_status":"","decimal":0},{"indicator":{"id":"SH.STA.BASS.UR.ZS","value":"People using at least basic sanitation services, urban (% of urban population)"},"country":{"id":"1A","value":"Arab World"},"countryiso3code":"ARB","date":"2006","value":85.7622973346404,"unit":"","obs_status":"","decimal":0},{"indicator":{"id":"SH.STA.BASS.UR.ZS","value":"People using at least basic sanitation services, urban (% of urban population)"},"country":{"id":"1A","value":"Arab World"},"countryiso3code":"ARB","date":"2005","value":85.2935009547901,"unit":"","obs_status":"","decimal":0},{"indicator":{"id":"SH.STA.BASS.UR.ZS","value":"People using at least basic sanitation services, urban (% of urban population)"},"country":{"id":"1A","value":"Arab World"},"countryiso3code":"ARB","date":"2004","value":84.8519237533311,"unit":"","obs_status":"","decimal":0},{"indicator":{"id":"SH.STA.BASS.UR.ZS","value":"People using at least basic sanitation services, urban (% of urban population)"},"country":{"id":"1A","value":"Arab World"},"countryiso3code":"ARB","date":"2003","value":84.6895651346272,"unit":"","obs_status":"","decimal":0},{"indicator":{"id":"SH.STA.BASS.UR.ZS","value":"People using at least basic sanitation services, urban (% of urban population)"},"country":{"id":"1A","value":"Arab World"},"countryiso3code":"ARB","date":"2002","value":84.5454874220597,"unit":"","obs_status":"","decimal":0},{"indicator":{"id":"SH.STA.BASS.UR.ZS","value":"People using at least basic sanitation services, urban (% of urban population)"},"country":{"id":"1A","value":"Arab World"},"countryiso3code":"ARB","date":"2001","value":84.4086549906279,"unit":"","obs_status":"","decimal":0},{"indicator":{"id":"SH.STA.BASS.UR.ZS","value":"People using at least basic sanitation services, urban (% of urban population)"},"country":{"id":"1A","value":"Arab World"},"countryiso3code":"ARB","date":"2000","value":84.3686681500773,"unit":"","obs_status":"","decimal":0},{"indicator":{"id":"SH.STA.BASS.UR.ZS","value":"People using at least basic sanitation services, urban (% of urban population)"},"country":{"id":"1A","value":"Arab World"},"countryiso3code":"ARB","date":"1999","value":null,"unit":"","obs_status":"","decimal":0},{"indicator":{"id":"SH.STA.BASS.UR.ZS","value":"People using at least basic sanitation services, urban (% of urban population)"},"country":{"id":"1A","value":"Arab World"},"countryiso3code":"ARB","date":"1998","value":null,"unit":"","obs_status":"","decimal":0},{"indicator":{"id":"SH.STA.BASS.UR.ZS","value":"People using at least basic sanitation services, urban (% of urban population)"},"country":{"id":"1A","value":"Arab World"},"countryiso3code":"ARB","date":"1997","value":null,"unit":"","obs_status":"","decimal":0},{"indicator":{"id":"SH.STA.BASS.UR.ZS","value":"People using at least basic sanitation services, urban (% of urban population)"},"country":{"id":"1A","value":"Arab World"},"countryiso3code":"ARB","date":"1996","value":null,"unit":"","obs_status":"","decimal":0},{"indicator":{"id":"SH.STA.BASS.UR.ZS","value":"People using at least basic sanitation services, urban (% of urban population)"},"country":{"id":"1A","value":"Arab World"},"countryiso3code":"ARB","date":"1995","value":null,"unit":"","obs_status":"","decimal":0},{"indicator":{"id":"SH.STA.BASS.UR.ZS","value":"People using at least basic sanitation services, urban (% of urban population)"},"country":{"id":"1A","value":"Arab World"},"countryiso3code":"ARB","date":"1994","value":null,"unit":"","obs_status":"","decimal":0},{"indicator":{"id":"SH.STA.BASS.UR.ZS","value":"People using at least basic sanitation services, urban (% of urban population)"},"country":{"id":"1A","value":"Arab World"},"countryiso3code":"ARB","date":"1993","value":null,"unit":"","obs_status":"","decimal":0},{"indicator":{"id":"SH.STA.BASS.UR.ZS","value":"People using at least basic sanitation services, urban (% of urban population)"},"country":{"id":"1A","value":"Arab World"},"countryiso3code":"ARB","date":"1992","value":null,"unit":"","obs_status":"","decimal":0},{"indicator":{"id":"SH.STA.BASS.UR.ZS","value":"People using at least basic sanitation services, urban (% of urban population)"},"country":{"id":"1A","value":"Arab World"},"countryiso3code":"ARB","date":"1991","value":null,"unit":"","obs_status":"","decimal":0},{"indicator":{"id":"SH.STA.BASS.UR.ZS","value":"People using at least basic sanitation services, urban (% of urban population)"},"country":{"id":"1A","value":"Arab World"},"countryiso3code":"ARB","date":"1990","value":null,"unit":"","obs_status":"","decimal":0},{"indicator":{"id":"SH.STA.BASS.UR.ZS","value":"People using at least basic sanitation services, urban (% of urban population)"},"country":{"id":"1A","value":"Arab World"},"countryiso3code":"ARB","date":"1989","value":null,"unit":"","obs_status":"","decimal":0},{"indicator":{"id":"SH.STA.BASS.UR.ZS","value":"People using at least basic sanitation services, urban (% of urban population)"},"country":{"id":"1A","value":"Arab World"},"countryiso3code":"ARB","date":"1988","value":null,"unit":"","obs_status":"","decimal":0},{"indicator":{"id":"SH.STA.BASS.UR.ZS","value":"People using at least basic sanitation services, urban (% of urban population)"},"country":{"id":"1A","value":"Arab World"},"countryiso3code":"ARB","date":"1987","value":null,"unit":"","obs_status":"","decimal":0},{"indicator":{"id":"SH.STA.BASS.UR.ZS","value":"People using at least basic sanitation services, urban (% of urban population)"},"country":{"id":"1A","value":"Arab World"},"countryiso3code":"ARB","date":"1986","value":null,"unit":"","obs_status":"","decimal":0},{"indicator":{"id":"SH.STA.BASS.UR.ZS","value":"People using at least basic sanitation services, urban (% of urban population)"},"country":{"id":"1A","value":"Arab World"},"countryiso3code":"ARB","date":"1985","value":null,"unit":"","obs_status":"","decimal":0},{"indicator":{"id":"SH.STA.BASS.UR.ZS","value":"People using at least basic sanitation services, urban (% of urban population)"},"country":{"id":"1A","value":"Arab World"},"countryiso3code":"ARB","date":"1984","value":null,"unit":"","obs_status":"","decimal":0},{"indicator":{"id":"SH.STA.BASS.UR.ZS","value":"People using at least basic sanitation services, urban (% of urban population)"},"country":{"id":"1A","value":"Arab World"},"countryiso3code":"ARB","date":"1983","value":null,"unit":"","obs_status":"","decimal":0},{"indicator":{"id":"SH.STA.BASS.UR.ZS","value":"People using at least basic sanitation services, urban (% of urban population)"},"country":{"id":"1A","value":"Arab World"},"countryiso3code":"ARB","date":"1982","value":null,"unit":"","obs_status":"","decimal":0},{"indicator":{"id":"SH.STA.BASS.UR.ZS","value":"People using at least basic sanitation services, urban (% of urban population)"},"country":{"id":"1A","value":"Arab World"},"countryiso3code":"ARB","date":"1981","value":null,"unit":"","obs_status":"","decimal":0},{"indicator":{"id":"SH.STA.BASS.UR.ZS","value":"People using at least basic sanitation services, urban (% of urban population)"},"country":{"id":"1A","value":"Arab World"},"countryiso3code":"ARB","date":"1980","value":null,"unit":"","obs_status":"","decimal":0},{"indicator":{"id":"SH.STA.BASS.UR.ZS","value":"People using at least basic sanitation services, urban (% of urban population)"},"country":{"id":"1A","value":"Arab World"},"countryiso3code":"ARB","date":"1979","value":null,"unit":"","obs_status":"","decimal":0},{"indicator":{"id":"SH.STA.BASS.UR.ZS","value":"People using at least basic sanitation services, urban (% of urban population)"},"country":{"id":"1A","value":"Arab World"},"countryiso3code":"ARB","date":"1978","value":null,"unit":"","obs_status":"","decimal":0},{"indicator":{"id":"SH.STA.BASS.UR.ZS","value":"People using at least basic sanitation services, urban (% of urban population)"},"country":{"id":"1A","value":"Arab World"},"countryiso3code":"ARB","date":"1977","value":null,"unit":"","obs_status":"","decimal":0},{"indicator":{"id":"SH.STA.BASS.UR.ZS","value":"People using at least basic sanitation services, urban (% of urban population)"},"country":{"id":"1A","value":"Arab World"},"countryiso3code":"ARB","date":"1976","value":null,"unit":"","obs_status":"","decimal":0},{"indicator":{"id":"SH.STA.BASS.UR.ZS","value":"People using at least basic sanitation services, urban (% of urban population)"},"country":{"id":"1A","value":"Arab World"},"countryiso3code":"ARB","date":"1975","value":null,"unit":"","obs_status":"","decimal":0},{"indicator":{"id":"SH.STA.BASS.UR.ZS","value":"People using at least basic sanitation services, urban (% of urban population)"},"country":{"id":"1A","value":"Arab World"},"countryiso3code":"ARB","date":"1974","value":null,"unit":"","obs_status":"","decimal":0},{"indicator":{"id":"SH.STA.BASS.UR.ZS","value":"People using at least basic sanitation services, urban (% of urban population)"},"country":{"id":"1A","value":"Arab World"},"countryiso3code":"ARB","date":"1973","value":null,"unit":"","obs_status":"","decimal":0},{"indicator":{"id":"SH.STA.BASS.UR.ZS","value":"People using at least basic sanitation services, urban (% of urban population)"},"country":{"id":"1A","value":"Arab World"},"countryiso3code":"ARB","date":"1972","value":null,"unit":"","obs_status":"","decimal":0},{"indicator":{"id":"SH.STA.BASS.UR.ZS","value":"People using at least basic sanitation services, urban (% of urban population)"},"country":{"id":"1A","value":"Arab World"},"countryiso3code":"ARB","date":"1971","value":null,"unit":"","obs_status":"","decimal":0},{"indicator":{"id":"SH.STA.BASS.UR.ZS","value":"People using at least basic sanitation services, urban (% of urban population)"},"country":{"id":"1A","value":"Arab World"},"countryiso3code":"ARB","date":"1970","value":null,"unit":"","obs_status":"","decimal":0}]]