[{"page":1,"pages":317,"per_page":50,"total":15840,"sourceid":"2","lastupdated":"2020-03-18"},[{"indicator":{"id":"SP.POP.80UP.FE.5Y","value":"Population ages 80 and above, female (% of female population)"},"country":{"id":"1A","value":"Arab World"},"countryiso3code":"ARB","date":"2019","value":null,"unit":"","obs_status":"","decimal":0},{"indicator":{"id":"SP.POP.80UP.FE.5Y","value":"Population ages 80 and above, female (% of female population)"},"country":{"id":"1A","value":"Arab World"},"countryiso3code":"ARB","date":"2018","value":0.889501032948601,"unit":"","obs_status":"","decimal":0},{"indicator":{"id":"SP.POP.80UP.FE.5Y","value":"Population ages 80 and above, female (% of female population)"},"country":{"id":"1A","value":"Arab World"},"countryiso3code":"ARB","date":"2017","value":0.876287989802026,"unit":"","obs_status":"","decimal":0},{"indicator":{"id":"SP.POP.80UP.FE.5Y","value":"Population ages 80 and above, female (% of female population)"},"country":{"id":"1A","value":"Arab World"},"countryiso3code":"ARB","date":"2016","value":0.854315437317537,"unit":"","obs_status":"","decimal":0},{"indicator":{"id":"SP.POP.80UP.FE.5Y","value":"Population ages 80 and above, female (% of female population)"},"country":{"id":"1A","value":"Arab World"},"countryiso3code":"ARB","date":"2015","value":0.824640923888466,"unit":"","obs_status":"","decimal":0},{"indicator":{"id":"SP.POP.80UP.FE.5Y","value":"Population ages 80 and above, female (% of female population)"},"country":{"id":"1A","value":"Arab World"},"countryiso3code":"ARB","date":"2014","value":0.82704345028237,"unit":"","obs_status":"","decimal":0},{"indicator":{"id":"SP.POP.80UP.FE.5Y","value":"Population ages 80 and above, female (% of female population)"},"country":{"id":"1A","value":"Arab World"},"countryiso3code":"ARB","date":"2013","value":0.821941250190962,"unit":"","obs_status":"","decimal":0},{"indicator":{"id":"SP.POP.80UP.FE.5Y","value":"Population ages 80 and above, female (% of female population)"},"country":{"id":"1A","value":"Arab World"},"countryiso3code":"ARB","date":"2012","value":0.808139085361637,"unit":"","obs_status":"","decimal":0},{"indicator":{"id":"SP.POP.80UP.FE.5Y","value":"Population ages 80 and above, female (% of female population)"},"country":{"id":"1A","value":"Arab World"},"countryiso3code":"ARB","date":"2011","value":0.785415816247578,"unit":"","obs_status":"","decimal":0},{"indicator":{"id":"SP.POP.80UP.FE.5Y","value":"Population ages 80 and above, female (% of female population)"},"country":{"id":"1A","value":"Arab World"},"countryiso3code":"ARB","date":"2010","value":0.754348727060621,"unit":"","obs_status":"","decimal":0},{"indicator":{"id":"SP.POP.80UP.FE.5Y","value":"Population ages 80 and above, female (% of female population)"},"country":{"id":"1A","value":"Arab World"},"countryiso3code":"ARB","date":"2009","value":0.753702326634157,"unit":"","obs_status":"","decimal":0},{"indicator":{"id":"SP.POP.80UP.FE.5Y","value":"Population ages 80 and above, female (% of female population)"},"country":{"id":"1A","value":"Arab World"},"countryiso3code":"ARB","date":"2008","value":0.747993121058917,"unit":"","obs_status":"","decimal":0},{"indicator":{"id":"SP.POP.80UP.FE.5Y","value":"Population ages 80 and above, female (% of female population)"},"country":{"id":"1A","value":"Arab World"},"countryiso3code":"ARB","date":"2007","value":0.735791216547558,"unit":"","obs_status":"","decimal":0},{"indicator":{"id":"SP.POP.80UP.FE.5Y","value":"Population ages 80 and above, female (% of female population)"},"country":{"id":"1A","value":"Arab World"},"countryiso3code":"ARB","date":"2006","value":0.715640252037265,"unit":"","obs_status":"","decimal":0},{"indicator":{"id":"SP.POP.80UP.FE.5Y","value":"Population ages 80 and above, female (% of female population)"},"country":{"id":"1A","value":"Arab World"},"countryiso3code":"ARB","date":"2005","value":0.687012404785959,"unit":"","obs_status":"","decimal":0},{"indicator":{"id":"SP.POP.80UP.FE.5Y","value":"Population ages 80 and above, female (% of female population)"},"country":{"id":"1A","value":"Arab World"},"countryiso3code":"ARB","date":"2004","value":0.691548485977208,"unit":"","obs_status":"","decimal":0},{"indicator":{"id":"SP.POP.80UP.FE.5Y","value":"Population ages 80 and above, female (% of female population)"},"country":{"id":"1A","value":"Arab World"},"countryiso3code":"ARB","date":"2003","value":0.68844641643795,"unit":"","obs_status":"","decimal":0},{"indicator":{"id":"SP.POP.80UP.FE.5Y","value":"Population ages 80 and above, female (% of female population)"},"country":{"id":"1A","value":"Arab World"},"countryiso3code":"ARB","date":"2002","value":0.677034732996637,"unit":"","obs_status":"","decimal":0},{"indicator":{"id":"SP.POP.80UP.FE.5Y","value":"Population ages 80 and above, female (% of female population)"},"country":{"id":"1A","value":"Arab World"},"countryiso3code":"ARB","date":"2001","value":0.657137811966062,"unit":"","obs_status":"","decimal":0},{"indicator":{"id":"SP.POP.80UP.FE.5Y","value":"Population ages 80 and above, female (% of female population)"},"country":{"id":"1A","value":"Arab World"},"countryiso3code":"ARB","date":"2000","value":0.629320715289795,"unit":"","obs_status":"","decimal":0},{"indicator":{"id":"SP.POP.80UP.FE.5Y","value":"Population ages 80 and above, female (% of female population)"},"country":{"id":"1A","value":"Arab World"},"countryiso3code":"ARB","date":"1999","value":0.633063235132151,"unit":"","obs_status":"","decimal":0},{"indicator":{"id":"SP.POP.80UP.FE.5Y","value":"Population ages 80 and above, female (% of female population)"},"country":{"id":"1A","value":"Arab World"},"countryiso3code":"ARB","date":"1998","value":0.631370187668945,"unit":"","obs_status":"","decimal":0},{"indicator":{"id":"SP.POP.80UP.FE.5Y","value":"Population ages 80 and above, female (% of female population)"},"country":{"id":"1A","value":"Arab World"},"countryiso3code":"ARB","date":"1997","value":0.623245004821607,"unit":"","obs_status":"","decimal":0},{"indicator":{"id":"SP.POP.80UP.FE.5Y","value":"Population ages 80 and above, female (% of female population)"},"country":{"id":"1A","value":"Arab World"},"countryiso3code":"ARB","date":"1996","value":0.607684403133376,"unit":"","obs_status":"","decimal":0},{"indicator":{"id":"SP.POP.80UP.FE.5Y","value":"Population ages 80 and above, female (% of female population)"},"country":{"id":"1A","value":"Arab World"},"countryiso3code":"ARB","date":"1995","value":0.584247272771841,"unit":"","obs_status":"","decimal":0},{"indicator":{"id":"SP.POP.80UP.FE.5Y","value":"Population ages 80 and above, female (% of female population)"},"country":{"id":"1A","value":"Arab World"},"countryiso3code":"ARB","date":"1994","value":0.594018063439587,"unit":"","obs_status":"","decimal":0},{"indicator":{"id":"SP.POP.80UP.FE.5Y","value":"Population ages 80 and above, female (% of female population)"},"country":{"id":"1A","value":"Arab World"},"countryiso3code":"ARB","date":"1993","value":0.595877671382015,"unit":"","obs_status":"","decimal":0},{"indicator":{"id":"SP.POP.80UP.FE.5Y","value":"Population ages 80 and above, female (% of female population)"},"country":{"id":"1A","value":"Arab World"},"countryiso3code":"ARB","date":"1992","value":0.590790127864306,"unit":"","obs_status":"","decimal":0},{"indicator":{"id":"SP.POP.80UP.FE.5Y","value":"Population ages 80 and above, female (% of female population)"},"country":{"id":"1A","value":"Arab World"},"countryiso3code":"ARB","date":"1991","value":0.575785696563389,"unit":"","obs_status":"","decimal":0},{"indicator":{"id":"SP.POP.80UP.FE.5Y","value":"Population ages 80 and above, female (% of female population)"},"country":{"id":"1A","value":"Arab World"},"countryiso3code":"ARB","date":"1990","value":0.555275892517768,"unit":"","obs_status":"","decimal":0},{"indicator":{"id":"SP.POP.80UP.FE.5Y","value":"Population ages 80 and above, female (% of female population)"},"country":{"id":"1A","value":"Arab World"},"countryiso3code":"ARB","date":"1989","value":0.569140431315107,"unit":"","obs_status":"","decimal":0},{"indicator":{"id":"SP.POP.80UP.FE.5Y","value":"Population ages 80 and above, female (% of female population)"},"country":{"id":"1A","value":"Arab World"},"countryiso3code":"ARB","date":"1988","value":0.571894810759843,"unit":"","obs_status":"","decimal":0},{"indicator":{"id":"SP.POP.80UP.FE.5Y","value":"Population ages 80 and above, female (% of female population)"},"country":{"id":"1A","value":"Arab World"},"countryiso3code":"ARB","date":"1987","value":0.565283788048608,"unit":"","obs_status":"","decimal":0},{"indicator":{"id":"SP.POP.80UP.FE.5Y","value":"Population ages 80 and above, female (% of female population)"},"country":{"id":"1A","value":"Arab World"},"countryiso3code":"ARB","date":"1986","value":0.549855614227648,"unit":"","obs_status":"","decimal":0},{"indicator":{"id":"SP.POP.80UP.FE.5Y","value":"Population ages 80 and above, female (% of female population)"},"country":{"id":"1A","value":"Arab World"},"countryiso3code":"ARB","date":"1985","value":0.526907826735787,"unit":"","obs_status":"","decimal":0},{"indicator":{"id":"SP.POP.80UP.FE.5Y","value":"Population ages 80 and above, female (% of female population)"},"country":{"id":"1A","value":"Arab World"},"countryiso3code":"ARB","date":"1984","value":0.536615349653672,"unit":"","obs_status":"","decimal":0},{"indicator":{"id":"SP.POP.80UP.FE.5Y","value":"Population ages 80 and above, female (% of female population)"},"country":{"id":"1A","value":"Arab World"},"countryiso3code":"ARB","date":"1983","value":0.539862661047052,"unit":"","obs_status":"","decimal":0},{"indicator":{"id":"SP.POP.80UP.FE.5Y","value":"Population ages 80 and above, female (% of female population)"},"country":{"id":"1A","value":"Arab World"},"countryiso3code":"ARB","date":"1982","value":0.535599329411336,"unit":"","obs_status":"","decimal":0},{"indicator":{"id":"SP.POP.80UP.FE.5Y","value":"Population ages 80 and above, female (% of female population)"},"country":{"id":"1A","value":"Arab World"},"countryiso3code":"ARB","date":"1981","value":0.522976820385244,"unit":"","obs_status":"","decimal":0},{"indicator":{"id":"SP.POP.80UP.FE.5Y","value":"Population ages 80 and above, female (% of female population)"},"country":{"id":"1A","value":"Arab World"},"countryiso3code":"ARB","date":"1980","value":0.501963247894088,"unit":"","obs_status":"","decimal":0},{"indicator":{"id":"SP.POP.80UP.FE.5Y","value":"Population ages 80 and above, female (% of female population)"},"country":{"id":"1A","value":"Arab World"},"countryiso3code":"ARB","date":"1979","value":0.512294122878183,"unit":"","obs_status":"","decimal":0},{"indicator":{"id":"SP.POP.80UP.FE.5Y","value":"Population ages 80 and above, female (% of female population)"},"country":{"id":"1A","value":"Arab World"},"countryiso3code":"ARB","date":"1978","value":0.514771694683343,"unit":"","obs_status":"","decimal":0},{"indicator":{"id":"SP.POP.80UP.FE.5Y","value":"Population ages 80 and above, female (% of female population)"},"country":{"id":"1A","value":"Arab World"},"countryiso3code":"ARB","date":"1977","value":0.508427716783055,"unit":"","obs_status":"","decimal":0},{"indicator":{"id":"SP.POP.80UP.FE.5Y","value":"Population ages 80 and above, female (% of female population)"},"country":{"id":"1A","value":"Arab World"},"countryiso3code":"ARB","date":"1976","value":0.493067405464093,"unit":"","obs_status":"","decimal":0},{"indicator":{"id":"SP.POP.80UP.FE.5Y","value":"Population ages 80 and above, female (% of female population)"},"country":{"id":"1A","value":"Arab World"},"countryiso3code":"ARB","date":"1975","value":0.469486558171637,"unit":"","obs_status":"","decimal":0},{"indicator":{"id":"SP.POP.80UP.FE.5Y","value":"Population ages 80 and above, female (% of female population)"},"country":{"id":"1A","value":"Arab World"},"countryiso3code":"ARB","date":"1974","value":0.477778363564082,"unit":"","obs_status":"","decimal":0},{"indicator":{"id":"SP.POP.80UP.FE.5Y","value":"Population ages 80 and above, female (% of female population)"},"country":{"id":"1A","value":"Arab World"},"countryiso3code":"ARB","date":"1973","value":0.478418158288597,"unit":"","obs_status":"","decimal":0},{"indicator":{"id":"SP.POP.80UP.FE.5Y","value":"Population ages 80 and above, female (% of female population)"},"country":{"id":"1A","value":"Arab World"},"countryiso3code":"ARB","date":"1972","value":0.471119991218364,"unit":"","obs_status":"","decimal":0},{"indicator":{"id":"SP.POP.80UP.FE.5Y","value":"Population ages 80 and above, female (% of female population)"},"country":{"id":"1A","value":"Arab World"},"countryiso3code":"ARB","date":"1971","value":0.45572828309354,"unit":"","obs_status":"","decimal":0},{"indicator":{"id":"SP.POP.80UP.FE.5Y","value":"Population ages 80 and above, female (% of female population)"},"country":{"id":"1A","value":"Arab World"},"countryiso3code":"ARB","date":"1970","value":0.432828159658905,"unit":"","obs_status":"","decimal":0}]]