[{"page":1,"pages":317,"per_page":50,"total":15840,"sourceid":"13","lastupdated":"2020-03-18"},[{"indicator":{"id":"SP.POP.65UP.MA.ZS","value":"Population ages 65 and above, male (% of male population)"},"country":{"id":"1A","value":"Arab World"},"countryiso3code":"ARB","date":"2019","value":null,"unit":"","obs_status":"","decimal":0},{"indicator":{"id":"SP.POP.65UP.MA.ZS","value":"Population ages 65 and above, male (% of male population)"},"country":{"id":"1A","value":"Arab World"},"countryiso3code":"ARB","date":"2018","value":4.11454071134044,"unit":"","obs_status":"","decimal":0},{"indicator":{"id":"SP.POP.65UP.MA.ZS","value":"Population ages 65 and above, male (% of male population)"},"country":{"id":"1A","value":"Arab World"},"countryiso3code":"ARB","date":"2017","value":4.021746251334,"unit":"","obs_status":"","decimal":0},{"indicator":{"id":"SP.POP.65UP.MA.ZS","value":"Population ages 65 and above, male (% of male population)"},"country":{"id":"1A","value":"Arab World"},"countryiso3code":"ARB","date":"2016","value":3.9354439771515,"unit":"","obs_status":"","decimal":0},{"indicator":{"id":"SP.POP.65UP.MA.ZS","value":"Population ages 65 and above, male (% of male population)"},"country":{"id":"1A","value":"Arab World"},"countryiso3code":"ARB","date":"2015","value":3.85911490779886,"unit":"","obs_status":"","decimal":0},{"indicator":{"id":"SP.POP.65UP.MA.ZS","value":"Population ages 65 and above, male (% of male population)"},"country":{"id":"1A","value":"Arab World"},"countryiso3code":"ARB","date":"2014","value":3.80211493731587,"unit":"","obs_status":"","decimal":0},{"indicator":{"id":"SP.POP.65UP.MA.ZS","value":"Population ages 65 and above, male (% of male population)"},"country":{"id":"1A","value":"Arab World"},"countryiso3code":"ARB","date":"2013","value":3.7585872355168,"unit":"","obs_status":"","decimal":0},{"indicator":{"id":"SP.POP.65UP.MA.ZS","value":"Population ages 65 and above, male (% of male population)"},"country":{"id":"1A","value":"Arab World"},"countryiso3code":"ARB","date":"2012","value":3.72538574190739,"unit":"","obs_status":"","decimal":0},{"indicator":{"id":"SP.POP.65UP.MA.ZS","value":"Population ages 65 and above, male (% of male population)"},"country":{"id":"1A","value":"Arab World"},"countryiso3code":"ARB","date":"2011","value":3.69841319001353,"unit":"","obs_status":"","decimal":0},{"indicator":{"id":"SP.POP.65UP.MA.ZS","value":"Population ages 65 and above, male (% of male population)"},"country":{"id":"1A","value":"Arab World"},"countryiso3code":"ARB","date":"2010","value":3.67536988092401,"unit":"","obs_status":"","decimal":0},{"indicator":{"id":"SP.POP.65UP.MA.ZS","value":"Population ages 65 and above, male (% of male population)"},"country":{"id":"1A","value":"Arab World"},"countryiso3code":"ARB","date":"2009","value":3.67329174860688,"unit":"","obs_status":"","decimal":0},{"indicator":{"id":"SP.POP.65UP.MA.ZS","value":"Population ages 65 and above, male (% of male population)"},"country":{"id":"1A","value":"Arab World"},"countryiso3code":"ARB","date":"2008","value":3.68014335072204,"unit":"","obs_status":"","decimal":0},{"indicator":{"id":"SP.POP.65UP.MA.ZS","value":"Population ages 65 and above, male (% of male population)"},"country":{"id":"1A","value":"Arab World"},"countryiso3code":"ARB","date":"2007","value":3.69109038253224,"unit":"","obs_status":"","decimal":0},{"indicator":{"id":"SP.POP.65UP.MA.ZS","value":"Population ages 65 and above, male (% of male population)"},"country":{"id":"1A","value":"Arab World"},"countryiso3code":"ARB","date":"2006","value":3.69905041869115,"unit":"","obs_status":"","decimal":0},{"indicator":{"id":"SP.POP.65UP.MA.ZS","value":"Population ages 65 and above, male (% of male population)"},"country":{"id":"1A","value":"Arab World"},"countryiso3code":"ARB","date":"2005","value":3.69795146568299,"unit":"","obs_status":"","decimal":0},{"indicator":{"id":"SP.POP.65UP.MA.ZS","value":"Population ages 65 and above, male (% of male population)"},"country":{"id":"1A","value":"Arab World"},"countryiso3code":"ARB","date":"2004","value":3.6964362352748,"unit":"","obs_status":"","decimal":0},{"indicator":{"id":"SP.POP.65UP.MA.ZS","value":"Population ages 65 and above, male (% of male population)"},"country":{"id":"1A","value":"Arab World"},"countryiso3code":"ARB","date":"2003","value":3.68791633929458,"unit":"","obs_status":"","decimal":0},{"indicator":{"id":"SP.POP.65UP.MA.ZS","value":"Population ages 65 and above, male (% of male population)"},"country":{"id":"1A","value":"Arab World"},"countryiso3code":"ARB","date":"2002","value":3.67168632655552,"unit":"","obs_status":"","decimal":0},{"indicator":{"id":"SP.POP.65UP.MA.ZS","value":"Population ages 65 and above, male (% of male population)"},"country":{"id":"1A","value":"Arab World"},"countryiso3code":"ARB","date":"2001","value":3.64952827658824,"unit":"","obs_status":"","decimal":0},{"indicator":{"id":"SP.POP.65UP.MA.ZS","value":"Population ages 65 and above, male (% of male population)"},"country":{"id":"1A","value":"Arab World"},"countryiso3code":"ARB","date":"2000","value":3.62219200889444,"unit":"","obs_status":"","decimal":0},{"indicator":{"id":"SP.POP.65UP.MA.ZS","value":"Population ages 65 and above, male (% of male population)"},"country":{"id":"1A","value":"Arab World"},"countryiso3code":"ARB","date":"1999","value":3.59438143303458,"unit":"","obs_status":"","decimal":0},{"indicator":{"id":"SP.POP.65UP.MA.ZS","value":"Population ages 65 and above, male (% of male population)"},"country":{"id":"1A","value":"Arab World"},"countryiso3code":"ARB","date":"1998","value":3.56092110757597,"unit":"","obs_status":"","decimal":0},{"indicator":{"id":"SP.POP.65UP.MA.ZS","value":"Population ages 65 and above, male (% of male population)"},"country":{"id":"1A","value":"Arab World"},"countryiso3code":"ARB","date":"1997","value":3.52206995192446,"unit":"","obs_status":"","decimal":0},{"indicator":{"id":"SP.POP.65UP.MA.ZS","value":"Population ages 65 and above, male (% of male population)"},"country":{"id":"1A","value":"Arab World"},"countryiso3code":"ARB","date":"1996","value":3.47898971621192,"unit":"","obs_status":"","decimal":0},{"indicator":{"id":"SP.POP.65UP.MA.ZS","value":"Population ages 65 and above, male (% of male population)"},"country":{"id":"1A","value":"Arab World"},"countryiso3code":"ARB","date":"1995","value":3.43167242817691,"unit":"","obs_status":"","decimal":0},{"indicator":{"id":"SP.POP.65UP.MA.ZS","value":"Population ages 65 and above, male (% of male population)"},"country":{"id":"1A","value":"Arab World"},"countryiso3code":"ARB","date":"1994","value":3.4002751559392,"unit":"","obs_status":"","decimal":0},{"indicator":{"id":"SP.POP.65UP.MA.ZS","value":"Population ages 65 and above, male (% of male population)"},"country":{"id":"1A","value":"Arab World"},"countryiso3code":"ARB","date":"1993","value":3.35631006093196,"unit":"","obs_status":"","decimal":0},{"indicator":{"id":"SP.POP.65UP.MA.ZS","value":"Population ages 65 and above, male (% of male population)"},"country":{"id":"1A","value":"Arab World"},"countryiso3code":"ARB","date":"1992","value":3.31439637672511,"unit":"","obs_status":"","decimal":0},{"indicator":{"id":"SP.POP.65UP.MA.ZS","value":"Population ages 65 and above, male (% of male population)"},"country":{"id":"1A","value":"Arab World"},"countryiso3code":"ARB","date":"1991","value":3.25501120854827,"unit":"","obs_status":"","decimal":0},{"indicator":{"id":"SP.POP.65UP.MA.ZS","value":"Population ages 65 and above, male (% of male population)"},"country":{"id":"1A","value":"Arab World"},"countryiso3code":"ARB","date":"1990","value":3.21318077053563,"unit":"","obs_status":"","decimal":0},{"indicator":{"id":"SP.POP.65UP.MA.ZS","value":"Population ages 65 and above, male (% of male population)"},"country":{"id":"1A","value":"Arab World"},"countryiso3code":"ARB","date":"1989","value":3.20917352407534,"unit":"","obs_status":"","decimal":0},{"indicator":{"id":"SP.POP.65UP.MA.ZS","value":"Population ages 65 and above, male (% of male population)"},"country":{"id":"1A","value":"Arab World"},"countryiso3code":"ARB","date":"1988","value":3.1968452406837,"unit":"","obs_status":"","decimal":0},{"indicator":{"id":"SP.POP.65UP.MA.ZS","value":"Population ages 65 and above, male (% of male population)"},"country":{"id":"1A","value":"Arab World"},"countryiso3code":"ARB","date":"1987","value":3.18755971617385,"unit":"","obs_status":"","decimal":0},{"indicator":{"id":"SP.POP.65UP.MA.ZS","value":"Population ages 65 and above, male (% of male population)"},"country":{"id":"1A","value":"Arab World"},"countryiso3code":"ARB","date":"1986","value":3.18038072608629,"unit":"","obs_status":"","decimal":0},{"indicator":{"id":"SP.POP.65UP.MA.ZS","value":"Population ages 65 and above, male (% of male population)"},"country":{"id":"1A","value":"Arab World"},"countryiso3code":"ARB","date":"1985","value":3.17419711518411,"unit":"","obs_status":"","decimal":0},{"indicator":{"id":"SP.POP.65UP.MA.ZS","value":"Population ages 65 and above, male (% of male population)"},"country":{"id":"1A","value":"Arab World"},"countryiso3code":"ARB","date":"1984","value":3.18600259721335,"unit":"","obs_status":"","decimal":0},{"indicator":{"id":"SP.POP.65UP.MA.ZS","value":"Population ages 65 and above, male (% of male population)"},"country":{"id":"1A","value":"Arab World"},"countryiso3code":"ARB","date":"1983","value":3.19881123895251,"unit":"","obs_status":"","decimal":0},{"indicator":{"id":"SP.POP.65UP.MA.ZS","value":"Population ages 65 and above, male (% of male population)"},"country":{"id":"1A","value":"Arab World"},"countryiso3code":"ARB","date":"1982","value":3.21082663301216,"unit":"","obs_status":"","decimal":0},{"indicator":{"id":"SP.POP.65UP.MA.ZS","value":"Population ages 65 and above, male (% of male population)"},"country":{"id":"1A","value":"Arab World"},"countryiso3code":"ARB","date":"1981","value":3.22017459031949,"unit":"","obs_status":"","decimal":0},{"indicator":{"id":"SP.POP.65UP.MA.ZS","value":"Population ages 65 and above, male (% of male population)"},"country":{"id":"1A","value":"Arab World"},"countryiso3code":"ARB","date":"1980","value":3.22539134012916,"unit":"","obs_status":"","decimal":0},{"indicator":{"id":"SP.POP.65UP.MA.ZS","value":"Population ages 65 and above, male (% of male population)"},"country":{"id":"1A","value":"Arab World"},"countryiso3code":"ARB","date":"1979","value":3.2455416220068,"unit":"","obs_status":"","decimal":0},{"indicator":{"id":"SP.POP.65UP.MA.ZS","value":"Population ages 65 and above, male (% of male population)"},"country":{"id":"1A","value":"Arab World"},"countryiso3code":"ARB","date":"1978","value":3.26541597161075,"unit":"","obs_status":"","decimal":0},{"indicator":{"id":"SP.POP.65UP.MA.ZS","value":"Population ages 65 and above, male (% of male population)"},"country":{"id":"1A","value":"Arab World"},"countryiso3code":"ARB","date":"1977","value":3.28282760738523,"unit":"","obs_status":"","decimal":0},{"indicator":{"id":"SP.POP.65UP.MA.ZS","value":"Population ages 65 and above, male (% of male population)"},"country":{"id":"1A","value":"Arab World"},"countryiso3code":"ARB","date":"1976","value":3.29460579627422,"unit":"","obs_status":"","decimal":0},{"indicator":{"id":"SP.POP.65UP.MA.ZS","value":"Population ages 65 and above, male (% of male population)"},"country":{"id":"1A","value":"Arab World"},"countryiso3code":"ARB","date":"1975","value":3.2979553670158,"unit":"","obs_status":"","decimal":0},{"indicator":{"id":"SP.POP.65UP.MA.ZS","value":"Population ages 65 and above, male (% of male population)"},"country":{"id":"1A","value":"Arab World"},"countryiso3code":"ARB","date":"1974","value":3.31282983815157,"unit":"","obs_status":"","decimal":0},{"indicator":{"id":"SP.POP.65UP.MA.ZS","value":"Population ages 65 and above, male (% of male population)"},"country":{"id":"1A","value":"Arab World"},"countryiso3code":"ARB","date":"1973","value":3.31840188550616,"unit":"","obs_status":"","decimal":0},{"indicator":{"id":"SP.POP.65UP.MA.ZS","value":"Population ages 65 and above, male (% of male population)"},"country":{"id":"1A","value":"Arab World"},"countryiso3code":"ARB","date":"1972","value":3.31488906725015,"unit":"","obs_status":"","decimal":0},{"indicator":{"id":"SP.POP.65UP.MA.ZS","value":"Population ages 65 and above, male (% of male population)"},"country":{"id":"1A","value":"Arab World"},"countryiso3code":"ARB","date":"1971","value":3.30489410067113,"unit":"","obs_status":"","decimal":0},{"indicator":{"id":"SP.POP.65UP.MA.ZS","value":"Population ages 65 and above, male (% of male population)"},"country":{"id":"1A","value":"Arab World"},"countryiso3code":"ARB","date":"1970","value":3.29036699318348,"unit":"","obs_status":"","decimal":0}]]