[{"page":1,"pages":317,"per_page":50,"total":15840,"sourceid":"2","lastupdated":"2020-03-18"},[{"indicator":{"id":"SP.POP.1564.MA.ZS","value":"Population ages 15-64, male (% of male population)"},"country":{"id":"1A","value":"Arab World"},"countryiso3code":"ARB","date":"2019","value":null,"unit":"","obs_status":"","decimal":0},{"indicator":{"id":"SP.POP.1564.MA.ZS","value":"Population ages 15-64, male (% of male population)"},"country":{"id":"1A","value":"Arab World"},"countryiso3code":"ARB","date":"2018","value":63.5260481252911,"unit":"","obs_status":"","decimal":0},{"indicator":{"id":"SP.POP.1564.MA.ZS","value":"Population ages 15-64, male (% of male population)"},"country":{"id":"1A","value":"Arab World"},"countryiso3code":"ARB","date":"2017","value":63.4982912781714,"unit":"","obs_status":"","decimal":0},{"indicator":{"id":"SP.POP.1564.MA.ZS","value":"Population ages 15-64, male (% of male population)"},"country":{"id":"1A","value":"Arab World"},"countryiso3code":"ARB","date":"2016","value":63.4939121629605,"unit":"","obs_status":"","decimal":0},{"indicator":{"id":"SP.POP.1564.MA.ZS","value":"Population ages 15-64, male (% of male population)"},"country":{"id":"1A","value":"Arab World"},"countryiso3code":"ARB","date":"2015","value":63.5402357536384,"unit":"","obs_status":"","decimal":0},{"indicator":{"id":"SP.POP.1564.MA.ZS","value":"Population ages 15-64, male (% of male population)"},"country":{"id":"1A","value":"Arab World"},"countryiso3code":"ARB","date":"2014","value":63.4710162494452,"unit":"","obs_status":"","decimal":0},{"indicator":{"id":"SP.POP.1564.MA.ZS","value":"Population ages 15-64, male (% of male population)"},"country":{"id":"1A","value":"Arab World"},"countryiso3code":"ARB","date":"2013","value":63.3933834097354,"unit":"","obs_status":"","decimal":0},{"indicator":{"id":"SP.POP.1564.MA.ZS","value":"Population ages 15-64, male (% of male population)"},"country":{"id":"1A","value":"Arab World"},"countryiso3code":"ARB","date":"2012","value":63.2842130672398,"unit":"","obs_status":"","decimal":0},{"indicator":{"id":"SP.POP.1564.MA.ZS","value":"Population ages 15-64, male (% of male population)"},"country":{"id":"1A","value":"Arab World"},"countryiso3code":"ARB","date":"2011","value":63.1151557912049,"unit":"","obs_status":"","decimal":0},{"indicator":{"id":"SP.POP.1564.MA.ZS","value":"Population ages 15-64, male (% of male population)"},"country":{"id":"1A","value":"Arab World"},"countryiso3code":"ARB","date":"2010","value":62.8729538304305,"unit":"","obs_status":"","decimal":0},{"indicator":{"id":"SP.POP.1564.MA.ZS","value":"Population ages 15-64, male (% of male population)"},"country":{"id":"1A","value":"Arab World"},"countryiso3code":"ARB","date":"2009","value":62.5490176541784,"unit":"","obs_status":"","decimal":0},{"indicator":{"id":"SP.POP.1564.MA.ZS","value":"Population ages 15-64, male (% of male population)"},"country":{"id":"1A","value":"Arab World"},"countryiso3code":"ARB","date":"2008","value":62.1365941568081,"unit":"","obs_status":"","decimal":0},{"indicator":{"id":"SP.POP.1564.MA.ZS","value":"Population ages 15-64, male (% of male population)"},"country":{"id":"1A","value":"Arab World"},"countryiso3code":"ARB","date":"2007","value":61.6490159855985,"unit":"","obs_status":"","decimal":0},{"indicator":{"id":"SP.POP.1564.MA.ZS","value":"Population ages 15-64, male (% of male population)"},"country":{"id":"1A","value":"Arab World"},"countryiso3code":"ARB","date":"2006","value":61.1158288696909,"unit":"","obs_status":"","decimal":0},{"indicator":{"id":"SP.POP.1564.MA.ZS","value":"Population ages 15-64, male (% of male population)"},"country":{"id":"1A","value":"Arab World"},"countryiso3code":"ARB","date":"2005","value":60.5678378887026,"unit":"","obs_status":"","decimal":0},{"indicator":{"id":"SP.POP.1564.MA.ZS","value":"Population ages 15-64, male (% of male population)"},"country":{"id":"1A","value":"Arab World"},"countryiso3code":"ARB","date":"2004","value":60.024318808688,"unit":"","obs_status":"","decimal":0},{"indicator":{"id":"SP.POP.1564.MA.ZS","value":"Population ages 15-64, male (% of male population)"},"country":{"id":"1A","value":"Arab World"},"countryiso3code":"ARB","date":"2003","value":59.4722553213988,"unit":"","obs_status":"","decimal":0},{"indicator":{"id":"SP.POP.1564.MA.ZS","value":"Population ages 15-64, male (% of male population)"},"country":{"id":"1A","value":"Arab World"},"countryiso3code":"ARB","date":"2002","value":58.9195688369659,"unit":"","obs_status":"","decimal":0},{"indicator":{"id":"SP.POP.1564.MA.ZS","value":"Population ages 15-64, male (% of male population)"},"country":{"id":"1A","value":"Arab World"},"countryiso3code":"ARB","date":"2001","value":58.3720503793775,"unit":"","obs_status":"","decimal":0},{"indicator":{"id":"SP.POP.1564.MA.ZS","value":"Population ages 15-64, male (% of male population)"},"country":{"id":"1A","value":"Arab World"},"countryiso3code":"ARB","date":"2000","value":57.835159657918,"unit":"","obs_status":"","decimal":0},{"indicator":{"id":"SP.POP.1564.MA.ZS","value":"Population ages 15-64, male (% of male population)"},"country":{"id":"1A","value":"Arab World"},"countryiso3code":"ARB","date":"1999","value":57.37059997554,"unit":"","obs_status":"","decimal":0},{"indicator":{"id":"SP.POP.1564.MA.ZS","value":"Population ages 15-64, male (% of male population)"},"country":{"id":"1A","value":"Arab World"},"countryiso3code":"ARB","date":"1998","value":56.919395634826,"unit":"","obs_status":"","decimal":0},{"indicator":{"id":"SP.POP.1564.MA.ZS","value":"Population ages 15-64, male (% of male population)"},"country":{"id":"1A","value":"Arab World"},"countryiso3code":"ARB","date":"1997","value":56.4796086253518,"unit":"","obs_status":"","decimal":0},{"indicator":{"id":"SP.POP.1564.MA.ZS","value":"Population ages 15-64, male (% of male population)"},"country":{"id":"1A","value":"Arab World"},"countryiso3code":"ARB","date":"1996","value":56.0584374618738,"unit":"","obs_status":"","decimal":0},{"indicator":{"id":"SP.POP.1564.MA.ZS","value":"Population ages 15-64, male (% of male population)"},"country":{"id":"1A","value":"Arab World"},"countryiso3code":"ARB","date":"1995","value":55.668651585213,"unit":"","obs_status":"","decimal":0},{"indicator":{"id":"SP.POP.1564.MA.ZS","value":"Population ages 15-64, male (% of male population)"},"country":{"id":"1A","value":"Arab World"},"countryiso3code":"ARB","date":"1994","value":55.1159314838312,"unit":"","obs_status":"","decimal":0},{"indicator":{"id":"SP.POP.1564.MA.ZS","value":"Population ages 15-64, male (% of male population)"},"country":{"id":"1A","value":"Arab World"},"countryiso3code":"ARB","date":"1993","value":54.7205529315932,"unit":"","obs_status":"","decimal":0},{"indicator":{"id":"SP.POP.1564.MA.ZS","value":"Population ages 15-64, male (% of male population)"},"country":{"id":"1A","value":"Arab World"},"countryiso3code":"ARB","date":"1992","value":54.375114535939,"unit":"","obs_status":"","decimal":0},{"indicator":{"id":"SP.POP.1564.MA.ZS","value":"Population ages 15-64, male (% of male population)"},"country":{"id":"1A","value":"Arab World"},"countryiso3code":"ARB","date":"1991","value":54.225065688758,"unit":"","obs_status":"","decimal":0},{"indicator":{"id":"SP.POP.1564.MA.ZS","value":"Population ages 15-64, male (% of male population)"},"country":{"id":"1A","value":"Arab World"},"countryiso3code":"ARB","date":"1990","value":53.9779212819341,"unit":"","obs_status":"","decimal":0},{"indicator":{"id":"SP.POP.1564.MA.ZS","value":"Population ages 15-64, male (% of male population)"},"country":{"id":"1A","value":"Arab World"},"countryiso3code":"ARB","date":"1989","value":53.7886805346512,"unit":"","obs_status":"","decimal":0},{"indicator":{"id":"SP.POP.1564.MA.ZS","value":"Population ages 15-64, male (% of male population)"},"country":{"id":"1A","value":"Arab World"},"countryiso3code":"ARB","date":"1988","value":53.5894246808257,"unit":"","obs_status":"","decimal":0},{"indicator":{"id":"SP.POP.1564.MA.ZS","value":"Population ages 15-64, male (% of male population)"},"country":{"id":"1A","value":"Arab World"},"countryiso3code":"ARB","date":"1987","value":53.4128112845809,"unit":"","obs_status":"","decimal":0},{"indicator":{"id":"SP.POP.1564.MA.ZS","value":"Population ages 15-64, male (% of male population)"},"country":{"id":"1A","value":"Arab World"},"countryiso3code":"ARB","date":"1986","value":53.2622485962144,"unit":"","obs_status":"","decimal":0},{"indicator":{"id":"SP.POP.1564.MA.ZS","value":"Population ages 15-64, male (% of male population)"},"country":{"id":"1A","value":"Arab World"},"countryiso3code":"ARB","date":"1985","value":53.1549253797855,"unit":"","obs_status":"","decimal":0},{"indicator":{"id":"SP.POP.1564.MA.ZS","value":"Population ages 15-64, male (% of male population)"},"country":{"id":"1A","value":"Arab World"},"countryiso3code":"ARB","date":"1984","value":52.9530014782891,"unit":"","obs_status":"","decimal":0},{"indicator":{"id":"SP.POP.1564.MA.ZS","value":"Population ages 15-64, male (% of male population)"},"country":{"id":"1A","value":"Arab World"},"countryiso3code":"ARB","date":"1983","value":52.7656029715018,"unit":"","obs_status":"","decimal":0},{"indicator":{"id":"SP.POP.1564.MA.ZS","value":"Population ages 15-64, male (% of male population)"},"country":{"id":"1A","value":"Arab World"},"countryiso3code":"ARB","date":"1982","value":52.5970838879519,"unit":"","obs_status":"","decimal":0},{"indicator":{"id":"SP.POP.1564.MA.ZS","value":"Population ages 15-64, male (% of male population)"},"country":{"id":"1A","value":"Arab World"},"countryiso3code":"ARB","date":"1981","value":52.4555472762674,"unit":"","obs_status":"","decimal":0},{"indicator":{"id":"SP.POP.1564.MA.ZS","value":"Population ages 15-64, male (% of male population)"},"country":{"id":"1A","value":"Arab World"},"countryiso3code":"ARB","date":"1980","value":52.3469739754686,"unit":"","obs_status":"","decimal":0},{"indicator":{"id":"SP.POP.1564.MA.ZS","value":"Population ages 15-64, male (% of male population)"},"country":{"id":"1A","value":"Arab World"},"countryiso3code":"ARB","date":"1979","value":52.1549427910441,"unit":"","obs_status":"","decimal":0},{"indicator":{"id":"SP.POP.1564.MA.ZS","value":"Population ages 15-64, male (% of male population)"},"country":{"id":"1A","value":"Arab World"},"countryiso3code":"ARB","date":"1978","value":51.985749686069,"unit":"","obs_status":"","decimal":0},{"indicator":{"id":"SP.POP.1564.MA.ZS","value":"Population ages 15-64, male (% of male population)"},"country":{"id":"1A","value":"Arab World"},"countryiso3code":"ARB","date":"1977","value":51.836473791857,"unit":"","obs_status":"","decimal":0},{"indicator":{"id":"SP.POP.1564.MA.ZS","value":"Population ages 15-64, male (% of male population)"},"country":{"id":"1A","value":"Arab World"},"countryiso3code":"ARB","date":"1976","value":51.7046373905381,"unit":"","obs_status":"","decimal":0},{"indicator":{"id":"SP.POP.1564.MA.ZS","value":"Population ages 15-64, male (% of male population)"},"country":{"id":"1A","value":"Arab World"},"countryiso3code":"ARB","date":"1975","value":51.5958849673161,"unit":"","obs_status":"","decimal":0},{"indicator":{"id":"SP.POP.1564.MA.ZS","value":"Population ages 15-64, male (% of male population)"},"country":{"id":"1A","value":"Arab World"},"countryiso3code":"ARB","date":"1974","value":51.4732067210689,"unit":"","obs_status":"","decimal":0},{"indicator":{"id":"SP.POP.1564.MA.ZS","value":"Population ages 15-64, male (% of male population)"},"country":{"id":"1A","value":"Arab World"},"countryiso3code":"ARB","date":"1973","value":51.3709601503758,"unit":"","obs_status":"","decimal":0},{"indicator":{"id":"SP.POP.1564.MA.ZS","value":"Population ages 15-64, male (% of male population)"},"country":{"id":"1A","value":"Arab World"},"countryiso3code":"ARB","date":"1972","value":51.3057839335442,"unit":"","obs_status":"","decimal":0},{"indicator":{"id":"SP.POP.1564.MA.ZS","value":"Population ages 15-64, male (% of male population)"},"country":{"id":"1A","value":"Arab World"},"countryiso3code":"ARB","date":"1971","value":51.2948219390542,"unit":"","obs_status":"","decimal":0},{"indicator":{"id":"SP.POP.1564.MA.ZS","value":"Population ages 15-64, male (% of male population)"},"country":{"id":"1A","value":"Arab World"},"countryiso3code":"ARB","date":"1970","value":51.3528709201188,"unit":"","obs_status":"","decimal":0}]]