[{"page":1,"pages":317,"per_page":50,"total":15840,"sourceid":"2","lastupdated":"2020-03-18"},[{"indicator":{"id":"SP.POP.65UP.TO.ZS","value":"Population ages 65 and above (% of total population)"},"country":{"id":"1A","value":"Arab World"},"countryiso3code":"ARB","date":"2019","value":null,"unit":"","obs_status":"","decimal":0},{"indicator":{"id":"SP.POP.65UP.TO.ZS","value":"Population ages 65 and above (% of total population)"},"country":{"id":"1A","value":"Arab World"},"countryiso3code":"ARB","date":"2018","value":4.55787642361103,"unit":"","obs_status":"","decimal":0},{"indicator":{"id":"SP.POP.65UP.TO.ZS","value":"Population ages 65 and above (% of total population)"},"country":{"id":"1A","value":"Arab World"},"countryiso3code":"ARB","date":"2017","value":4.46155951164889,"unit":"","obs_status":"","decimal":0},{"indicator":{"id":"SP.POP.65UP.TO.ZS","value":"Population ages 65 and above (% of total population)"},"country":{"id":"1A","value":"Arab World"},"countryiso3code":"ARB","date":"2016","value":4.37455894237797,"unit":"","obs_status":"","decimal":0},{"indicator":{"id":"SP.POP.65UP.TO.ZS","value":"Population ages 65 and above (% of total population)"},"country":{"id":"1A","value":"Arab World"},"countryiso3code":"ARB","date":"2015","value":4.30104727267074,"unit":"","obs_status":"","decimal":0},{"indicator":{"id":"SP.POP.65UP.TO.ZS","value":"Population ages 65 and above (% of total population)"},"country":{"id":"1A","value":"Arab World"},"countryiso3code":"ARB","date":"2014","value":4.24490647926923,"unit":"","obs_status":"","decimal":0},{"indicator":{"id":"SP.POP.65UP.TO.ZS","value":"Population ages 65 and above (% of total population)"},"country":{"id":"1A","value":"Arab World"},"countryiso3code":"ARB","date":"2013","value":4.20419767059679,"unit":"","obs_status":"","decimal":0},{"indicator":{"id":"SP.POP.65UP.TO.ZS","value":"Population ages 65 and above (% of total population)"},"country":{"id":"1A","value":"Arab World"},"countryiso3code":"ARB","date":"2012","value":4.17525109995385,"unit":"","obs_status":"","decimal":0},{"indicator":{"id":"SP.POP.65UP.TO.ZS","value":"Population ages 65 and above (% of total population)"},"country":{"id":"1A","value":"Arab World"},"countryiso3code":"ARB","date":"2011","value":4.1526974323495,"unit":"","obs_status":"","decimal":0},{"indicator":{"id":"SP.POP.65UP.TO.ZS","value":"Population ages 65 and above (% of total population)"},"country":{"id":"1A","value":"Arab World"},"countryiso3code":"ARB","date":"2010","value":4.13305127320425,"unit":"","obs_status":"","decimal":0},{"indicator":{"id":"SP.POP.65UP.TO.ZS","value":"Population ages 65 and above (% of total population)"},"country":{"id":"1A","value":"Arab World"},"countryiso3code":"ARB","date":"2009","value":4.12342204258041,"unit":"","obs_status":"","decimal":0},{"indicator":{"id":"SP.POP.65UP.TO.ZS","value":"Population ages 65 and above (% of total population)"},"country":{"id":"1A","value":"Arab World"},"countryiso3code":"ARB","date":"2008","value":4.12129700032303,"unit":"","obs_status":"","decimal":0},{"indicator":{"id":"SP.POP.65UP.TO.ZS","value":"Population ages 65 and above (% of total population)"},"country":{"id":"1A","value":"Arab World"},"countryiso3code":"ARB","date":"2007","value":4.12261954269276,"unit":"","obs_status":"","decimal":0},{"indicator":{"id":"SP.POP.65UP.TO.ZS","value":"Population ages 65 and above (% of total population)"},"country":{"id":"1A","value":"Arab World"},"countryiso3code":"ARB","date":"2006","value":4.12140590907177,"unit":"","obs_status":"","decimal":0},{"indicator":{"id":"SP.POP.65UP.TO.ZS","value":"Population ages 65 and above (% of total population)"},"country":{"id":"1A","value":"Arab World"},"countryiso3code":"ARB","date":"2005","value":4.1124476219361,"unit":"","obs_status":"","decimal":0},{"indicator":{"id":"SP.POP.65UP.TO.ZS","value":"Population ages 65 and above (% of total population)"},"country":{"id":"1A","value":"Arab World"},"countryiso3code":"ARB","date":"2004","value":4.10522579864347,"unit":"","obs_status":"","decimal":0},{"indicator":{"id":"SP.POP.65UP.TO.ZS","value":"Population ages 65 and above (% of total population)"},"country":{"id":"1A","value":"Arab World"},"countryiso3code":"ARB","date":"2003","value":4.09157754124186,"unit":"","obs_status":"","decimal":0},{"indicator":{"id":"SP.POP.65UP.TO.ZS","value":"Population ages 65 and above (% of total population)"},"country":{"id":"1A","value":"Arab World"},"countryiso3code":"ARB","date":"2002","value":4.07143899409348,"unit":"","obs_status":"","decimal":0},{"indicator":{"id":"SP.POP.65UP.TO.ZS","value":"Population ages 65 and above (% of total population)"},"country":{"id":"1A","value":"Arab World"},"countryiso3code":"ARB","date":"2001","value":4.0467131940418,"unit":"","obs_status":"","decimal":0},{"indicator":{"id":"SP.POP.65UP.TO.ZS","value":"Population ages 65 and above (% of total population)"},"country":{"id":"1A","value":"Arab World"},"countryiso3code":"ARB","date":"2000","value":4.01808502466221,"unit":"","obs_status":"","decimal":0},{"indicator":{"id":"SP.POP.65UP.TO.ZS","value":"Population ages 65 and above (% of total population)"},"country":{"id":"1A","value":"Arab World"},"countryiso3code":"ARB","date":"1999","value":3.98529535018246,"unit":"","obs_status":"","decimal":0},{"indicator":{"id":"SP.POP.65UP.TO.ZS","value":"Population ages 65 and above (% of total population)"},"country":{"id":"1A","value":"Arab World"},"countryiso3code":"ARB","date":"1998","value":3.94910504936305,"unit":"","obs_status":"","decimal":0},{"indicator":{"id":"SP.POP.65UP.TO.ZS","value":"Population ages 65 and above (% of total population)"},"country":{"id":"1A","value":"Arab World"},"countryiso3code":"ARB","date":"1997","value":3.90949641941914,"unit":"","obs_status":"","decimal":0},{"indicator":{"id":"SP.POP.65UP.TO.ZS","value":"Population ages 65 and above (% of total population)"},"country":{"id":"1A","value":"Arab World"},"countryiso3code":"ARB","date":"1996","value":3.86714384412408,"unit":"","obs_status":"","decimal":0},{"indicator":{"id":"SP.POP.65UP.TO.ZS","value":"Population ages 65 and above (% of total population)"},"country":{"id":"1A","value":"Arab World"},"countryiso3code":"ARB","date":"1995","value":3.82149868976126,"unit":"","obs_status":"","decimal":0},{"indicator":{"id":"SP.POP.65UP.TO.ZS","value":"Population ages 65 and above (% of total population)"},"country":{"id":"1A","value":"Arab World"},"countryiso3code":"ARB","date":"1994","value":3.79442829235546,"unit":"","obs_status":"","decimal":0},{"indicator":{"id":"SP.POP.65UP.TO.ZS","value":"Population ages 65 and above (% of total population)"},"country":{"id":"1A","value":"Arab World"},"countryiso3code":"ARB","date":"1993","value":3.75434775843425,"unit":"","obs_status":"","decimal":0},{"indicator":{"id":"SP.POP.65UP.TO.ZS","value":"Population ages 65 and above (% of total population)"},"country":{"id":"1A","value":"Arab World"},"countryiso3code":"ARB","date":"1992","value":3.71629153649115,"unit":"","obs_status":"","decimal":0},{"indicator":{"id":"SP.POP.65UP.TO.ZS","value":"Population ages 65 and above (% of total population)"},"country":{"id":"1A","value":"Arab World"},"countryiso3code":"ARB","date":"1991","value":3.65945699357465,"unit":"","obs_status":"","decimal":0},{"indicator":{"id":"SP.POP.65UP.TO.ZS","value":"Population ages 65 and above (% of total population)"},"country":{"id":"1A","value":"Arab World"},"countryiso3code":"ARB","date":"1990","value":3.62189743494236,"unit":"","obs_status":"","decimal":0},{"indicator":{"id":"SP.POP.65UP.TO.ZS","value":"Population ages 65 and above (% of total population)"},"country":{"id":"1A","value":"Arab World"},"countryiso3code":"ARB","date":"1989","value":3.61493014541245,"unit":"","obs_status":"","decimal":0},{"indicator":{"id":"SP.POP.65UP.TO.ZS","value":"Population ages 65 and above (% of total population)"},"country":{"id":"1A","value":"Arab World"},"countryiso3code":"ARB","date":"1988","value":3.5995621842155,"unit":"","obs_status":"","decimal":0},{"indicator":{"id":"SP.POP.65UP.TO.ZS","value":"Population ages 65 and above (% of total population)"},"country":{"id":"1A","value":"Arab World"},"countryiso3code":"ARB","date":"1987","value":3.58842900295167,"unit":"","obs_status":"","decimal":0},{"indicator":{"id":"SP.POP.65UP.TO.ZS","value":"Population ages 65 and above (% of total population)"},"country":{"id":"1A","value":"Arab World"},"countryiso3code":"ARB","date":"1986","value":3.58038234696666,"unit":"","obs_status":"","decimal":0},{"indicator":{"id":"SP.POP.65UP.TO.ZS","value":"Population ages 65 and above (% of total population)"},"country":{"id":"1A","value":"Arab World"},"countryiso3code":"ARB","date":"1985","value":3.57417175553952,"unit":"","obs_status":"","decimal":0},{"indicator":{"id":"SP.POP.65UP.TO.ZS","value":"Population ages 65 and above (% of total population)"},"country":{"id":"1A","value":"Arab World"},"countryiso3code":"ARB","date":"1984","value":3.58101597973568,"unit":"","obs_status":"","decimal":0},{"indicator":{"id":"SP.POP.65UP.TO.ZS","value":"Population ages 65 and above (% of total population)"},"country":{"id":"1A","value":"Arab World"},"countryiso3code":"ARB","date":"1983","value":3.59004196181937,"unit":"","obs_status":"","decimal":0},{"indicator":{"id":"SP.POP.65UP.TO.ZS","value":"Population ages 65 and above (% of total population)"},"country":{"id":"1A","value":"Arab World"},"countryiso3code":"ARB","date":"1982","value":3.59976379083335,"unit":"","obs_status":"","decimal":0},{"indicator":{"id":"SP.POP.65UP.TO.ZS","value":"Population ages 65 and above (% of total population)"},"country":{"id":"1A","value":"Arab World"},"countryiso3code":"ARB","date":"1981","value":3.60865604188555,"unit":"","obs_status":"","decimal":0},{"indicator":{"id":"SP.POP.65UP.TO.ZS","value":"Population ages 65 and above (% of total population)"},"country":{"id":"1A","value":"Arab World"},"countryiso3code":"ARB","date":"1980","value":3.61527467467085,"unit":"","obs_status":"","decimal":0},{"indicator":{"id":"SP.POP.65UP.TO.ZS","value":"Population ages 65 and above (% of total population)"},"country":{"id":"1A","value":"Arab World"},"countryiso3code":"ARB","date":"1979","value":3.6331808871117,"unit":"","obs_status":"","decimal":0},{"indicator":{"id":"SP.POP.65UP.TO.ZS","value":"Population ages 65 and above (% of total population)"},"country":{"id":"1A","value":"Arab World"},"countryiso3code":"ARB","date":"1978","value":3.65177736137564,"unit":"","obs_status":"","decimal":0},{"indicator":{"id":"SP.POP.65UP.TO.ZS","value":"Population ages 65 and above (% of total population)"},"country":{"id":"1A","value":"Arab World"},"countryiso3code":"ARB","date":"1977","value":3.66857979830787,"unit":"","obs_status":"","decimal":0},{"indicator":{"id":"SP.POP.65UP.TO.ZS","value":"Population ages 65 and above (% of total population)"},"country":{"id":"1A","value":"Arab World"},"countryiso3code":"ARB","date":"1976","value":3.67993587518311,"unit":"","obs_status":"","decimal":0},{"indicator":{"id":"SP.POP.65UP.TO.ZS","value":"Population ages 65 and above (% of total population)"},"country":{"id":"1A","value":"Arab World"},"countryiso3code":"ARB","date":"1975","value":3.68274143031142,"unit":"","obs_status":"","decimal":0},{"indicator":{"id":"SP.POP.65UP.TO.ZS","value":"Population ages 65 and above (% of total population)"},"country":{"id":"1A","value":"Arab World"},"countryiso3code":"ARB","date":"1974","value":3.69043096101122,"unit":"","obs_status":"","decimal":0},{"indicator":{"id":"SP.POP.65UP.TO.ZS","value":"Population ages 65 and above (% of total population)"},"country":{"id":"1A","value":"Arab World"},"countryiso3code":"ARB","date":"1973","value":3.68911933658521,"unit":"","obs_status":"","decimal":0},{"indicator":{"id":"SP.POP.65UP.TO.ZS","value":"Population ages 65 and above (% of total population)"},"country":{"id":"1A","value":"Arab World"},"countryiso3code":"ARB","date":"1972","value":3.67966997248978,"unit":"","obs_status":"","decimal":0},{"indicator":{"id":"SP.POP.65UP.TO.ZS","value":"Population ages 65 and above (% of total population)"},"country":{"id":"1A","value":"Arab World"},"countryiso3code":"ARB","date":"1971","value":3.66512710907532,"unit":"","obs_status":"","decimal":0},{"indicator":{"id":"SP.POP.65UP.TO.ZS","value":"Population ages 65 and above (% of total population)"},"country":{"id":"1A","value":"Arab World"},"countryiso3code":"ARB","date":"1970","value":3.64762186677987,"unit":"","obs_status":"","decimal":0}]]