[{"page":1,"pages":317,"per_page":50,"total":15840,"sourceid":"2","lastupdated":"2020-03-18"},[{"indicator":{"id":"SP.POP.1564.TO.ZS","value":"Population ages 15-64 (% of total population)"},"country":{"id":"1A","value":"Arab World"},"countryiso3code":"ARB","date":"2019","value":null,"unit":"","obs_status":"","decimal":0},{"indicator":{"id":"SP.POP.1564.TO.ZS","value":"Population ages 15-64 (% of total population)"},"country":{"id":"1A","value":"Arab World"},"countryiso3code":"ARB","date":"2018","value":62.6616873953689,"unit":"","obs_status":"","decimal":0},{"indicator":{"id":"SP.POP.1564.TO.ZS","value":"Population ages 15-64 (% of total population)"},"country":{"id":"1A","value":"Arab World"},"countryiso3code":"ARB","date":"2017","value":62.6496277437421,"unit":"","obs_status":"","decimal":0},{"indicator":{"id":"SP.POP.1564.TO.ZS","value":"Population ages 15-64 (% of total population)"},"country":{"id":"1A","value":"Arab World"},"countryiso3code":"ARB","date":"2016","value":62.6594558750604,"unit":"","obs_status":"","decimal":0},{"indicator":{"id":"SP.POP.1564.TO.ZS","value":"Population ages 15-64 (% of total population)"},"country":{"id":"1A","value":"Arab World"},"countryiso3code":"ARB","date":"2015","value":62.714050957459,"unit":"","obs_status":"","decimal":0},{"indicator":{"id":"SP.POP.1564.TO.ZS","value":"Population ages 15-64 (% of total population)"},"country":{"id":"1A","value":"Arab World"},"countryiso3code":"ARB","date":"2014","value":62.6416126863067,"unit":"","obs_status":"","decimal":0},{"indicator":{"id":"SP.POP.1564.TO.ZS","value":"Population ages 15-64 (% of total population)"},"country":{"id":"1A","value":"Arab World"},"countryiso3code":"ARB","date":"2013","value":62.5559264634081,"unit":"","obs_status":"","decimal":0},{"indicator":{"id":"SP.POP.1564.TO.ZS","value":"Population ages 15-64 (% of total population)"},"country":{"id":"1A","value":"Arab World"},"countryiso3code":"ARB","date":"2012","value":62.4394251887773,"unit":"","obs_status":"","decimal":0},{"indicator":{"id":"SP.POP.1564.TO.ZS","value":"Population ages 15-64 (% of total population)"},"country":{"id":"1A","value":"Arab World"},"countryiso3code":"ARB","date":"2011","value":62.2712064777934,"unit":"","obs_status":"","decimal":0},{"indicator":{"id":"SP.POP.1564.TO.ZS","value":"Population ages 15-64 (% of total population)"},"country":{"id":"1A","value":"Arab World"},"countryiso3code":"ARB","date":"2010","value":62.0426845921218,"unit":"","obs_status":"","decimal":0},{"indicator":{"id":"SP.POP.1564.TO.ZS","value":"Population ages 15-64 (% of total population)"},"country":{"id":"1A","value":"Arab World"},"countryiso3code":"ARB","date":"2009","value":61.7572971448342,"unit":"","obs_status":"","decimal":0},{"indicator":{"id":"SP.POP.1564.TO.ZS","value":"Population ages 15-64 (% of total population)"},"country":{"id":"1A","value":"Arab World"},"countryiso3code":"ARB","date":"2008","value":61.4037728109325,"unit":"","obs_status":"","decimal":0},{"indicator":{"id":"SP.POP.1564.TO.ZS","value":"Population ages 15-64 (% of total population)"},"country":{"id":"1A","value":"Arab World"},"countryiso3code":"ARB","date":"2007","value":60.9894837719875,"unit":"","obs_status":"","decimal":0},{"indicator":{"id":"SP.POP.1564.TO.ZS","value":"Population ages 15-64 (% of total population)"},"country":{"id":"1A","value":"Arab World"},"countryiso3code":"ARB","date":"2006","value":60.5309407190183,"unit":"","obs_status":"","decimal":0},{"indicator":{"id":"SP.POP.1564.TO.ZS","value":"Population ages 15-64 (% of total population)"},"country":{"id":"1A","value":"Arab World"},"countryiso3code":"ARB","date":"2005","value":60.0466227616084,"unit":"","obs_status":"","decimal":0},{"indicator":{"id":"SP.POP.1564.TO.ZS","value":"Population ages 15-64 (% of total population)"},"country":{"id":"1A","value":"Arab World"},"countryiso3code":"ARB","date":"2004","value":59.5567119384107,"unit":"","obs_status":"","decimal":0},{"indicator":{"id":"SP.POP.1564.TO.ZS","value":"Population ages 15-64 (% of total population)"},"country":{"id":"1A","value":"Arab World"},"countryiso3code":"ARB","date":"2003","value":59.0470818575918,"unit":"","obs_status":"","decimal":0},{"indicator":{"id":"SP.POP.1564.TO.ZS","value":"Population ages 15-64 (% of total population)"},"country":{"id":"1A","value":"Arab World"},"countryiso3code":"ARB","date":"2002","value":58.5282943602738,"unit":"","obs_status":"","decimal":0},{"indicator":{"id":"SP.POP.1564.TO.ZS","value":"Population ages 15-64 (% of total population)"},"country":{"id":"1A","value":"Arab World"},"countryiso3code":"ARB","date":"2001","value":58.0118451600127,"unit":"","obs_status":"","decimal":0},{"indicator":{"id":"SP.POP.1564.TO.ZS","value":"Population ages 15-64 (% of total population)"},"country":{"id":"1A","value":"Arab World"},"countryiso3code":"ARB","date":"2000","value":57.5070341846961,"unit":"","obs_status":"","decimal":0},{"indicator":{"id":"SP.POP.1564.TO.ZS","value":"Population ages 15-64 (% of total population)"},"country":{"id":"1A","value":"Arab World"},"countryiso3code":"ARB","date":"1999","value":57.029616165854,"unit":"","obs_status":"","decimal":0},{"indicator":{"id":"SP.POP.1564.TO.ZS","value":"Population ages 15-64 (% of total population)"},"country":{"id":"1A","value":"Arab World"},"countryiso3code":"ARB","date":"1998","value":56.5628008529237,"unit":"","obs_status":"","decimal":0},{"indicator":{"id":"SP.POP.1564.TO.ZS","value":"Population ages 15-64 (% of total population)"},"country":{"id":"1A","value":"Arab World"},"countryiso3code":"ARB","date":"1997","value":56.1064373597463,"unit":"","obs_status":"","decimal":0},{"indicator":{"id":"SP.POP.1564.TO.ZS","value":"Population ages 15-64 (% of total population)"},"country":{"id":"1A","value":"Arab World"},"countryiso3code":"ARB","date":"1996","value":55.667448963287,"unit":"","obs_status":"","decimal":0},{"indicator":{"id":"SP.POP.1564.TO.ZS","value":"Population ages 15-64 (% of total population)"},"country":{"id":"1A","value":"Arab World"},"countryiso3code":"ARB","date":"1995","value":55.2569842715494,"unit":"","obs_status":"","decimal":0},{"indicator":{"id":"SP.POP.1564.TO.ZS","value":"Population ages 15-64 (% of total population)"},"country":{"id":"1A","value":"Arab World"},"countryiso3code":"ARB","date":"1994","value":54.7435898353446,"unit":"","obs_status":"","decimal":0},{"indicator":{"id":"SP.POP.1564.TO.ZS","value":"Population ages 15-64 (% of total population)"},"country":{"id":"1A","value":"Arab World"},"countryiso3code":"ARB","date":"1993","value":54.3542115357791,"unit":"","obs_status":"","decimal":0},{"indicator":{"id":"SP.POP.1564.TO.ZS","value":"Population ages 15-64 (% of total population)"},"country":{"id":"1A","value":"Arab World"},"countryiso3code":"ARB","date":"1992","value":54.0147402463903,"unit":"","obs_status":"","decimal":0},{"indicator":{"id":"SP.POP.1564.TO.ZS","value":"Population ages 15-64 (% of total population)"},"country":{"id":"1A","value":"Arab World"},"countryiso3code":"ARB","date":"1991","value":53.8266742796665,"unit":"","obs_status":"","decimal":0},{"indicator":{"id":"SP.POP.1564.TO.ZS","value":"Population ages 15-64 (% of total population)"},"country":{"id":"1A","value":"Arab World"},"countryiso3code":"ARB","date":"1990","value":53.5864850437113,"unit":"","obs_status":"","decimal":0},{"indicator":{"id":"SP.POP.1564.TO.ZS","value":"Population ages 15-64 (% of total population)"},"country":{"id":"1A","value":"Arab World"},"countryiso3code":"ARB","date":"1989","value":53.4129073376385,"unit":"","obs_status":"","decimal":0},{"indicator":{"id":"SP.POP.1564.TO.ZS","value":"Population ages 15-64 (% of total population)"},"country":{"id":"1A","value":"Arab World"},"countryiso3code":"ARB","date":"1988","value":53.2380531844555,"unit":"","obs_status":"","decimal":0},{"indicator":{"id":"SP.POP.1564.TO.ZS","value":"Population ages 15-64 (% of total population)"},"country":{"id":"1A","value":"Arab World"},"countryiso3code":"ARB","date":"1987","value":53.0910507405297,"unit":"","obs_status":"","decimal":0},{"indicator":{"id":"SP.POP.1564.TO.ZS","value":"Population ages 15-64 (% of total population)"},"country":{"id":"1A","value":"Arab World"},"countryiso3code":"ARB","date":"1986","value":52.972536348295,"unit":"","obs_status":"","decimal":0},{"indicator":{"id":"SP.POP.1564.TO.ZS","value":"Population ages 15-64 (% of total population)"},"country":{"id":"1A","value":"Arab World"},"countryiso3code":"ARB","date":"1985","value":52.894714280457,"unit":"","obs_status":"","decimal":0},{"indicator":{"id":"SP.POP.1564.TO.ZS","value":"Population ages 15-64 (% of total population)"},"country":{"id":"1A","value":"Arab World"},"countryiso3code":"ARB","date":"1984","value":52.7105282516133,"unit":"","obs_status":"","decimal":0},{"indicator":{"id":"SP.POP.1564.TO.ZS","value":"Population ages 15-64 (% of total population)"},"country":{"id":"1A","value":"Arab World"},"countryiso3code":"ARB","date":"1983","value":52.5410568632856,"unit":"","obs_status":"","decimal":0},{"indicator":{"id":"SP.POP.1564.TO.ZS","value":"Population ages 15-64 (% of total population)"},"country":{"id":"1A","value":"Arab World"},"countryiso3code":"ARB","date":"1982","value":52.3908238069447,"unit":"","obs_status":"","decimal":0},{"indicator":{"id":"SP.POP.1564.TO.ZS","value":"Population ages 15-64 (% of total population)"},"country":{"id":"1A","value":"Arab World"},"countryiso3code":"ARB","date":"1981","value":52.2689203449256,"unit":"","obs_status":"","decimal":0},{"indicator":{"id":"SP.POP.1564.TO.ZS","value":"Population ages 15-64 (% of total population)"},"country":{"id":"1A","value":"Arab World"},"countryiso3code":"ARB","date":"1980","value":52.1832850998735,"unit":"","obs_status":"","decimal":0},{"indicator":{"id":"SP.POP.1564.TO.ZS","value":"Population ages 15-64 (% of total population)"},"country":{"id":"1A","value":"Arab World"},"countryiso3code":"ARB","date":"1979","value":52.0322512416769,"unit":"","obs_status":"","decimal":0},{"indicator":{"id":"SP.POP.1564.TO.ZS","value":"Population ages 15-64 (% of total population)"},"country":{"id":"1A","value":"Arab World"},"countryiso3code":"ARB","date":"1978","value":51.908074154908,"unit":"","obs_status":"","decimal":0},{"indicator":{"id":"SP.POP.1564.TO.ZS","value":"Population ages 15-64 (% of total population)"},"country":{"id":"1A","value":"Arab World"},"countryiso3code":"ARB","date":"1977","value":51.8086412567671,"unit":"","obs_status":"","decimal":0},{"indicator":{"id":"SP.POP.1564.TO.ZS","value":"Population ages 15-64 (% of total population)"},"country":{"id":"1A","value":"Arab World"},"countryiso3code":"ARB","date":"1976","value":51.7318568568586,"unit":"","obs_status":"","decimal":0},{"indicator":{"id":"SP.POP.1564.TO.ZS","value":"Population ages 15-64 (% of total population)"},"country":{"id":"1A","value":"Arab World"},"countryiso3code":"ARB","date":"1975","value":51.6832594798957,"unit":"","obs_status":"","decimal":0},{"indicator":{"id":"SP.POP.1564.TO.ZS","value":"Population ages 15-64 (% of total population)"},"country":{"id":"1A","value":"Arab World"},"countryiso3code":"ARB","date":"1974","value":51.5903053963387,"unit":"","obs_status":"","decimal":0},{"indicator":{"id":"SP.POP.1564.TO.ZS","value":"Population ages 15-64 (% of total population)"},"country":{"id":"1A","value":"Arab World"},"countryiso3code":"ARB","date":"1973","value":51.516294127196,"unit":"","obs_status":"","decimal":0},{"indicator":{"id":"SP.POP.1564.TO.ZS","value":"Population ages 15-64 (% of total population)"},"country":{"id":"1A","value":"Arab World"},"countryiso3code":"ARB","date":"1972","value":51.4767999193523,"unit":"","obs_status":"","decimal":0},{"indicator":{"id":"SP.POP.1564.TO.ZS","value":"Population ages 15-64 (% of total population)"},"country":{"id":"1A","value":"Arab World"},"countryiso3code":"ARB","date":"1971","value":51.4886136667318,"unit":"","obs_status":"","decimal":0},{"indicator":{"id":"SP.POP.1564.TO.ZS","value":"Population ages 15-64 (% of total population)"},"country":{"id":"1A","value":"Arab World"},"countryiso3code":"ARB","date":"1970","value":51.5669998887389,"unit":"","obs_status":"","decimal":0}]]