[{"page":1,"pages":317,"per_page":50,"total":15840,"sourceid":"2","lastupdated":"2020-03-18"},[{"indicator":{"id":"SP.POP.0014.MA.ZS","value":"Population ages 0-14, male (% of male population)"},"country":{"id":"1A","value":"Arab World"},"countryiso3code":"ARB","date":"2019","value":null,"unit":"","obs_status":"","decimal":0},{"indicator":{"id":"SP.POP.0014.MA.ZS","value":"Population ages 0-14, male (% of male population)"},"country":{"id":"1A","value":"Arab World"},"countryiso3code":"ARB","date":"2018","value":32.3594111633685,"unit":"","obs_status":"","decimal":0},{"indicator":{"id":"SP.POP.0014.MA.ZS","value":"Population ages 0-14, male (% of male population)"},"country":{"id":"1A","value":"Arab World"},"countryiso3code":"ARB","date":"2017","value":32.4799624704946,"unit":"","obs_status":"","decimal":0},{"indicator":{"id":"SP.POP.0014.MA.ZS","value":"Population ages 0-14, male (% of male population)"},"country":{"id":"1A","value":"Arab World"},"countryiso3code":"ARB","date":"2016","value":32.570643859888,"unit":"","obs_status":"","decimal":0},{"indicator":{"id":"SP.POP.0014.MA.ZS","value":"Population ages 0-14, male (% of male population)"},"country":{"id":"1A","value":"Arab World"},"countryiso3code":"ARB","date":"2015","value":32.6006493385627,"unit":"","obs_status":"","decimal":0},{"indicator":{"id":"SP.POP.0014.MA.ZS","value":"Population ages 0-14, male (% of male population)"},"country":{"id":"1A","value":"Arab World"},"countryiso3code":"ARB","date":"2014","value":32.726868813239,"unit":"","obs_status":"","decimal":0},{"indicator":{"id":"SP.POP.0014.MA.ZS","value":"Population ages 0-14, male (% of male population)"},"country":{"id":"1A","value":"Arab World"},"countryiso3code":"ARB","date":"2013","value":32.8480293547478,"unit":"","obs_status":"","decimal":0},{"indicator":{"id":"SP.POP.0014.MA.ZS","value":"Population ages 0-14, male (% of male population)"},"country":{"id":"1A","value":"Arab World"},"countryiso3code":"ARB","date":"2012","value":32.9904011908528,"unit":"","obs_status":"","decimal":0},{"indicator":{"id":"SP.POP.0014.MA.ZS","value":"Population ages 0-14, male (% of male population)"},"country":{"id":"1A","value":"Arab World"},"countryiso3code":"ARB","date":"2011","value":33.1864310187815,"unit":"","obs_status":"","decimal":0},{"indicator":{"id":"SP.POP.0014.MA.ZS","value":"Population ages 0-14, male (% of male population)"},"country":{"id":"1A","value":"Arab World"},"countryiso3code":"ARB","date":"2010","value":33.4516762886455,"unit":"","obs_status":"","decimal":0},{"indicator":{"id":"SP.POP.0014.MA.ZS","value":"Population ages 0-14, male (% of male population)"},"country":{"id":"1A","value":"Arab World"},"countryiso3code":"ARB","date":"2009","value":33.7776905972147,"unit":"","obs_status":"","decimal":0},{"indicator":{"id":"SP.POP.0014.MA.ZS","value":"Population ages 0-14, male (% of male population)"},"country":{"id":"1A","value":"Arab World"},"countryiso3code":"ARB","date":"2008","value":34.1832624924699,"unit":"","obs_status":"","decimal":0},{"indicator":{"id":"SP.POP.0014.MA.ZS","value":"Population ages 0-14, male (% of male population)"},"country":{"id":"1A","value":"Arab World"},"countryiso3code":"ARB","date":"2007","value":34.6598936318692,"unit":"","obs_status":"","decimal":0},{"indicator":{"id":"SP.POP.0014.MA.ZS","value":"Population ages 0-14, male (% of male population)"},"country":{"id":"1A","value":"Arab World"},"countryiso3code":"ARB","date":"2006","value":35.185120711618,"unit":"","obs_status":"","decimal":0},{"indicator":{"id":"SP.POP.0014.MA.ZS","value":"Population ages 0-14, male (% of male population)"},"country":{"id":"1A","value":"Arab World"},"countryiso3code":"ARB","date":"2005","value":35.7342106456144,"unit":"","obs_status":"","decimal":0},{"indicator":{"id":"SP.POP.0014.MA.ZS","value":"Population ages 0-14, male (% of male population)"},"country":{"id":"1A","value":"Arab World"},"countryiso3code":"ARB","date":"2004","value":36.2792449560372,"unit":"","obs_status":"","decimal":0},{"indicator":{"id":"SP.POP.0014.MA.ZS","value":"Population ages 0-14, male (% of male population)"},"country":{"id":"1A","value":"Arab World"},"countryiso3code":"ARB","date":"2003","value":36.8398283393067,"unit":"","obs_status":"","decimal":0},{"indicator":{"id":"SP.POP.0014.MA.ZS","value":"Population ages 0-14, male (% of male population)"},"country":{"id":"1A","value":"Arab World"},"countryiso3code":"ARB","date":"2002","value":37.4087448364786,"unit":"","obs_status":"","decimal":0},{"indicator":{"id":"SP.POP.0014.MA.ZS","value":"Population ages 0-14, male (% of male population)"},"country":{"id":"1A","value":"Arab World"},"countryiso3code":"ARB","date":"2001","value":37.9784213440342,"unit":"","obs_status":"","decimal":0},{"indicator":{"id":"SP.POP.0014.MA.ZS","value":"Population ages 0-14, male (% of male population)"},"country":{"id":"1A","value":"Arab World"},"countryiso3code":"ARB","date":"2000","value":38.5426483331875,"unit":"","obs_status":"","decimal":0},{"indicator":{"id":"SP.POP.0014.MA.ZS","value":"Population ages 0-14, male (% of male population)"},"country":{"id":"1A","value":"Arab World"},"countryiso3code":"ARB","date":"1999","value":39.0350185914254,"unit":"","obs_status":"","decimal":0},{"indicator":{"id":"SP.POP.0014.MA.ZS","value":"Population ages 0-14, male (% of male population)"},"country":{"id":"1A","value":"Arab World"},"countryiso3code":"ARB","date":"1998","value":39.519683257598,"unit":"","obs_status":"","decimal":0},{"indicator":{"id":"SP.POP.0014.MA.ZS","value":"Population ages 0-14, male (% of male population)"},"country":{"id":"1A","value":"Arab World"},"countryiso3code":"ARB","date":"1997","value":39.9983214227238,"unit":"","obs_status":"","decimal":0},{"indicator":{"id":"SP.POP.0014.MA.ZS","value":"Population ages 0-14, male (% of male population)"},"country":{"id":"1A","value":"Arab World"},"countryiso3code":"ARB","date":"1996","value":40.4625728219143,"unit":"","obs_status":"","decimal":0},{"indicator":{"id":"SP.POP.0014.MA.ZS","value":"Population ages 0-14, male (% of male population)"},"country":{"id":"1A","value":"Arab World"},"countryiso3code":"ARB","date":"1995","value":40.8996759866101,"unit":"","obs_status":"","decimal":0},{"indicator":{"id":"SP.POP.0014.MA.ZS","value":"Population ages 0-14, male (% of male population)"},"country":{"id":"1A","value":"Arab World"},"countryiso3code":"ARB","date":"1994","value":41.4837933602296,"unit":"","obs_status":"","decimal":0},{"indicator":{"id":"SP.POP.0014.MA.ZS","value":"Population ages 0-14, male (% of male population)"},"country":{"id":"1A","value":"Arab World"},"countryiso3code":"ARB","date":"1993","value":41.9231370074749,"unit":"","obs_status":"","decimal":0},{"indicator":{"id":"SP.POP.0014.MA.ZS","value":"Population ages 0-14, male (% of male population)"},"country":{"id":"1A","value":"Arab World"},"countryiso3code":"ARB","date":"1992","value":42.3104890873359,"unit":"","obs_status":"","decimal":0},{"indicator":{"id":"SP.POP.0014.MA.ZS","value":"Population ages 0-14, male (% of male population)"},"country":{"id":"1A","value":"Arab World"},"countryiso3code":"ARB","date":"1991","value":42.5199231026938,"unit":"","obs_status":"","decimal":0},{"indicator":{"id":"SP.POP.0014.MA.ZS","value":"Population ages 0-14, male (% of male population)"},"country":{"id":"1A","value":"Arab World"},"countryiso3code":"ARB","date":"1990","value":42.8088979475302,"unit":"","obs_status":"","decimal":0},{"indicator":{"id":"SP.POP.0014.MA.ZS","value":"Population ages 0-14, male (% of male population)"},"country":{"id":"1A","value":"Arab World"},"countryiso3code":"ARB","date":"1989","value":43.0021459412734,"unit":"","obs_status":"","decimal":0},{"indicator":{"id":"SP.POP.0014.MA.ZS","value":"Population ages 0-14, male (% of male population)"},"country":{"id":"1A","value":"Arab World"},"countryiso3code":"ARB","date":"1988","value":43.2137300784905,"unit":"","obs_status":"","decimal":0},{"indicator":{"id":"SP.POP.0014.MA.ZS","value":"Population ages 0-14, male (% of male population)"},"country":{"id":"1A","value":"Arab World"},"countryiso3code":"ARB","date":"1987","value":43.3996289992452,"unit":"","obs_status":"","decimal":0},{"indicator":{"id":"SP.POP.0014.MA.ZS","value":"Population ages 0-14, male (% of male population)"},"country":{"id":"1A","value":"Arab World"},"countryiso3code":"ARB","date":"1986","value":43.5573706776994,"unit":"","obs_status":"","decimal":0},{"indicator":{"id":"SP.POP.0014.MA.ZS","value":"Population ages 0-14, male (% of male population)"},"country":{"id":"1A","value":"Arab World"},"countryiso3code":"ARB","date":"1985","value":43.6708775050304,"unit":"","obs_status":"","decimal":0},{"indicator":{"id":"SP.POP.0014.MA.ZS","value":"Population ages 0-14, male (% of male population)"},"country":{"id":"1A","value":"Arab World"},"countryiso3code":"ARB","date":"1984","value":43.8609959244976,"unit":"","obs_status":"","decimal":0},{"indicator":{"id":"SP.POP.0014.MA.ZS","value":"Population ages 0-14, male (% of male population)"},"country":{"id":"1A","value":"Arab World"},"countryiso3code":"ARB","date":"1983","value":44.0355857895457,"unit":"","obs_status":"","decimal":0},{"indicator":{"id":"SP.POP.0014.MA.ZS","value":"Population ages 0-14, male (% of male population)"},"country":{"id":"1A","value":"Arab World"},"countryiso3code":"ARB","date":"1982","value":44.192089479036,"unit":"","obs_status":"","decimal":0},{"indicator":{"id":"SP.POP.0014.MA.ZS","value":"Population ages 0-14, male (% of male population)"},"country":{"id":"1A","value":"Arab World"},"countryiso3code":"ARB","date":"1981","value":44.3242781334131,"unit":"","obs_status":"","decimal":0},{"indicator":{"id":"SP.POP.0014.MA.ZS","value":"Population ages 0-14, male (% of male population)"},"country":{"id":"1A","value":"Arab World"},"countryiso3code":"ARB","date":"1980","value":44.4276346844022,"unit":"","obs_status":"","decimal":0},{"indicator":{"id":"SP.POP.0014.MA.ZS","value":"Population ages 0-14, male (% of male population)"},"country":{"id":"1A","value":"Arab World"},"countryiso3code":"ARB","date":"1979","value":44.5995155869491,"unit":"","obs_status":"","decimal":0},{"indicator":{"id":"SP.POP.0014.MA.ZS","value":"Population ages 0-14, male (% of male population)"},"country":{"id":"1A","value":"Arab World"},"countryiso3code":"ARB","date":"1978","value":44.7488343423202,"unit":"","obs_status":"","decimal":0},{"indicator":{"id":"SP.POP.0014.MA.ZS","value":"Population ages 0-14, male (% of male population)"},"country":{"id":"1A","value":"Arab World"},"countryiso3code":"ARB","date":"1977","value":44.8806986007578,"unit":"","obs_status":"","decimal":0},{"indicator":{"id":"SP.POP.0014.MA.ZS","value":"Population ages 0-14, male (% of male population)"},"country":{"id":"1A","value":"Arab World"},"countryiso3code":"ARB","date":"1976","value":45.0007568131877,"unit":"","obs_status":"","decimal":0},{"indicator":{"id":"SP.POP.0014.MA.ZS","value":"Population ages 0-14, male (% of male population)"},"country":{"id":"1A","value":"Arab World"},"countryiso3code":"ARB","date":"1975","value":45.106159665668,"unit":"","obs_status":"","decimal":0},{"indicator":{"id":"SP.POP.0014.MA.ZS","value":"Population ages 0-14, male (% of male population)"},"country":{"id":"1A","value":"Arab World"},"countryiso3code":"ARB","date":"1974","value":45.2139634407795,"unit":"","obs_status":"","decimal":0},{"indicator":{"id":"SP.POP.0014.MA.ZS","value":"Population ages 0-14, male (% of male population)"},"country":{"id":"1A","value":"Arab World"},"countryiso3code":"ARB","date":"1973","value":45.310637964118,"unit":"","obs_status":"","decimal":0},{"indicator":{"id":"SP.POP.0014.MA.ZS","value":"Population ages 0-14, male (% of male population)"},"country":{"id":"1A","value":"Arab World"},"countryiso3code":"ARB","date":"1972","value":45.3793269992056,"unit":"","obs_status":"","decimal":0},{"indicator":{"id":"SP.POP.0014.MA.ZS","value":"Population ages 0-14, male (% of male population)"},"country":{"id":"1A","value":"Arab World"},"countryiso3code":"ARB","date":"1971","value":45.4002839602747,"unit":"","obs_status":"","decimal":0},{"indicator":{"id":"SP.POP.0014.MA.ZS","value":"Population ages 0-14, male (% of male population)"},"country":{"id":"1A","value":"Arab World"},"countryiso3code":"ARB","date":"1970","value":45.3567620866977,"unit":"","obs_status":"","decimal":0}]]