[{"page":1,"pages":317,"per_page":50,"total":15840,"sourceid":"2","lastupdated":"2020-03-18"},[{"indicator":{"id":"SP.POP.80UP.MA.5Y","value":"Population ages 80 and above, male (% of male population)"},"country":{"id":"1A","value":"Arab World"},"countryiso3code":"ARB","date":"2019","value":null,"unit":"","obs_status":"","decimal":0},{"indicator":{"id":"SP.POP.80UP.MA.5Y","value":"Population ages 80 and above, male (% of male population)"},"country":{"id":"1A","value":"Arab World"},"countryiso3code":"ARB","date":"2018","value":0.590620791746264,"unit":"","obs_status":"","decimal":0},{"indicator":{"id":"SP.POP.80UP.MA.5Y","value":"Population ages 80 and above, male (% of male population)"},"country":{"id":"1A","value":"Arab World"},"countryiso3code":"ARB","date":"2017","value":0.582724346294949,"unit":"","obs_status":"","decimal":0},{"indicator":{"id":"SP.POP.80UP.MA.5Y","value":"Population ages 80 and above, male (% of male population)"},"country":{"id":"1A","value":"Arab World"},"countryiso3code":"ARB","date":"2016","value":0.566648478288697,"unit":"","obs_status":"","decimal":0},{"indicator":{"id":"SP.POP.80UP.MA.5Y","value":"Population ages 80 and above, male (% of male population)"},"country":{"id":"1A","value":"Arab World"},"countryiso3code":"ARB","date":"2015","value":0.543525155510961,"unit":"","obs_status":"","decimal":0},{"indicator":{"id":"SP.POP.80UP.MA.5Y","value":"Population ages 80 and above, male (% of male population)"},"country":{"id":"1A","value":"Arab World"},"countryiso3code":"ARB","date":"2014","value":0.55106385738464,"unit":"","obs_status":"","decimal":0},{"indicator":{"id":"SP.POP.80UP.MA.5Y","value":"Population ages 80 and above, male (% of male population)"},"country":{"id":"1A","value":"Arab World"},"countryiso3code":"ARB","date":"2013","value":0.550513112190961,"unit":"","obs_status":"","decimal":0},{"indicator":{"id":"SP.POP.80UP.MA.5Y","value":"Population ages 80 and above, male (% of male population)"},"country":{"id":"1A","value":"Arab World"},"countryiso3code":"ARB","date":"2012","value":0.541370486910373,"unit":"","obs_status":"","decimal":0},{"indicator":{"id":"SP.POP.80UP.MA.5Y","value":"Population ages 80 and above, male (% of male population)"},"country":{"id":"1A","value":"Arab World"},"countryiso3code":"ARB","date":"2011","value":0.52404131186755,"unit":"","obs_status":"","decimal":0},{"indicator":{"id":"SP.POP.80UP.MA.5Y","value":"Population ages 80 and above, male (% of male population)"},"country":{"id":"1A","value":"Arab World"},"countryiso3code":"ARB","date":"2010","value":0.499581822259765,"unit":"","obs_status":"","decimal":0},{"indicator":{"id":"SP.POP.80UP.MA.5Y","value":"Population ages 80 and above, male (% of male population)"},"country":{"id":"1A","value":"Arab World"},"countryiso3code":"ARB","date":"2009","value":0.505816601051653,"unit":"","obs_status":"","decimal":0},{"indicator":{"id":"SP.POP.80UP.MA.5Y","value":"Population ages 80 and above, male (% of male population)"},"country":{"id":"1A","value":"Arab World"},"countryiso3code":"ARB","date":"2008","value":0.505695559028611,"unit":"","obs_status":"","decimal":0},{"indicator":{"id":"SP.POP.80UP.MA.5Y","value":"Population ages 80 and above, male (% of male population)"},"country":{"id":"1A","value":"Arab World"},"countryiso3code":"ARB","date":"2007","value":0.498305164827917,"unit":"","obs_status":"","decimal":0},{"indicator":{"id":"SP.POP.80UP.MA.5Y","value":"Population ages 80 and above, male (% of male population)"},"country":{"id":"1A","value":"Arab World"},"countryiso3code":"ARB","date":"2006","value":0.482774815325184,"unit":"","obs_status":"","decimal":0},{"indicator":{"id":"SP.POP.80UP.MA.5Y","value":"Population ages 80 and above, male (% of male population)"},"country":{"id":"1A","value":"Arab World"},"countryiso3code":"ARB","date":"2005","value":0.459122587358435,"unit":"","obs_status":"","decimal":0},{"indicator":{"id":"SP.POP.80UP.MA.5Y","value":"Population ages 80 and above, male (% of male population)"},"country":{"id":"1A","value":"Arab World"},"countryiso3code":"ARB","date":"2004","value":0.464143474822103,"unit":"","obs_status":"","decimal":0},{"indicator":{"id":"SP.POP.80UP.MA.5Y","value":"Population ages 80 and above, male (% of male population)"},"country":{"id":"1A","value":"Arab World"},"countryiso3code":"ARB","date":"2003","value":0.461634301523299,"unit":"","obs_status":"","decimal":0},{"indicator":{"id":"SP.POP.80UP.MA.5Y","value":"Population ages 80 and above, male (% of male population)"},"country":{"id":"1A","value":"Arab World"},"countryiso3code":"ARB","date":"2002","value":0.45142389875622,"unit":"","obs_status":"","decimal":0},{"indicator":{"id":"SP.POP.80UP.MA.5Y","value":"Population ages 80 and above, male (% of male population)"},"country":{"id":"1A","value":"Arab World"},"countryiso3code":"ARB","date":"2001","value":0.43387218840324,"unit":"","obs_status":"","decimal":0},{"indicator":{"id":"SP.POP.80UP.MA.5Y","value":"Population ages 80 and above, male (% of male population)"},"country":{"id":"1A","value":"Arab World"},"countryiso3code":"ARB","date":"2000","value":0.409981420685222,"unit":"","obs_status":"","decimal":0},{"indicator":{"id":"SP.POP.80UP.MA.5Y","value":"Population ages 80 and above, male (% of male population)"},"country":{"id":"1A","value":"Arab World"},"countryiso3code":"ARB","date":"1999","value":0.416361617019019,"unit":"","obs_status":"","decimal":0},{"indicator":{"id":"SP.POP.80UP.MA.5Y","value":"Population ages 80 and above, male (% of male population)"},"country":{"id":"1A","value":"Arab World"},"countryiso3code":"ARB","date":"1998","value":0.417244207734545,"unit":"","obs_status":"","decimal":0},{"indicator":{"id":"SP.POP.80UP.MA.5Y","value":"Population ages 80 and above, male (% of male population)"},"country":{"id":"1A","value":"Arab World"},"countryiso3code":"ARB","date":"1997","value":0.412164344885624,"unit":"","obs_status":"","decimal":0},{"indicator":{"id":"SP.POP.80UP.MA.5Y","value":"Population ages 80 and above, male (% of male population)"},"country":{"id":"1A","value":"Arab World"},"countryiso3code":"ARB","date":"1996","value":0.400337043267085,"unit":"","obs_status":"","decimal":0},{"indicator":{"id":"SP.POP.80UP.MA.5Y","value":"Population ages 80 and above, male (% of male population)"},"country":{"id":"1A","value":"Arab World"},"countryiso3code":"ARB","date":"1995","value":0.381489774334588,"unit":"","obs_status":"","decimal":0},{"indicator":{"id":"SP.POP.80UP.MA.5Y","value":"Population ages 80 and above, male (% of male population)"},"country":{"id":"1A","value":"Arab World"},"countryiso3code":"ARB","date":"1994","value":0.391235891533242,"unit":"","obs_status":"","decimal":0},{"indicator":{"id":"SP.POP.80UP.MA.5Y","value":"Population ages 80 and above, male (% of male population)"},"country":{"id":"1A","value":"Arab World"},"countryiso3code":"ARB","date":"1993","value":0.393099427128293,"unit":"","obs_status":"","decimal":0},{"indicator":{"id":"SP.POP.80UP.MA.5Y","value":"Population ages 80 and above, male (% of male population)"},"country":{"id":"1A","value":"Arab World"},"countryiso3code":"ARB","date":"1992","value":0.388491052220069,"unit":"","obs_status":"","decimal":0},{"indicator":{"id":"SP.POP.80UP.MA.5Y","value":"Population ages 80 and above, male (% of male population)"},"country":{"id":"1A","value":"Arab World"},"countryiso3code":"ARB","date":"1991","value":0.375587829467996,"unit":"","obs_status":"","decimal":0},{"indicator":{"id":"SP.POP.80UP.MA.5Y","value":"Population ages 80 and above, male (% of male population)"},"country":{"id":"1A","value":"Arab World"},"countryiso3code":"ARB","date":"1990","value":0.358842113316001,"unit":"","obs_status":"","decimal":0},{"indicator":{"id":"SP.POP.80UP.MA.5Y","value":"Population ages 80 and above, male (% of male population)"},"country":{"id":"1A","value":"Arab World"},"countryiso3code":"ARB","date":"1989","value":0.372734506697582,"unit":"","obs_status":"","decimal":0},{"indicator":{"id":"SP.POP.80UP.MA.5Y","value":"Population ages 80 and above, male (% of male population)"},"country":{"id":"1A","value":"Arab World"},"countryiso3code":"ARB","date":"1988","value":0.377468866870478,"unit":"","obs_status":"","decimal":0},{"indicator":{"id":"SP.POP.80UP.MA.5Y","value":"Population ages 80 and above, male (% of male population)"},"country":{"id":"1A","value":"Arab World"},"countryiso3code":"ARB","date":"1987","value":0.374022756878579,"unit":"","obs_status":"","decimal":0},{"indicator":{"id":"SP.POP.80UP.MA.5Y","value":"Population ages 80 and above, male (% of male population)"},"country":{"id":"1A","value":"Arab World"},"countryiso3code":"ARB","date":"1986","value":0.362864191225384,"unit":"","obs_status":"","decimal":0},{"indicator":{"id":"SP.POP.80UP.MA.5Y","value":"Population ages 80 and above, male (% of male population)"},"country":{"id":"1A","value":"Arab World"},"countryiso3code":"ARB","date":"1985","value":0.345086354748617,"unit":"","obs_status":"","decimal":0},{"indicator":{"id":"SP.POP.80UP.MA.5Y","value":"Population ages 80 and above, male (% of male population)"},"country":{"id":"1A","value":"Arab World"},"countryiso3code":"ARB","date":"1984","value":0.35705206343972,"unit":"","obs_status":"","decimal":0},{"indicator":{"id":"SP.POP.80UP.MA.5Y","value":"Population ages 80 and above, male (% of male population)"},"country":{"id":"1A","value":"Arab World"},"countryiso3code":"ARB","date":"1983","value":0.362364350859859,"unit":"","obs_status":"","decimal":0},{"indicator":{"id":"SP.POP.80UP.MA.5Y","value":"Population ages 80 and above, male (% of male population)"},"country":{"id":"1A","value":"Arab World"},"countryiso3code":"ARB","date":"1982","value":0.360579393627933,"unit":"","obs_status":"","decimal":0},{"indicator":{"id":"SP.POP.80UP.MA.5Y","value":"Population ages 80 and above, male (% of male population)"},"country":{"id":"1A","value":"Arab World"},"countryiso3code":"ARB","date":"1981","value":0.351268232569519,"unit":"","obs_status":"","decimal":0},{"indicator":{"id":"SP.POP.80UP.MA.5Y","value":"Population ages 80 and above, male (% of male population)"},"country":{"id":"1A","value":"Arab World"},"countryiso3code":"ARB","date":"1980","value":0.334782004153445,"unit":"","obs_status":"","decimal":0},{"indicator":{"id":"SP.POP.80UP.MA.5Y","value":"Population ages 80 and above, male (% of male population)"},"country":{"id":"1A","value":"Arab World"},"countryiso3code":"ARB","date":"1979","value":0.346510112194208,"unit":"","obs_status":"","decimal":0},{"indicator":{"id":"SP.POP.80UP.MA.5Y","value":"Population ages 80 and above, male (% of male population)"},"country":{"id":"1A","value":"Arab World"},"countryiso3code":"ARB","date":"1978","value":0.35039353033503,"unit":"","obs_status":"","decimal":0},{"indicator":{"id":"SP.POP.80UP.MA.5Y","value":"Population ages 80 and above, male (% of male population)"},"country":{"id":"1A","value":"Arab World"},"countryiso3code":"ARB","date":"1977","value":0.346095370689695,"unit":"","obs_status":"","decimal":0},{"indicator":{"id":"SP.POP.80UP.MA.5Y","value":"Population ages 80 and above, male (% of male population)"},"country":{"id":"1A","value":"Arab World"},"countryiso3code":"ARB","date":"1976","value":0.333824288896288,"unit":"","obs_status":"","decimal":0},{"indicator":{"id":"SP.POP.80UP.MA.5Y","value":"Population ages 80 and above, male (% of male population)"},"country":{"id":"1A","value":"Arab World"},"countryiso3code":"ARB","date":"1975","value":0.314716259839832,"unit":"","obs_status":"","decimal":0},{"indicator":{"id":"SP.POP.80UP.MA.5Y","value":"Population ages 80 and above, male (% of male population)"},"country":{"id":"1A","value":"Arab World"},"countryiso3code":"ARB","date":"1974","value":0.325657719354655,"unit":"","obs_status":"","decimal":0},{"indicator":{"id":"SP.POP.80UP.MA.5Y","value":"Population ages 80 and above, male (% of male population)"},"country":{"id":"1A","value":"Arab World"},"countryiso3code":"ARB","date":"1973","value":0.329067095843989,"unit":"","obs_status":"","decimal":0},{"indicator":{"id":"SP.POP.80UP.MA.5Y","value":"Population ages 80 and above, male (% of male population)"},"country":{"id":"1A","value":"Arab World"},"countryiso3code":"ARB","date":"1972","value":0.324918688765386,"unit":"","obs_status":"","decimal":0},{"indicator":{"id":"SP.POP.80UP.MA.5Y","value":"Population ages 80 and above, male (% of male population)"},"country":{"id":"1A","value":"Arab World"},"countryiso3code":"ARB","date":"1971","value":0.313427956007367,"unit":"","obs_status":"","decimal":0},{"indicator":{"id":"SP.POP.80UP.MA.5Y","value":"Population ages 80 and above, male (% of male population)"},"country":{"id":"1A","value":"Arab World"},"countryiso3code":"ARB","date":"1970","value":0.295288373730748,"unit":"","obs_status":"","decimal":0}]]