[{"page":1,"pages":317,"per_page":50,"total":15840,"sourceid":"2","lastupdated":"2020-03-18"},[{"indicator":{"id":"SP.POP.1564.FE.ZS","value":"Population ages 15-64, female (% of female population)"},"country":{"id":"1A","value":"Arab World"},"countryiso3code":"ARB","date":"2019","value":null,"unit":"","obs_status":"","decimal":0},{"indicator":{"id":"SP.POP.1564.FE.ZS","value":"Population ages 15-64, female (% of female population)"},"country":{"id":"1A","value":"Arab World"},"countryiso3code":"ARB","date":"2018","value":61.7331370501158,"unit":"","obs_status":"","decimal":0},{"indicator":{"id":"SP.POP.1564.FE.ZS","value":"Population ages 15-64, female (% of female population)"},"country":{"id":"1A","value":"Arab World"},"countryiso3code":"ARB","date":"2017","value":61.7375011318818,"unit":"","obs_status":"","decimal":0},{"indicator":{"id":"SP.POP.1564.FE.ZS","value":"Population ages 15-64, female (% of female population)"},"country":{"id":"1A","value":"Arab World"},"countryiso3code":"ARB","date":"2016","value":61.7629186953076,"unit":"","obs_status":"","decimal":0},{"indicator":{"id":"SP.POP.1564.FE.ZS","value":"Population ages 15-64, female (% of female population)"},"country":{"id":"1A","value":"Arab World"},"countryiso3code":"ARB","date":"2015","value":61.8282944221346,"unit":"","obs_status":"","decimal":0},{"indicator":{"id":"SP.POP.1564.FE.ZS","value":"Population ages 15-64, female (% of female population)"},"country":{"id":"1A","value":"Arab World"},"countryiso3code":"ARB","date":"2014","value":61.7524032734818,"unit":"","obs_status":"","decimal":0},{"indicator":{"id":"SP.POP.1564.FE.ZS","value":"Population ages 15-64, female (% of female population)"},"country":{"id":"1A","value":"Arab World"},"countryiso3code":"ARB","date":"2013","value":61.6598169507942,"unit":"","obs_status":"","decimal":0},{"indicator":{"id":"SP.POP.1564.FE.ZS","value":"Population ages 15-64, female (% of female population)"},"country":{"id":"1A","value":"Arab World"},"countryiso3code":"ARB","date":"2012","value":61.5377389120399,"unit":"","obs_status":"","decimal":0},{"indicator":{"id":"SP.POP.1564.FE.ZS","value":"Population ages 15-64, female (% of female population)"},"country":{"id":"1A","value":"Arab World"},"countryiso3code":"ARB","date":"2011","value":61.3712430177255,"unit":"","obs_status":"","decimal":0},{"indicator":{"id":"SP.POP.1564.FE.ZS","value":"Population ages 15-64, female (% of female population)"},"country":{"id":"1A","value":"Arab World"},"countryiso3code":"ARB","date":"2010","value":61.1550347761192,"unit":"","obs_status":"","decimal":0},{"indicator":{"id":"SP.POP.1564.FE.ZS","value":"Population ages 15-64, female (% of female population)"},"country":{"id":"1A","value":"Arab World"},"countryiso3code":"ARB","date":"2009","value":60.9165352562661,"unit":"","obs_status":"","decimal":0},{"indicator":{"id":"SP.POP.1564.FE.ZS","value":"Population ages 15-64, female (% of female population)"},"country":{"id":"1A","value":"Arab World"},"countryiso3code":"ARB","date":"2008","value":60.6283885995604,"unit":"","obs_status":"","decimal":0},{"indicator":{"id":"SP.POP.1564.FE.ZS","value":"Population ages 15-64, female (% of female population)"},"country":{"id":"1A","value":"Arab World"},"countryiso3code":"ARB","date":"2007","value":60.2922960004024,"unit":"","obs_status":"","decimal":0},{"indicator":{"id":"SP.POP.1564.FE.ZS","value":"Population ages 15-64, female (% of female population)"},"country":{"id":"1A","value":"Arab World"},"countryiso3code":"ARB","date":"2006","value":59.9130597370262,"unit":"","obs_status":"","decimal":0},{"indicator":{"id":"SP.POP.1564.FE.ZS","value":"Population ages 15-64, female (% of female population)"},"country":{"id":"1A","value":"Arab World"},"countryiso3code":"ARB","date":"2005","value":59.4985914847869,"unit":"","obs_status":"","decimal":0},{"indicator":{"id":"SP.POP.1564.FE.ZS","value":"Population ages 15-64, female (% of female population)"},"country":{"id":"1A","value":"Arab World"},"countryiso3code":"ARB","date":"2004","value":59.0608038475955,"unit":"","obs_status":"","decimal":0},{"indicator":{"id":"SP.POP.1564.FE.ZS","value":"Population ages 15-64, female (% of female population)"},"country":{"id":"1A","value":"Arab World"},"countryiso3code":"ARB","date":"2003","value":58.5939507236671,"unit":"","obs_status":"","decimal":0},{"indicator":{"id":"SP.POP.1564.FE.ZS","value":"Population ages 15-64, female (% of female population)"},"country":{"id":"1A","value":"Arab World"},"countryiso3code":"ARB","date":"2002","value":58.1118019117225,"unit":"","obs_status":"","decimal":0},{"indicator":{"id":"SP.POP.1564.FE.ZS","value":"Population ages 15-64, female (% of female population)"},"country":{"id":"1A","value":"Arab World"},"countryiso3code":"ARB","date":"2001","value":57.6314573390863,"unit":"","obs_status":"","decimal":0},{"indicator":{"id":"SP.POP.1564.FE.ZS","value":"Population ages 15-64, female (% of female population)"},"country":{"id":"1A","value":"Arab World"},"countryiso3code":"ARB","date":"2000","value":57.1656272685161,"unit":"","obs_status":"","decimal":0},{"indicator":{"id":"SP.POP.1564.FE.ZS","value":"Population ages 15-64, female (% of female population)"},"country":{"id":"1A","value":"Arab World"},"countryiso3code":"ARB","date":"1999","value":56.6724998338333,"unit":"","obs_status":"","decimal":0},{"indicator":{"id":"SP.POP.1564.FE.ZS","value":"Population ages 15-64, female (% of female population)"},"country":{"id":"1A","value":"Arab World"},"countryiso3code":"ARB","date":"1998","value":56.1887313616699,"unit":"","obs_status":"","decimal":0},{"indicator":{"id":"SP.POP.1564.FE.ZS","value":"Population ages 15-64, female (% of female population)"},"country":{"id":"1A","value":"Arab World"},"countryiso3code":"ARB","date":"1997","value":55.7156372843477,"unit":"","obs_status":"","decimal":0},{"indicator":{"id":"SP.POP.1564.FE.ZS","value":"Population ages 15-64, female (% of female population)"},"country":{"id":"1A","value":"Arab World"},"countryiso3code":"ARB","date":"1996","value":55.2588934173869,"unit":"","obs_status":"","decimal":0},{"indicator":{"id":"SP.POP.1564.FE.ZS","value":"Population ages 15-64, female (% of female population)"},"country":{"id":"1A","value":"Arab World"},"countryiso3code":"ARB","date":"1995","value":54.8268548803992,"unit":"","obs_status":"","decimal":0},{"indicator":{"id":"SP.POP.1564.FE.ZS","value":"Population ages 15-64, female (% of female population)"},"country":{"id":"1A","value":"Arab World"},"countryiso3code":"ARB","date":"1994","value":54.3577933915292,"unit":"","obs_status":"","decimal":0},{"indicator":{"id":"SP.POP.1564.FE.ZS","value":"Population ages 15-64, female (% of female population)"},"country":{"id":"1A","value":"Arab World"},"countryiso3code":"ARB","date":"1993","value":53.9760378467427,"unit":"","obs_status":"","decimal":0},{"indicator":{"id":"SP.POP.1564.FE.ZS","value":"Population ages 15-64, female (% of female population)"},"country":{"id":"1A","value":"Arab World"},"countryiso3code":"ARB","date":"1992","value":53.6430056244216,"unit":"","obs_status":"","decimal":0},{"indicator":{"id":"SP.POP.1564.FE.ZS","value":"Population ages 15-64, female (% of female population)"},"country":{"id":"1A","value":"Arab World"},"countryiso3code":"ARB","date":"1991","value":53.4137157033204,"unit":"","obs_status":"","decimal":0},{"indicator":{"id":"SP.POP.1564.FE.ZS","value":"Population ages 15-64, female (% of female population)"},"country":{"id":"1A","value":"Arab World"},"countryiso3code":"ARB","date":"1990","value":53.1790358527781,"unit":"","obs_status":"","decimal":0},{"indicator":{"id":"SP.POP.1564.FE.ZS","value":"Population ages 15-64, female (% of female population)"},"country":{"id":"1A","value":"Arab World"},"countryiso3code":"ARB","date":"1989","value":53.022944248538,"unit":"","obs_status":"","decimal":0},{"indicator":{"id":"SP.POP.1564.FE.ZS","value":"Population ages 15-64, female (% of female population)"},"country":{"id":"1A","value":"Arab World"},"countryiso3code":"ARB","date":"1988","value":52.8735629097791,"unit":"","obs_status":"","decimal":0},{"indicator":{"id":"SP.POP.1564.FE.ZS","value":"Population ages 15-64, female (% of female population)"},"country":{"id":"1A","value":"Arab World"},"countryiso3code":"ARB","date":"1987","value":52.7569228516337,"unit":"","obs_status":"","decimal":0},{"indicator":{"id":"SP.POP.1564.FE.ZS","value":"Population ages 15-64, female (% of female population)"},"country":{"id":"1A","value":"Arab World"},"countryiso3code":"ARB","date":"1986","value":52.6716585771241,"unit":"","obs_status":"","decimal":0},{"indicator":{"id":"SP.POP.1564.FE.ZS","value":"Population ages 15-64, female (% of female population)"},"country":{"id":"1A","value":"Arab World"},"countryiso3code":"ARB","date":"1985","value":52.625501200489,"unit":"","obs_status":"","decimal":0},{"indicator":{"id":"SP.POP.1564.FE.ZS","value":"Population ages 15-64, female (% of female population)"},"country":{"id":"1A","value":"Arab World"},"countryiso3code":"ARB","date":"1984","value":52.4585016465628,"unit":"","obs_status":"","decimal":0},{"indicator":{"id":"SP.POP.1564.FE.ZS","value":"Population ages 15-64, female (% of female population)"},"country":{"id":"1A","value":"Arab World"},"countryiso3code":"ARB","date":"1983","value":52.3076181922981,"unit":"","obs_status":"","decimal":0},{"indicator":{"id":"SP.POP.1564.FE.ZS","value":"Population ages 15-64, female (% of female population)"},"country":{"id":"1A","value":"Arab World"},"countryiso3code":"ARB","date":"1982","value":52.1772556068228,"unit":"","obs_status":"","decimal":0},{"indicator":{"id":"SP.POP.1564.FE.ZS","value":"Population ages 15-64, female (% of female population)"},"country":{"id":"1A","value":"Arab World"},"countryiso3code":"ARB","date":"1981","value":52.0765349617684,"unit":"","obs_status":"","decimal":0},{"indicator":{"id":"SP.POP.1564.FE.ZS","value":"Population ages 15-64, female (% of female population)"},"country":{"id":"1A","value":"Arab World"},"countryiso3code":"ARB","date":"1980","value":52.0143489052245,"unit":"","obs_status":"","decimal":0},{"indicator":{"id":"SP.POP.1564.FE.ZS","value":"Population ages 15-64, female (% of female population)"},"country":{"id":"1A","value":"Arab World"},"countryiso3code":"ARB","date":"1979","value":51.9066168755094,"unit":"","obs_status":"","decimal":0},{"indicator":{"id":"SP.POP.1564.FE.ZS","value":"Population ages 15-64, female (% of female population)"},"country":{"id":"1A","value":"Arab World"},"countryiso3code":"ARB","date":"1978","value":51.828820292724,"unit":"","obs_status":"","decimal":0},{"indicator":{"id":"SP.POP.1564.FE.ZS","value":"Population ages 15-64, female (% of female population)"},"country":{"id":"1A","value":"Arab World"},"countryiso3code":"ARB","date":"1977","value":51.7801015345412,"unit":"","obs_status":"","decimal":0},{"indicator":{"id":"SP.POP.1564.FE.ZS","value":"Population ages 15-64, female (% of female population)"},"country":{"id":"1A","value":"Arab World"},"countryiso3code":"ARB","date":"1976","value":51.7594401062711,"unit":"","obs_status":"","decimal":0},{"indicator":{"id":"SP.POP.1564.FE.ZS","value":"Population ages 15-64, female (% of female population)"},"country":{"id":"1A","value":"Arab World"},"countryiso3code":"ARB","date":"1975","value":51.7724896862654,"unit":"","obs_status":"","decimal":0},{"indicator":{"id":"SP.POP.1564.FE.ZS","value":"Population ages 15-64, female (% of female population)"},"country":{"id":"1A","value":"Arab World"},"countryiso3code":"ARB","date":"1974","value":51.7087898100424,"unit":"","obs_status":"","decimal":0},{"indicator":{"id":"SP.POP.1564.FE.ZS","value":"Population ages 15-64, female (% of female population)"},"country":{"id":"1A","value":"Arab World"},"countryiso3code":"ARB","date":"1973","value":51.6628447806496,"unit":"","obs_status":"","decimal":0},{"indicator":{"id":"SP.POP.1564.FE.ZS","value":"Population ages 15-64, female (% of female population)"},"country":{"id":"1A","value":"Arab World"},"countryiso3code":"ARB","date":"1972","value":51.6493003818171,"unit":"","obs_status":"","decimal":0},{"indicator":{"id":"SP.POP.1564.FE.ZS","value":"Population ages 15-64, female (% of female population)"},"country":{"id":"1A","value":"Arab World"},"countryiso3code":"ARB","date":"1971","value":51.6846896670785,"unit":"","obs_status":"","decimal":0},{"indicator":{"id":"SP.POP.1564.FE.ZS","value":"Population ages 15-64, female (% of female population)"},"country":{"id":"1A","value":"Arab World"},"countryiso3code":"ARB","date":"1970","value":51.784714201035,"unit":"","obs_status":"","decimal":0}]]