[{"page":1,"pages":317,"per_page":50,"total":15840,"sourceid":"2","lastupdated":"2020-03-18"},[{"indicator":{"id":"SH.PRV.SMOK.MA","value":"Smoking prevalence, males (% of adults)"},"country":{"id":"1A","value":"Arab World"},"countryiso3code":"ARB","date":"2019","value":null,"unit":"","obs_status":"","decimal":0},{"indicator":{"id":"SH.PRV.SMOK.MA","value":"Smoking prevalence, males (% of adults)"},"country":{"id":"1A","value":"Arab World"},"countryiso3code":"ARB","date":"2018","value":null,"unit":"","obs_status":"","decimal":0},{"indicator":{"id":"SH.PRV.SMOK.MA","value":"Smoking prevalence, males (% of adults)"},"country":{"id":"1A","value":"Arab World"},"countryiso3code":"ARB","date":"2017","value":null,"unit":"","obs_status":"","decimal":0},{"indicator":{"id":"SH.PRV.SMOK.MA","value":"Smoking prevalence, males (% of adults)"},"country":{"id":"1A","value":"Arab World"},"countryiso3code":"ARB","date":"2016","value":39.4698795224697,"unit":"","obs_status":"","decimal":0},{"indicator":{"id":"SH.PRV.SMOK.MA","value":"Smoking prevalence, males (% of adults)"},"country":{"id":"1A","value":"Arab World"},"countryiso3code":"ARB","date":"2015","value":38.942617505746,"unit":"","obs_status":"","decimal":0},{"indicator":{"id":"SH.PRV.SMOK.MA","value":"Smoking prevalence, males (% of adults)"},"country":{"id":"1A","value":"Arab World"},"countryiso3code":"ARB","date":"2014","value":38.3483708823291,"unit":"","obs_status":"","decimal":0},{"indicator":{"id":"SH.PRV.SMOK.MA","value":"Smoking prevalence, males (% of adults)"},"country":{"id":"1A","value":"Arab World"},"countryiso3code":"ARB","date":"2013","value":37.7760909320607,"unit":"","obs_status":"","decimal":0},{"indicator":{"id":"SH.PRV.SMOK.MA","value":"Smoking prevalence, males (% of adults)"},"country":{"id":"1A","value":"Arab World"},"countryiso3code":"ARB","date":"2012","value":37.1856081576391,"unit":"","obs_status":"","decimal":0},{"indicator":{"id":"SH.PRV.SMOK.MA","value":"Smoking prevalence, males (% of adults)"},"country":{"id":"1A","value":"Arab World"},"countryiso3code":"ARB","date":"2011","value":36.8023118386463,"unit":"","obs_status":"","decimal":0},{"indicator":{"id":"SH.PRV.SMOK.MA","value":"Smoking prevalence, males (% of adults)"},"country":{"id":"1A","value":"Arab World"},"countryiso3code":"ARB","date":"2010","value":null,"unit":"","obs_status":"","decimal":0},{"indicator":{"id":"SH.PRV.SMOK.MA","value":"Smoking prevalence, males (% of adults)"},"country":{"id":"1A","value":"Arab World"},"countryiso3code":"ARB","date":"2009","value":null,"unit":"","obs_status":"","decimal":0},{"indicator":{"id":"SH.PRV.SMOK.MA","value":"Smoking prevalence, males (% of adults)"},"country":{"id":"1A","value":"Arab World"},"countryiso3code":"ARB","date":"2008","value":null,"unit":"","obs_status":"","decimal":0},{"indicator":{"id":"SH.PRV.SMOK.MA","value":"Smoking prevalence, males (% of adults)"},"country":{"id":"1A","value":"Arab World"},"countryiso3code":"ARB","date":"2007","value":null,"unit":"","obs_status":"","decimal":0},{"indicator":{"id":"SH.PRV.SMOK.MA","value":"Smoking prevalence, males (% of adults)"},"country":{"id":"1A","value":"Arab World"},"countryiso3code":"ARB","date":"2006","value":null,"unit":"","obs_status":"","decimal":0},{"indicator":{"id":"SH.PRV.SMOK.MA","value":"Smoking prevalence, males (% of adults)"},"country":{"id":"1A","value":"Arab World"},"countryiso3code":"ARB","date":"2005","value":34.0788869615666,"unit":"","obs_status":"","decimal":0},{"indicator":{"id":"SH.PRV.SMOK.MA","value":"Smoking prevalence, males (% of adults)"},"country":{"id":"1A","value":"Arab World"},"countryiso3code":"ARB","date":"2004","value":null,"unit":"","obs_status":"","decimal":0},{"indicator":{"id":"SH.PRV.SMOK.MA","value":"Smoking prevalence, males (% of adults)"},"country":{"id":"1A","value":"Arab World"},"countryiso3code":"ARB","date":"2003","value":null,"unit":"","obs_status":"","decimal":0},{"indicator":{"id":"SH.PRV.SMOK.MA","value":"Smoking prevalence, males (% of adults)"},"country":{"id":"1A","value":"Arab World"},"countryiso3code":"ARB","date":"2002","value":null,"unit":"","obs_status":"","decimal":0},{"indicator":{"id":"SH.PRV.SMOK.MA","value":"Smoking prevalence, males (% of adults)"},"country":{"id":"1A","value":"Arab World"},"countryiso3code":"ARB","date":"2001","value":null,"unit":"","obs_status":"","decimal":0},{"indicator":{"id":"SH.PRV.SMOK.MA","value":"Smoking prevalence, males (% of adults)"},"country":{"id":"1A","value":"Arab World"},"countryiso3code":"ARB","date":"2000","value":32.040391705601,"unit":"","obs_status":"","decimal":0},{"indicator":{"id":"SH.PRV.SMOK.MA","value":"Smoking prevalence, males (% of adults)"},"country":{"id":"1A","value":"Arab World"},"countryiso3code":"ARB","date":"1999","value":null,"unit":"","obs_status":"","decimal":0},{"indicator":{"id":"SH.PRV.SMOK.MA","value":"Smoking prevalence, males (% of adults)"},"country":{"id":"1A","value":"Arab World"},"countryiso3code":"ARB","date":"1998","value":null,"unit":"","obs_status":"","decimal":0},{"indicator":{"id":"SH.PRV.SMOK.MA","value":"Smoking prevalence, males (% of adults)"},"country":{"id":"1A","value":"Arab World"},"countryiso3code":"ARB","date":"1997","value":null,"unit":"","obs_status":"","decimal":0},{"indicator":{"id":"SH.PRV.SMOK.MA","value":"Smoking prevalence, males (% of adults)"},"country":{"id":"1A","value":"Arab World"},"countryiso3code":"ARB","date":"1996","value":null,"unit":"","obs_status":"","decimal":0},{"indicator":{"id":"SH.PRV.SMOK.MA","value":"Smoking prevalence, males (% of adults)"},"country":{"id":"1A","value":"Arab World"},"countryiso3code":"ARB","date":"1995","value":null,"unit":"","obs_status":"","decimal":0},{"indicator":{"id":"SH.PRV.SMOK.MA","value":"Smoking prevalence, males (% of adults)"},"country":{"id":"1A","value":"Arab World"},"countryiso3code":"ARB","date":"1994","value":null,"unit":"","obs_status":"","decimal":0},{"indicator":{"id":"SH.PRV.SMOK.MA","value":"Smoking prevalence, males (% of adults)"},"country":{"id":"1A","value":"Arab World"},"countryiso3code":"ARB","date":"1993","value":null,"unit":"","obs_status":"","decimal":0},{"indicator":{"id":"SH.PRV.SMOK.MA","value":"Smoking prevalence, males (% of adults)"},"country":{"id":"1A","value":"Arab World"},"countryiso3code":"ARB","date":"1992","value":null,"unit":"","obs_status":"","decimal":0},{"indicator":{"id":"SH.PRV.SMOK.MA","value":"Smoking prevalence, males (% of adults)"},"country":{"id":"1A","value":"Arab World"},"countryiso3code":"ARB","date":"1991","value":null,"unit":"","obs_status":"","decimal":0},{"indicator":{"id":"SH.PRV.SMOK.MA","value":"Smoking prevalence, males (% of adults)"},"country":{"id":"1A","value":"Arab World"},"countryiso3code":"ARB","date":"1990","value":null,"unit":"","obs_status":"","decimal":0},{"indicator":{"id":"SH.PRV.SMOK.MA","value":"Smoking prevalence, males (% of adults)"},"country":{"id":"1A","value":"Arab World"},"countryiso3code":"ARB","date":"1989","value":null,"unit":"","obs_status":"","decimal":0},{"indicator":{"id":"SH.PRV.SMOK.MA","value":"Smoking prevalence, males (% of adults)"},"country":{"id":"1A","value":"Arab World"},"countryiso3code":"ARB","date":"1988","value":null,"unit":"","obs_status":"","decimal":0},{"indicator":{"id":"SH.PRV.SMOK.MA","value":"Smoking prevalence, males (% of adults)"},"country":{"id":"1A","value":"Arab World"},"countryiso3code":"ARB","date":"1987","value":null,"unit":"","obs_status":"","decimal":0},{"indicator":{"id":"SH.PRV.SMOK.MA","value":"Smoking prevalence, males (% of adults)"},"country":{"id":"1A","value":"Arab World"},"countryiso3code":"ARB","date":"1986","value":null,"unit":"","obs_status":"","decimal":0},{"indicator":{"id":"SH.PRV.SMOK.MA","value":"Smoking prevalence, males (% of adults)"},"country":{"id":"1A","value":"Arab World"},"countryiso3code":"ARB","date":"1985","value":null,"unit":"","obs_status":"","decimal":0},{"indicator":{"id":"SH.PRV.SMOK.MA","value":"Smoking prevalence, males (% of adults)"},"country":{"id":"1A","value":"Arab World"},"countryiso3code":"ARB","date":"1984","value":null,"unit":"","obs_status":"","decimal":0},{"indicator":{"id":"SH.PRV.SMOK.MA","value":"Smoking prevalence, males (% of adults)"},"country":{"id":"1A","value":"Arab World"},"countryiso3code":"ARB","date":"1983","value":null,"unit":"","obs_status":"","decimal":0},{"indicator":{"id":"SH.PRV.SMOK.MA","value":"Smoking prevalence, males (% of adults)"},"country":{"id":"1A","value":"Arab World"},"countryiso3code":"ARB","date":"1982","value":null,"unit":"","obs_status":"","decimal":0},{"indicator":{"id":"SH.PRV.SMOK.MA","value":"Smoking prevalence, males (% of adults)"},"country":{"id":"1A","value":"Arab World"},"countryiso3code":"ARB","date":"1981","value":null,"unit":"","obs_status":"","decimal":0},{"indicator":{"id":"SH.PRV.SMOK.MA","value":"Smoking prevalence, males (% of adults)"},"country":{"id":"1A","value":"Arab World"},"countryiso3code":"ARB","date":"1980","value":null,"unit":"","obs_status":"","decimal":0},{"indicator":{"id":"SH.PRV.SMOK.MA","value":"Smoking prevalence, males (% of adults)"},"country":{"id":"1A","value":"Arab World"},"countryiso3code":"ARB","date":"1979","value":null,"unit":"","obs_status":"","decimal":0},{"indicator":{"id":"SH.PRV.SMOK.MA","value":"Smoking prevalence, males (% of adults)"},"country":{"id":"1A","value":"Arab World"},"countryiso3code":"ARB","date":"1978","value":null,"unit":"","obs_status":"","decimal":0},{"indicator":{"id":"SH.PRV.SMOK.MA","value":"Smoking prevalence, males (% of adults)"},"country":{"id":"1A","value":"Arab World"},"countryiso3code":"ARB","date":"1977","value":null,"unit":"","obs_status":"","decimal":0},{"indicator":{"id":"SH.PRV.SMOK.MA","value":"Smoking prevalence, males (% of adults)"},"country":{"id":"1A","value":"Arab World"},"countryiso3code":"ARB","date":"1976","value":null,"unit":"","obs_status":"","decimal":0},{"indicator":{"id":"SH.PRV.SMOK.MA","value":"Smoking prevalence, males (% of adults)"},"country":{"id":"1A","value":"Arab World"},"countryiso3code":"ARB","date":"1975","value":null,"unit":"","obs_status":"","decimal":0},{"indicator":{"id":"SH.PRV.SMOK.MA","value":"Smoking prevalence, males (% of adults)"},"country":{"id":"1A","value":"Arab World"},"countryiso3code":"ARB","date":"1974","value":null,"unit":"","obs_status":"","decimal":0},{"indicator":{"id":"SH.PRV.SMOK.MA","value":"Smoking prevalence, males (% of adults)"},"country":{"id":"1A","value":"Arab World"},"countryiso3code":"ARB","date":"1973","value":null,"unit":"","obs_status":"","decimal":0},{"indicator":{"id":"SH.PRV.SMOK.MA","value":"Smoking prevalence, males (% of adults)"},"country":{"id":"1A","value":"Arab World"},"countryiso3code":"ARB","date":"1972","value":null,"unit":"","obs_status":"","decimal":0},{"indicator":{"id":"SH.PRV.SMOK.MA","value":"Smoking prevalence, males (% of adults)"},"country":{"id":"1A","value":"Arab World"},"countryiso3code":"ARB","date":"1971","value":null,"unit":"","obs_status":"","decimal":0},{"indicator":{"id":"SH.PRV.SMOK.MA","value":"Smoking prevalence, males (% of adults)"},"country":{"id":"1A","value":"Arab World"},"countryiso3code":"ARB","date":"1970","value":null,"unit":"","obs_status":"","decimal":0}]]