[{"page":1,"pages":317,"per_page":50,"total":15840,"sourceid":"2","lastupdated":"2020-03-18"},[{"indicator":{"id":"SH.XPD.CHEX.PC.CD","value":"Current health expenditure per capita (current US$)"},"country":{"id":"1A","value":"Arab World"},"countryiso3code":"ARB","date":"2019","value":null,"unit":"","obs_status":"","decimal":2},{"indicator":{"id":"SH.XPD.CHEX.PC.CD","value":"Current health expenditure per capita (current US$)"},"country":{"id":"1A","value":"Arab World"},"countryiso3code":"ARB","date":"2018","value":null,"unit":"","obs_status":"","decimal":2},{"indicator":{"id":"SH.XPD.CHEX.PC.CD","value":"Current health expenditure per capita (current US$)"},"country":{"id":"1A","value":"Arab World"},"countryiso3code":"ARB","date":"2017","value":null,"unit":"","obs_status":"","decimal":2},{"indicator":{"id":"SH.XPD.CHEX.PC.CD","value":"Current health expenditure per capita (current US$)"},"country":{"id":"1A","value":"Arab World"},"countryiso3code":"ARB","date":"2016","value":339.580122579259,"unit":"","obs_status":"","decimal":2},{"indicator":{"id":"SH.XPD.CHEX.PC.CD","value":"Current health expenditure per capita (current US$)"},"country":{"id":"1A","value":"Arab World"},"countryiso3code":"ARB","date":"2015","value":344.574985131653,"unit":"","obs_status":"","decimal":2},{"indicator":{"id":"SH.XPD.CHEX.PC.CD","value":"Current health expenditure per capita (current US$)"},"country":{"id":"1A","value":"Arab World"},"countryiso3code":"ARB","date":"2014","value":366.917830116847,"unit":"","obs_status":"","decimal":2},{"indicator":{"id":"SH.XPD.CHEX.PC.CD","value":"Current health expenditure per capita (current US$)"},"country":{"id":"1A","value":"Arab World"},"countryiso3code":"ARB","date":"2013","value":338.855585064889,"unit":"","obs_status":"","decimal":2},{"indicator":{"id":"SH.XPD.CHEX.PC.CD","value":"Current health expenditure per capita (current US$)"},"country":{"id":"1A","value":"Arab World"},"countryiso3code":"ARB","date":"2012","value":305.844503473237,"unit":"","obs_status":"","decimal":2},{"indicator":{"id":"SH.XPD.CHEX.PC.CD","value":"Current health expenditure per capita (current US$)"},"country":{"id":"1A","value":"Arab World"},"countryiso3code":"ARB","date":"2011","value":283.700733700505,"unit":"","obs_status":"","decimal":2},{"indicator":{"id":"SH.XPD.CHEX.PC.CD","value":"Current health expenditure per capita (current US$)"},"country":{"id":"1A","value":"Arab World"},"countryiso3code":"ARB","date":"2010","value":248.849933874157,"unit":"","obs_status":"","decimal":2},{"indicator":{"id":"SH.XPD.CHEX.PC.CD","value":"Current health expenditure per capita (current US$)"},"country":{"id":"1A","value":"Arab World"},"countryiso3code":"ARB","date":"2009","value":243.813368618176,"unit":"","obs_status":"","decimal":2},{"indicator":{"id":"SH.XPD.CHEX.PC.CD","value":"Current health expenditure per capita (current US$)"},"country":{"id":"1A","value":"Arab World"},"countryiso3code":"ARB","date":"2008","value":220.00916553576,"unit":"","obs_status":"","decimal":2},{"indicator":{"id":"SH.XPD.CHEX.PC.CD","value":"Current health expenditure per capita (current US$)"},"country":{"id":"1A","value":"Arab World"},"countryiso3code":"ARB","date":"2007","value":188.530537872535,"unit":"","obs_status":"","decimal":2},{"indicator":{"id":"SH.XPD.CHEX.PC.CD","value":"Current health expenditure per capita (current US$)"},"country":{"id":"1A","value":"Arab World"},"countryiso3code":"ARB","date":"2006","value":160.551847840182,"unit":"","obs_status":"","decimal":2},{"indicator":{"id":"SH.XPD.CHEX.PC.CD","value":"Current health expenditure per capita (current US$)"},"country":{"id":"1A","value":"Arab World"},"countryiso3code":"ARB","date":"2005","value":138.998382475587,"unit":"","obs_status":"","decimal":2},{"indicator":{"id":"SH.XPD.CHEX.PC.CD","value":"Current health expenditure per capita (current US$)"},"country":{"id":"1A","value":"Arab World"},"countryiso3code":"ARB","date":"2004","value":125.044566219486,"unit":"","obs_status":"","decimal":2},{"indicator":{"id":"SH.XPD.CHEX.PC.CD","value":"Current health expenditure per capita (current US$)"},"country":{"id":"1A","value":"Arab World"},"countryiso3code":"ARB","date":"2003","value":114.175483031044,"unit":"","obs_status":"","decimal":2},{"indicator":{"id":"SH.XPD.CHEX.PC.CD","value":"Current health expenditure per capita (current US$)"},"country":{"id":"1A","value":"Arab World"},"countryiso3code":"ARB","date":"2002","value":117.329378863002,"unit":"","obs_status":"","decimal":2},{"indicator":{"id":"SH.XPD.CHEX.PC.CD","value":"Current health expenditure per capita (current US$)"},"country":{"id":"1A","value":"Arab World"},"countryiso3code":"ARB","date":"2001","value":118.070826411421,"unit":"","obs_status":"","decimal":2},{"indicator":{"id":"SH.XPD.CHEX.PC.CD","value":"Current health expenditure per capita (current US$)"},"country":{"id":"1A","value":"Arab World"},"countryiso3code":"ARB","date":"2000","value":114.81229122604,"unit":"","obs_status":"","decimal":2},{"indicator":{"id":"SH.XPD.CHEX.PC.CD","value":"Current health expenditure per capita (current US$)"},"country":{"id":"1A","value":"Arab World"},"countryiso3code":"ARB","date":"1999","value":null,"unit":"","obs_status":"","decimal":2},{"indicator":{"id":"SH.XPD.CHEX.PC.CD","value":"Current health expenditure per capita (current US$)"},"country":{"id":"1A","value":"Arab World"},"countryiso3code":"ARB","date":"1998","value":null,"unit":"","obs_status":"","decimal":2},{"indicator":{"id":"SH.XPD.CHEX.PC.CD","value":"Current health expenditure per capita (current US$)"},"country":{"id":"1A","value":"Arab World"},"countryiso3code":"ARB","date":"1997","value":null,"unit":"","obs_status":"","decimal":2},{"indicator":{"id":"SH.XPD.CHEX.PC.CD","value":"Current health expenditure per capita (current US$)"},"country":{"id":"1A","value":"Arab World"},"countryiso3code":"ARB","date":"1996","value":null,"unit":"","obs_status":"","decimal":2},{"indicator":{"id":"SH.XPD.CHEX.PC.CD","value":"Current health expenditure per capita (current US$)"},"country":{"id":"1A","value":"Arab World"},"countryiso3code":"ARB","date":"1995","value":null,"unit":"","obs_status":"","decimal":2},{"indicator":{"id":"SH.XPD.CHEX.PC.CD","value":"Current health expenditure per capita (current US$)"},"country":{"id":"1A","value":"Arab World"},"countryiso3code":"ARB","date":"1994","value":null,"unit":"","obs_status":"","decimal":2},{"indicator":{"id":"SH.XPD.CHEX.PC.CD","value":"Current health expenditure per capita (current US$)"},"country":{"id":"1A","value":"Arab World"},"countryiso3code":"ARB","date":"1993","value":null,"unit":"","obs_status":"","decimal":2},{"indicator":{"id":"SH.XPD.CHEX.PC.CD","value":"Current health expenditure per capita (current US$)"},"country":{"id":"1A","value":"Arab World"},"countryiso3code":"ARB","date":"1992","value":null,"unit":"","obs_status":"","decimal":2},{"indicator":{"id":"SH.XPD.CHEX.PC.CD","value":"Current health expenditure per capita (current US$)"},"country":{"id":"1A","value":"Arab World"},"countryiso3code":"ARB","date":"1991","value":null,"unit":"","obs_status":"","decimal":2},{"indicator":{"id":"SH.XPD.CHEX.PC.CD","value":"Current health expenditure per capita (current US$)"},"country":{"id":"1A","value":"Arab World"},"countryiso3code":"ARB","date":"1990","value":null,"unit":"","obs_status":"","decimal":2},{"indicator":{"id":"SH.XPD.CHEX.PC.CD","value":"Current health expenditure per capita (current US$)"},"country":{"id":"1A","value":"Arab World"},"countryiso3code":"ARB","date":"1989","value":null,"unit":"","obs_status":"","decimal":2},{"indicator":{"id":"SH.XPD.CHEX.PC.CD","value":"Current health expenditure per capita (current US$)"},"country":{"id":"1A","value":"Arab World"},"countryiso3code":"ARB","date":"1988","value":null,"unit":"","obs_status":"","decimal":2},{"indicator":{"id":"SH.XPD.CHEX.PC.CD","value":"Current health expenditure per capita (current US$)"},"country":{"id":"1A","value":"Arab World"},"countryiso3code":"ARB","date":"1987","value":null,"unit":"","obs_status":"","decimal":2},{"indicator":{"id":"SH.XPD.CHEX.PC.CD","value":"Current health expenditure per capita (current US$)"},"country":{"id":"1A","value":"Arab World"},"countryiso3code":"ARB","date":"1986","value":null,"unit":"","obs_status":"","decimal":2},{"indicator":{"id":"SH.XPD.CHEX.PC.CD","value":"Current health expenditure per capita (current US$)"},"country":{"id":"1A","value":"Arab World"},"countryiso3code":"ARB","date":"1985","value":null,"unit":"","obs_status":"","decimal":2},{"indicator":{"id":"SH.XPD.CHEX.PC.CD","value":"Current health expenditure per capita (current US$)"},"country":{"id":"1A","value":"Arab World"},"countryiso3code":"ARB","date":"1984","value":null,"unit":"","obs_status":"","decimal":2},{"indicator":{"id":"SH.XPD.CHEX.PC.CD","value":"Current health expenditure per capita (current US$)"},"country":{"id":"1A","value":"Arab World"},"countryiso3code":"ARB","date":"1983","value":null,"unit":"","obs_status":"","decimal":2},{"indicator":{"id":"SH.XPD.CHEX.PC.CD","value":"Current health expenditure per capita (current US$)"},"country":{"id":"1A","value":"Arab World"},"countryiso3code":"ARB","date":"1982","value":null,"unit":"","obs_status":"","decimal":2},{"indicator":{"id":"SH.XPD.CHEX.PC.CD","value":"Current health expenditure per capita (current US$)"},"country":{"id":"1A","value":"Arab World"},"countryiso3code":"ARB","date":"1981","value":null,"unit":"","obs_status":"","decimal":2},{"indicator":{"id":"SH.XPD.CHEX.PC.CD","value":"Current health expenditure per capita (current US$)"},"country":{"id":"1A","value":"Arab World"},"countryiso3code":"ARB","date":"1980","value":null,"unit":"","obs_status":"","decimal":2},{"indicator":{"id":"SH.XPD.CHEX.PC.CD","value":"Current health expenditure per capita (current US$)"},"country":{"id":"1A","value":"Arab World"},"countryiso3code":"ARB","date":"1979","value":null,"unit":"","obs_status":"","decimal":2},{"indicator":{"id":"SH.XPD.CHEX.PC.CD","value":"Current health expenditure per capita (current US$)"},"country":{"id":"1A","value":"Arab World"},"countryiso3code":"ARB","date":"1978","value":null,"unit":"","obs_status":"","decimal":2},{"indicator":{"id":"SH.XPD.CHEX.PC.CD","value":"Current health expenditure per capita (current US$)"},"country":{"id":"1A","value":"Arab World"},"countryiso3code":"ARB","date":"1977","value":null,"unit":"","obs_status":"","decimal":2},{"indicator":{"id":"SH.XPD.CHEX.PC.CD","value":"Current health expenditure per capita (current US$)"},"country":{"id":"1A","value":"Arab World"},"countryiso3code":"ARB","date":"1976","value":null,"unit":"","obs_status":"","decimal":2},{"indicator":{"id":"SH.XPD.CHEX.PC.CD","value":"Current health expenditure per capita (current US$)"},"country":{"id":"1A","value":"Arab World"},"countryiso3code":"ARB","date":"1975","value":null,"unit":"","obs_status":"","decimal":2},{"indicator":{"id":"SH.XPD.CHEX.PC.CD","value":"Current health expenditure per capita (current US$)"},"country":{"id":"1A","value":"Arab World"},"countryiso3code":"ARB","date":"1974","value":null,"unit":"","obs_status":"","decimal":2},{"indicator":{"id":"SH.XPD.CHEX.PC.CD","value":"Current health expenditure per capita (current US$)"},"country":{"id":"1A","value":"Arab World"},"countryiso3code":"ARB","date":"1973","value":null,"unit":"","obs_status":"","decimal":2},{"indicator":{"id":"SH.XPD.CHEX.PC.CD","value":"Current health expenditure per capita (current US$)"},"country":{"id":"1A","value":"Arab World"},"countryiso3code":"ARB","date":"1972","value":null,"unit":"","obs_status":"","decimal":2},{"indicator":{"id":"SH.XPD.CHEX.PC.CD","value":"Current health expenditure per capita (current US$)"},"country":{"id":"1A","value":"Arab World"},"countryiso3code":"ARB","date":"1971","value":null,"unit":"","obs_status":"","decimal":2},{"indicator":{"id":"SH.XPD.CHEX.PC.CD","value":"Current health expenditure per capita (current US$)"},"country":{"id":"1A","value":"Arab World"},"countryiso3code":"ARB","date":"1970","value":null,"unit":"","obs_status":"","decimal":2}]]