[{"page":1,"pages":317,"per_page":50,"total":15840,"sourceid":"2","lastupdated":"2020-03-18"},[{"indicator":{"id":"SH.XPD.CHEX.PP.CD","value":"Current health expenditure per capita, PPP (current international $)"},"country":{"id":"1A","value":"Arab World"},"countryiso3code":"ARB","date":"2019","value":null,"unit":"","obs_status":"","decimal":2},{"indicator":{"id":"SH.XPD.CHEX.PP.CD","value":"Current health expenditure per capita, PPP (current international $)"},"country":{"id":"1A","value":"Arab World"},"countryiso3code":"ARB","date":"2018","value":null,"unit":"","obs_status":"","decimal":2},{"indicator":{"id":"SH.XPD.CHEX.PP.CD","value":"Current health expenditure per capita, PPP (current international $)"},"country":{"id":"1A","value":"Arab World"},"countryiso3code":"ARB","date":"2017","value":null,"unit":"","obs_status":"","decimal":2},{"indicator":{"id":"SH.XPD.CHEX.PP.CD","value":"Current health expenditure per capita, PPP (current international $)"},"country":{"id":"1A","value":"Arab World"},"countryiso3code":"ARB","date":"2016","value":1014.5592220972,"unit":"","obs_status":"","decimal":2},{"indicator":{"id":"SH.XPD.CHEX.PP.CD","value":"Current health expenditure per capita, PPP (current international $)"},"country":{"id":"1A","value":"Arab World"},"countryiso3code":"ARB","date":"2015","value":891.381760821172,"unit":"","obs_status":"","decimal":2},{"indicator":{"id":"SH.XPD.CHEX.PP.CD","value":"Current health expenditure per capita, PPP (current international $)"},"country":{"id":"1A","value":"Arab World"},"countryiso3code":"ARB","date":"2014","value":808.801032044334,"unit":"","obs_status":"","decimal":2},{"indicator":{"id":"SH.XPD.CHEX.PP.CD","value":"Current health expenditure per capita, PPP (current international $)"},"country":{"id":"1A","value":"Arab World"},"countryiso3code":"ARB","date":"2013","value":739.046926834311,"unit":"","obs_status":"","decimal":2},{"indicator":{"id":"SH.XPD.CHEX.PP.CD","value":"Current health expenditure per capita, PPP (current international $)"},"country":{"id":"1A","value":"Arab World"},"countryiso3code":"ARB","date":"2012","value":656.825184870866,"unit":"","obs_status":"","decimal":2},{"indicator":{"id":"SH.XPD.CHEX.PP.CD","value":"Current health expenditure per capita, PPP (current international $)"},"country":{"id":"1A","value":"Arab World"},"countryiso3code":"ARB","date":"2011","value":619.640375834412,"unit":"","obs_status":"","decimal":2},{"indicator":{"id":"SH.XPD.CHEX.PP.CD","value":"Current health expenditure per capita, PPP (current international $)"},"country":{"id":"1A","value":"Arab World"},"countryiso3code":"ARB","date":"2010","value":598.659812252539,"unit":"","obs_status":"","decimal":2},{"indicator":{"id":"SH.XPD.CHEX.PP.CD","value":"Current health expenditure per capita, PPP (current international $)"},"country":{"id":"1A","value":"Arab World"},"countryiso3code":"ARB","date":"2009","value":638.619651047366,"unit":"","obs_status":"","decimal":2},{"indicator":{"id":"SH.XPD.CHEX.PP.CD","value":"Current health expenditure per capita, PPP (current international $)"},"country":{"id":"1A","value":"Arab World"},"countryiso3code":"ARB","date":"2008","value":520.408571498809,"unit":"","obs_status":"","decimal":2},{"indicator":{"id":"SH.XPD.CHEX.PP.CD","value":"Current health expenditure per capita, PPP (current international $)"},"country":{"id":"1A","value":"Arab World"},"countryiso3code":"ARB","date":"2007","value":515.436780940655,"unit":"","obs_status":"","decimal":2},{"indicator":{"id":"SH.XPD.CHEX.PP.CD","value":"Current health expenditure per capita, PPP (current international $)"},"country":{"id":"1A","value":"Arab World"},"countryiso3code":"ARB","date":"2006","value":478.476069605681,"unit":"","obs_status":"","decimal":2},{"indicator":{"id":"SH.XPD.CHEX.PP.CD","value":"Current health expenditure per capita, PPP (current international $)"},"country":{"id":"1A","value":"Arab World"},"countryiso3code":"ARB","date":"2005","value":446.477649234473,"unit":"","obs_status":"","decimal":2},{"indicator":{"id":"SH.XPD.CHEX.PP.CD","value":"Current health expenditure per capita, PPP (current international $)"},"country":{"id":"1A","value":"Arab World"},"countryiso3code":"ARB","date":"2004","value":446.040743724688,"unit":"","obs_status":"","decimal":2},{"indicator":{"id":"SH.XPD.CHEX.PP.CD","value":"Current health expenditure per capita, PPP (current international $)"},"country":{"id":"1A","value":"Arab World"},"countryiso3code":"ARB","date":"2003","value":432.402853958543,"unit":"","obs_status":"","decimal":2},{"indicator":{"id":"SH.XPD.CHEX.PP.CD","value":"Current health expenditure per capita, PPP (current international $)"},"country":{"id":"1A","value":"Arab World"},"countryiso3code":"ARB","date":"2002","value":439.455554241776,"unit":"","obs_status":"","decimal":2},{"indicator":{"id":"SH.XPD.CHEX.PP.CD","value":"Current health expenditure per capita, PPP (current international $)"},"country":{"id":"1A","value":"Arab World"},"countryiso3code":"ARB","date":"2001","value":435.94869964093,"unit":"","obs_status":"","decimal":2},{"indicator":{"id":"SH.XPD.CHEX.PP.CD","value":"Current health expenditure per capita, PPP (current international $)"},"country":{"id":"1A","value":"Arab World"},"countryiso3code":"ARB","date":"2000","value":396.211319683982,"unit":"","obs_status":"","decimal":2},{"indicator":{"id":"SH.XPD.CHEX.PP.CD","value":"Current health expenditure per capita, PPP (current international $)"},"country":{"id":"1A","value":"Arab World"},"countryiso3code":"ARB","date":"1999","value":null,"unit":"","obs_status":"","decimal":2},{"indicator":{"id":"SH.XPD.CHEX.PP.CD","value":"Current health expenditure per capita, PPP (current international $)"},"country":{"id":"1A","value":"Arab World"},"countryiso3code":"ARB","date":"1998","value":null,"unit":"","obs_status":"","decimal":2},{"indicator":{"id":"SH.XPD.CHEX.PP.CD","value":"Current health expenditure per capita, PPP (current international $)"},"country":{"id":"1A","value":"Arab World"},"countryiso3code":"ARB","date":"1997","value":null,"unit":"","obs_status":"","decimal":2},{"indicator":{"id":"SH.XPD.CHEX.PP.CD","value":"Current health expenditure per capita, PPP (current international $)"},"country":{"id":"1A","value":"Arab World"},"countryiso3code":"ARB","date":"1996","value":null,"unit":"","obs_status":"","decimal":2},{"indicator":{"id":"SH.XPD.CHEX.PP.CD","value":"Current health expenditure per capita, PPP (current international $)"},"country":{"id":"1A","value":"Arab World"},"countryiso3code":"ARB","date":"1995","value":null,"unit":"","obs_status":"","decimal":2},{"indicator":{"id":"SH.XPD.CHEX.PP.CD","value":"Current health expenditure per capita, PPP (current international $)"},"country":{"id":"1A","value":"Arab World"},"countryiso3code":"ARB","date":"1994","value":null,"unit":"","obs_status":"","decimal":2},{"indicator":{"id":"SH.XPD.CHEX.PP.CD","value":"Current health expenditure per capita, PPP (current international $)"},"country":{"id":"1A","value":"Arab World"},"countryiso3code":"ARB","date":"1993","value":null,"unit":"","obs_status":"","decimal":2},{"indicator":{"id":"SH.XPD.CHEX.PP.CD","value":"Current health expenditure per capita, PPP (current international $)"},"country":{"id":"1A","value":"Arab World"},"countryiso3code":"ARB","date":"1992","value":null,"unit":"","obs_status":"","decimal":2},{"indicator":{"id":"SH.XPD.CHEX.PP.CD","value":"Current health expenditure per capita, PPP (current international $)"},"country":{"id":"1A","value":"Arab World"},"countryiso3code":"ARB","date":"1991","value":null,"unit":"","obs_status":"","decimal":2},{"indicator":{"id":"SH.XPD.CHEX.PP.CD","value":"Current health expenditure per capita, PPP (current international $)"},"country":{"id":"1A","value":"Arab World"},"countryiso3code":"ARB","date":"1990","value":null,"unit":"","obs_status":"","decimal":2},{"indicator":{"id":"SH.XPD.CHEX.PP.CD","value":"Current health expenditure per capita, PPP (current international $)"},"country":{"id":"1A","value":"Arab World"},"countryiso3code":"ARB","date":"1989","value":null,"unit":"","obs_status":"","decimal":2},{"indicator":{"id":"SH.XPD.CHEX.PP.CD","value":"Current health expenditure per capita, PPP (current international $)"},"country":{"id":"1A","value":"Arab World"},"countryiso3code":"ARB","date":"1988","value":null,"unit":"","obs_status":"","decimal":2},{"indicator":{"id":"SH.XPD.CHEX.PP.CD","value":"Current health expenditure per capita, PPP (current international $)"},"country":{"id":"1A","value":"Arab World"},"countryiso3code":"ARB","date":"1987","value":null,"unit":"","obs_status":"","decimal":2},{"indicator":{"id":"SH.XPD.CHEX.PP.CD","value":"Current health expenditure per capita, PPP (current international $)"},"country":{"id":"1A","value":"Arab World"},"countryiso3code":"ARB","date":"1986","value":null,"unit":"","obs_status":"","decimal":2},{"indicator":{"id":"SH.XPD.CHEX.PP.CD","value":"Current health expenditure per capita, PPP (current international $)"},"country":{"id":"1A","value":"Arab World"},"countryiso3code":"ARB","date":"1985","value":null,"unit":"","obs_status":"","decimal":2},{"indicator":{"id":"SH.XPD.CHEX.PP.CD","value":"Current health expenditure per capita, PPP (current international $)"},"country":{"id":"1A","value":"Arab World"},"countryiso3code":"ARB","date":"1984","value":null,"unit":"","obs_status":"","decimal":2},{"indicator":{"id":"SH.XPD.CHEX.PP.CD","value":"Current health expenditure per capita, PPP (current international $)"},"country":{"id":"1A","value":"Arab World"},"countryiso3code":"ARB","date":"1983","value":null,"unit":"","obs_status":"","decimal":2},{"indicator":{"id":"SH.XPD.CHEX.PP.CD","value":"Current health expenditure per capita, PPP (current international $)"},"country":{"id":"1A","value":"Arab World"},"countryiso3code":"ARB","date":"1982","value":null,"unit":"","obs_status":"","decimal":2},{"indicator":{"id":"SH.XPD.CHEX.PP.CD","value":"Current health expenditure per capita, PPP (current international $)"},"country":{"id":"1A","value":"Arab World"},"countryiso3code":"ARB","date":"1981","value":null,"unit":"","obs_status":"","decimal":2},{"indicator":{"id":"SH.XPD.CHEX.PP.CD","value":"Current health expenditure per capita, PPP (current international $)"},"country":{"id":"1A","value":"Arab World"},"countryiso3code":"ARB","date":"1980","value":null,"unit":"","obs_status":"","decimal":2},{"indicator":{"id":"SH.XPD.CHEX.PP.CD","value":"Current health expenditure per capita, PPP (current international $)"},"country":{"id":"1A","value":"Arab World"},"countryiso3code":"ARB","date":"1979","value":null,"unit":"","obs_status":"","decimal":2},{"indicator":{"id":"SH.XPD.CHEX.PP.CD","value":"Current health expenditure per capita, PPP (current international $)"},"country":{"id":"1A","value":"Arab World"},"countryiso3code":"ARB","date":"1978","value":null,"unit":"","obs_status":"","decimal":2},{"indicator":{"id":"SH.XPD.CHEX.PP.CD","value":"Current health expenditure per capita, PPP (current international $)"},"country":{"id":"1A","value":"Arab World"},"countryiso3code":"ARB","date":"1977","value":null,"unit":"","obs_status":"","decimal":2},{"indicator":{"id":"SH.XPD.CHEX.PP.CD","value":"Current health expenditure per capita, PPP (current international $)"},"country":{"id":"1A","value":"Arab World"},"countryiso3code":"ARB","date":"1976","value":null,"unit":"","obs_status":"","decimal":2},{"indicator":{"id":"SH.XPD.CHEX.PP.CD","value":"Current health expenditure per capita, PPP (current international $)"},"country":{"id":"1A","value":"Arab World"},"countryiso3code":"ARB","date":"1975","value":null,"unit":"","obs_status":"","decimal":2},{"indicator":{"id":"SH.XPD.CHEX.PP.CD","value":"Current health expenditure per capita, PPP (current international $)"},"country":{"id":"1A","value":"Arab World"},"countryiso3code":"ARB","date":"1974","value":null,"unit":"","obs_status":"","decimal":2},{"indicator":{"id":"SH.XPD.CHEX.PP.CD","value":"Current health expenditure per capita, PPP (current international $)"},"country":{"id":"1A","value":"Arab World"},"countryiso3code":"ARB","date":"1973","value":null,"unit":"","obs_status":"","decimal":2},{"indicator":{"id":"SH.XPD.CHEX.PP.CD","value":"Current health expenditure per capita, PPP (current international $)"},"country":{"id":"1A","value":"Arab World"},"countryiso3code":"ARB","date":"1972","value":null,"unit":"","obs_status":"","decimal":2},{"indicator":{"id":"SH.XPD.CHEX.PP.CD","value":"Current health expenditure per capita, PPP (current international $)"},"country":{"id":"1A","value":"Arab World"},"countryiso3code":"ARB","date":"1971","value":null,"unit":"","obs_status":"","decimal":2},{"indicator":{"id":"SH.XPD.CHEX.PP.CD","value":"Current health expenditure per capita, PPP (current international $)"},"country":{"id":"1A","value":"Arab World"},"countryiso3code":"ARB","date":"1970","value":null,"unit":"","obs_status":"","decimal":2}]]