[{"page":1,"pages":317,"per_page":50,"total":15840,"sourceid":"2","lastupdated":"2020-03-18"},[{"indicator":{"id":"SH.STA.BASS.RU.ZS","value":"People using at least basic sanitation services, rural (% of rural population)"},"country":{"id":"1A","value":"Arab World"},"countryiso3code":"ARB","date":"2019","value":null,"unit":"","obs_status":"","decimal":0},{"indicator":{"id":"SH.STA.BASS.RU.ZS","value":"People using at least basic sanitation services, rural (% of rural population)"},"country":{"id":"1A","value":"Arab World"},"countryiso3code":"ARB","date":"2018","value":null,"unit":"","obs_status":"","decimal":0},{"indicator":{"id":"SH.STA.BASS.RU.ZS","value":"People using at least basic sanitation services, rural (% of rural population)"},"country":{"id":"1A","value":"Arab World"},"countryiso3code":"ARB","date":"2017","value":67.9196892316858,"unit":"","obs_status":"","decimal":0},{"indicator":{"id":"SH.STA.BASS.RU.ZS","value":"People using at least basic sanitation services, rural (% of rural population)"},"country":{"id":"1A","value":"Arab World"},"countryiso3code":"ARB","date":"2016","value":67.7646083560896,"unit":"","obs_status":"","decimal":0},{"indicator":{"id":"SH.STA.BASS.RU.ZS","value":"People using at least basic sanitation services, rural (% of rural population)"},"country":{"id":"1A","value":"Arab World"},"countryiso3code":"ARB","date":"2015","value":67.2425884082222,"unit":"","obs_status":"","decimal":0},{"indicator":{"id":"SH.STA.BASS.RU.ZS","value":"People using at least basic sanitation services, rural (% of rural population)"},"country":{"id":"1A","value":"Arab World"},"countryiso3code":"ARB","date":"2014","value":66.5440656390744,"unit":"","obs_status":"","decimal":0},{"indicator":{"id":"SH.STA.BASS.RU.ZS","value":"People using at least basic sanitation services, rural (% of rural population)"},"country":{"id":"1A","value":"Arab World"},"countryiso3code":"ARB","date":"2013","value":65.7989409185319,"unit":"","obs_status":"","decimal":0},{"indicator":{"id":"SH.STA.BASS.RU.ZS","value":"People using at least basic sanitation services, rural (% of rural population)"},"country":{"id":"1A","value":"Arab World"},"countryiso3code":"ARB","date":"2012","value":65.0205842065408,"unit":"","obs_status":"","decimal":0},{"indicator":{"id":"SH.STA.BASS.RU.ZS","value":"People using at least basic sanitation services, rural (% of rural population)"},"country":{"id":"1A","value":"Arab World"},"countryiso3code":"ARB","date":"2011","value":64.2354369854723,"unit":"","obs_status":"","decimal":0},{"indicator":{"id":"SH.STA.BASS.RU.ZS","value":"People using at least basic sanitation services, rural (% of rural population)"},"country":{"id":"1A","value":"Arab World"},"countryiso3code":"ARB","date":"2010","value":63.3937803505574,"unit":"","obs_status":"","decimal":0},{"indicator":{"id":"SH.STA.BASS.RU.ZS","value":"People using at least basic sanitation services, rural (% of rural population)"},"country":{"id":"1A","value":"Arab World"},"countryiso3code":"ARB","date":"2009","value":62.5885006810391,"unit":"","obs_status":"","decimal":0},{"indicator":{"id":"SH.STA.BASS.RU.ZS","value":"People using at least basic sanitation services, rural (% of rural population)"},"country":{"id":"1A","value":"Arab World"},"countryiso3code":"ARB","date":"2008","value":61.7698884916396,"unit":"","obs_status":"","decimal":0},{"indicator":{"id":"SH.STA.BASS.RU.ZS","value":"People using at least basic sanitation services, rural (% of rural population)"},"country":{"id":"1A","value":"Arab World"},"countryiso3code":"ARB","date":"2007","value":60.9463461355941,"unit":"","obs_status":"","decimal":0},{"indicator":{"id":"SH.STA.BASS.RU.ZS","value":"People using at least basic sanitation services, rural (% of rural population)"},"country":{"id":"1A","value":"Arab World"},"countryiso3code":"ARB","date":"2006","value":60.3022763782352,"unit":"","obs_status":"","decimal":0},{"indicator":{"id":"SH.STA.BASS.RU.ZS","value":"People using at least basic sanitation services, rural (% of rural population)"},"country":{"id":"1A","value":"Arab World"},"countryiso3code":"ARB","date":"2005","value":59.5522059886143,"unit":"","obs_status":"","decimal":0},{"indicator":{"id":"SH.STA.BASS.RU.ZS","value":"People using at least basic sanitation services, rural (% of rural population)"},"country":{"id":"1A","value":"Arab World"},"countryiso3code":"ARB","date":"2004","value":58.8250529681075,"unit":"","obs_status":"","decimal":0},{"indicator":{"id":"SH.STA.BASS.RU.ZS","value":"People using at least basic sanitation services, rural (% of rural population)"},"country":{"id":"1A","value":"Arab World"},"countryiso3code":"ARB","date":"2003","value":58.264358374781,"unit":"","obs_status":"","decimal":0},{"indicator":{"id":"SH.STA.BASS.RU.ZS","value":"People using at least basic sanitation services, rural (% of rural population)"},"country":{"id":"1A","value":"Arab World"},"countryiso3code":"ARB","date":"2002","value":57.7214556233252,"unit":"","obs_status":"","decimal":0},{"indicator":{"id":"SH.STA.BASS.RU.ZS","value":"People using at least basic sanitation services, rural (% of rural population)"},"country":{"id":"1A","value":"Arab World"},"countryiso3code":"ARB","date":"2001","value":57.3356806284078,"unit":"","obs_status":"","decimal":0},{"indicator":{"id":"SH.STA.BASS.RU.ZS","value":"People using at least basic sanitation services, rural (% of rural population)"},"country":{"id":"1A","value":"Arab World"},"countryiso3code":"ARB","date":"2000","value":56.9947061078914,"unit":"","obs_status":"","decimal":0},{"indicator":{"id":"SH.STA.BASS.RU.ZS","value":"People using at least basic sanitation services, rural (% of rural population)"},"country":{"id":"1A","value":"Arab World"},"countryiso3code":"ARB","date":"1999","value":null,"unit":"","obs_status":"","decimal":0},{"indicator":{"id":"SH.STA.BASS.RU.ZS","value":"People using at least basic sanitation services, rural (% of rural population)"},"country":{"id":"1A","value":"Arab World"},"countryiso3code":"ARB","date":"1998","value":null,"unit":"","obs_status":"","decimal":0},{"indicator":{"id":"SH.STA.BASS.RU.ZS","value":"People using at least basic sanitation services, rural (% of rural population)"},"country":{"id":"1A","value":"Arab World"},"countryiso3code":"ARB","date":"1997","value":null,"unit":"","obs_status":"","decimal":0},{"indicator":{"id":"SH.STA.BASS.RU.ZS","value":"People using at least basic sanitation services, rural (% of rural population)"},"country":{"id":"1A","value":"Arab World"},"countryiso3code":"ARB","date":"1996","value":null,"unit":"","obs_status":"","decimal":0},{"indicator":{"id":"SH.STA.BASS.RU.ZS","value":"People using at least basic sanitation services, rural (% of rural population)"},"country":{"id":"1A","value":"Arab World"},"countryiso3code":"ARB","date":"1995","value":null,"unit":"","obs_status":"","decimal":0},{"indicator":{"id":"SH.STA.BASS.RU.ZS","value":"People using at least basic sanitation services, rural (% of rural population)"},"country":{"id":"1A","value":"Arab World"},"countryiso3code":"ARB","date":"1994","value":null,"unit":"","obs_status":"","decimal":0},{"indicator":{"id":"SH.STA.BASS.RU.ZS","value":"People using at least basic sanitation services, rural (% of rural population)"},"country":{"id":"1A","value":"Arab World"},"countryiso3code":"ARB","date":"1993","value":null,"unit":"","obs_status":"","decimal":0},{"indicator":{"id":"SH.STA.BASS.RU.ZS","value":"People using at least basic sanitation services, rural (% of rural population)"},"country":{"id":"1A","value":"Arab World"},"countryiso3code":"ARB","date":"1992","value":null,"unit":"","obs_status":"","decimal":0},{"indicator":{"id":"SH.STA.BASS.RU.ZS","value":"People using at least basic sanitation services, rural (% of rural population)"},"country":{"id":"1A","value":"Arab World"},"countryiso3code":"ARB","date":"1991","value":null,"unit":"","obs_status":"","decimal":0},{"indicator":{"id":"SH.STA.BASS.RU.ZS","value":"People using at least basic sanitation services, rural (% of rural population)"},"country":{"id":"1A","value":"Arab World"},"countryiso3code":"ARB","date":"1990","value":null,"unit":"","obs_status":"","decimal":0},{"indicator":{"id":"SH.STA.BASS.RU.ZS","value":"People using at least basic sanitation services, rural (% of rural population)"},"country":{"id":"1A","value":"Arab World"},"countryiso3code":"ARB","date":"1989","value":null,"unit":"","obs_status":"","decimal":0},{"indicator":{"id":"SH.STA.BASS.RU.ZS","value":"People using at least basic sanitation services, rural (% of rural population)"},"country":{"id":"1A","value":"Arab World"},"countryiso3code":"ARB","date":"1988","value":null,"unit":"","obs_status":"","decimal":0},{"indicator":{"id":"SH.STA.BASS.RU.ZS","value":"People using at least basic sanitation services, rural (% of rural population)"},"country":{"id":"1A","value":"Arab World"},"countryiso3code":"ARB","date":"1987","value":null,"unit":"","obs_status":"","decimal":0},{"indicator":{"id":"SH.STA.BASS.RU.ZS","value":"People using at least basic sanitation services, rural (% of rural population)"},"country":{"id":"1A","value":"Arab World"},"countryiso3code":"ARB","date":"1986","value":null,"unit":"","obs_status":"","decimal":0},{"indicator":{"id":"SH.STA.BASS.RU.ZS","value":"People using at least basic sanitation services, rural (% of rural population)"},"country":{"id":"1A","value":"Arab World"},"countryiso3code":"ARB","date":"1985","value":null,"unit":"","obs_status":"","decimal":0},{"indicator":{"id":"SH.STA.BASS.RU.ZS","value":"People using at least basic sanitation services, rural (% of rural population)"},"country":{"id":"1A","value":"Arab World"},"countryiso3code":"ARB","date":"1984","value":null,"unit":"","obs_status":"","decimal":0},{"indicator":{"id":"SH.STA.BASS.RU.ZS","value":"People using at least basic sanitation services, rural (% of rural population)"},"country":{"id":"1A","value":"Arab World"},"countryiso3code":"ARB","date":"1983","value":null,"unit":"","obs_status":"","decimal":0},{"indicator":{"id":"SH.STA.BASS.RU.ZS","value":"People using at least basic sanitation services, rural (% of rural population)"},"country":{"id":"1A","value":"Arab World"},"countryiso3code":"ARB","date":"1982","value":null,"unit":"","obs_status":"","decimal":0},{"indicator":{"id":"SH.STA.BASS.RU.ZS","value":"People using at least basic sanitation services, rural (% of rural population)"},"country":{"id":"1A","value":"Arab World"},"countryiso3code":"ARB","date":"1981","value":null,"unit":"","obs_status":"","decimal":0},{"indicator":{"id":"SH.STA.BASS.RU.ZS","value":"People using at least basic sanitation services, rural (% of rural population)"},"country":{"id":"1A","value":"Arab World"},"countryiso3code":"ARB","date":"1980","value":null,"unit":"","obs_status":"","decimal":0},{"indicator":{"id":"SH.STA.BASS.RU.ZS","value":"People using at least basic sanitation services, rural (% of rural population)"},"country":{"id":"1A","value":"Arab World"},"countryiso3code":"ARB","date":"1979","value":null,"unit":"","obs_status":"","decimal":0},{"indicator":{"id":"SH.STA.BASS.RU.ZS","value":"People using at least basic sanitation services, rural (% of rural population)"},"country":{"id":"1A","value":"Arab World"},"countryiso3code":"ARB","date":"1978","value":null,"unit":"","obs_status":"","decimal":0},{"indicator":{"id":"SH.STA.BASS.RU.ZS","value":"People using at least basic sanitation services, rural (% of rural population)"},"country":{"id":"1A","value":"Arab World"},"countryiso3code":"ARB","date":"1977","value":null,"unit":"","obs_status":"","decimal":0},{"indicator":{"id":"SH.STA.BASS.RU.ZS","value":"People using at least basic sanitation services, rural (% of rural population)"},"country":{"id":"1A","value":"Arab World"},"countryiso3code":"ARB","date":"1976","value":null,"unit":"","obs_status":"","decimal":0},{"indicator":{"id":"SH.STA.BASS.RU.ZS","value":"People using at least basic sanitation services, rural (% of rural population)"},"country":{"id":"1A","value":"Arab World"},"countryiso3code":"ARB","date":"1975","value":null,"unit":"","obs_status":"","decimal":0},{"indicator":{"id":"SH.STA.BASS.RU.ZS","value":"People using at least basic sanitation services, rural (% of rural population)"},"country":{"id":"1A","value":"Arab World"},"countryiso3code":"ARB","date":"1974","value":null,"unit":"","obs_status":"","decimal":0},{"indicator":{"id":"SH.STA.BASS.RU.ZS","value":"People using at least basic sanitation services, rural (% of rural population)"},"country":{"id":"1A","value":"Arab World"},"countryiso3code":"ARB","date":"1973","value":null,"unit":"","obs_status":"","decimal":0},{"indicator":{"id":"SH.STA.BASS.RU.ZS","value":"People using at least basic sanitation services, rural (% of rural population)"},"country":{"id":"1A","value":"Arab World"},"countryiso3code":"ARB","date":"1972","value":null,"unit":"","obs_status":"","decimal":0},{"indicator":{"id":"SH.STA.BASS.RU.ZS","value":"People using at least basic sanitation services, rural (% of rural population)"},"country":{"id":"1A","value":"Arab World"},"countryiso3code":"ARB","date":"1971","value":null,"unit":"","obs_status":"","decimal":0},{"indicator":{"id":"SH.STA.BASS.RU.ZS","value":"People using at least basic sanitation services, rural (% of rural population)"},"country":{"id":"1A","value":"Arab World"},"countryiso3code":"ARB","date":"1970","value":null,"unit":"","obs_status":"","decimal":0}]]