[{"page":1,"pages":317,"per_page":50,"total":15840,"sourceid":"2","lastupdated":"2020-03-18"},[{"indicator":{"id":"SH.STA.HYGN.ZS","value":"People with basic handwashing facilities including soap and water (% of population)"},"country":{"id":"1A","value":"Arab World"},"countryiso3code":"ARB","date":"2019","value":null,"unit":"","obs_status":"","decimal":2},{"indicator":{"id":"SH.STA.HYGN.ZS","value":"People with basic handwashing facilities including soap and water (% of population)"},"country":{"id":"1A","value":"Arab World"},"countryiso3code":"ARB","date":"2018","value":null,"unit":"","obs_status":"","decimal":2},{"indicator":{"id":"SH.STA.HYGN.ZS","value":"People with basic handwashing facilities including soap and water (% of population)"},"country":{"id":"1A","value":"Arab World"},"countryiso3code":"ARB","date":"2017","value":70.1717347207878,"unit":"","obs_status":"","decimal":2},{"indicator":{"id":"SH.STA.HYGN.ZS","value":"People with basic handwashing facilities including soap and water (% of population)"},"country":{"id":"1A","value":"Arab World"},"countryiso3code":"ARB","date":"2016","value":70.0046593617885,"unit":"","obs_status":"","decimal":2},{"indicator":{"id":"SH.STA.HYGN.ZS","value":"People with basic handwashing facilities including soap and water (% of population)"},"country":{"id":"1A","value":"Arab World"},"countryiso3code":"ARB","date":"2015","value":69.4906179134644,"unit":"","obs_status":"","decimal":2},{"indicator":{"id":"SH.STA.HYGN.ZS","value":"People with basic handwashing facilities including soap and water (% of population)"},"country":{"id":"1A","value":"Arab World"},"countryiso3code":"ARB","date":"2014","value":68.9678694909256,"unit":"","obs_status":"","decimal":2},{"indicator":{"id":"SH.STA.HYGN.ZS","value":"People with basic handwashing facilities including soap and water (% of population)"},"country":{"id":"1A","value":"Arab World"},"countryiso3code":"ARB","date":"2013","value":null,"unit":"","obs_status":"","decimal":2},{"indicator":{"id":"SH.STA.HYGN.ZS","value":"People with basic handwashing facilities including soap and water (% of population)"},"country":{"id":"1A","value":"Arab World"},"countryiso3code":"ARB","date":"2012","value":null,"unit":"","obs_status":"","decimal":2},{"indicator":{"id":"SH.STA.HYGN.ZS","value":"People with basic handwashing facilities including soap and water (% of population)"},"country":{"id":"1A","value":"Arab World"},"countryiso3code":"ARB","date":"2011","value":null,"unit":"","obs_status":"","decimal":2},{"indicator":{"id":"SH.STA.HYGN.ZS","value":"People with basic handwashing facilities including soap and water (% of population)"},"country":{"id":"1A","value":"Arab World"},"countryiso3code":"ARB","date":"2010","value":null,"unit":"","obs_status":"","decimal":2},{"indicator":{"id":"SH.STA.HYGN.ZS","value":"People with basic handwashing facilities including soap and water (% of population)"},"country":{"id":"1A","value":"Arab World"},"countryiso3code":"ARB","date":"2009","value":null,"unit":"","obs_status":"","decimal":2},{"indicator":{"id":"SH.STA.HYGN.ZS","value":"People with basic handwashing facilities including soap and water (% of population)"},"country":{"id":"1A","value":"Arab World"},"countryiso3code":"ARB","date":"2008","value":null,"unit":"","obs_status":"","decimal":2},{"indicator":{"id":"SH.STA.HYGN.ZS","value":"People with basic handwashing facilities including soap and water (% of population)"},"country":{"id":"1A","value":"Arab World"},"countryiso3code":"ARB","date":"2007","value":null,"unit":"","obs_status":"","decimal":2},{"indicator":{"id":"SH.STA.HYGN.ZS","value":"People with basic handwashing facilities including soap and water (% of population)"},"country":{"id":"1A","value":"Arab World"},"countryiso3code":"ARB","date":"2006","value":null,"unit":"","obs_status":"","decimal":2},{"indicator":{"id":"SH.STA.HYGN.ZS","value":"People with basic handwashing facilities including soap and water (% of population)"},"country":{"id":"1A","value":"Arab World"},"countryiso3code":"ARB","date":"2005","value":null,"unit":"","obs_status":"","decimal":2},{"indicator":{"id":"SH.STA.HYGN.ZS","value":"People with basic handwashing facilities including soap and water (% of population)"},"country":{"id":"1A","value":"Arab World"},"countryiso3code":"ARB","date":"2004","value":null,"unit":"","obs_status":"","decimal":2},{"indicator":{"id":"SH.STA.HYGN.ZS","value":"People with basic handwashing facilities including soap and water (% of population)"},"country":{"id":"1A","value":"Arab World"},"countryiso3code":"ARB","date":"2003","value":null,"unit":"","obs_status":"","decimal":2},{"indicator":{"id":"SH.STA.HYGN.ZS","value":"People with basic handwashing facilities including soap and water (% of population)"},"country":{"id":"1A","value":"Arab World"},"countryiso3code":"ARB","date":"2002","value":null,"unit":"","obs_status":"","decimal":2},{"indicator":{"id":"SH.STA.HYGN.ZS","value":"People with basic handwashing facilities including soap and water (% of population)"},"country":{"id":"1A","value":"Arab World"},"countryiso3code":"ARB","date":"2001","value":null,"unit":"","obs_status":"","decimal":2},{"indicator":{"id":"SH.STA.HYGN.ZS","value":"People with basic handwashing facilities including soap and water (% of population)"},"country":{"id":"1A","value":"Arab World"},"countryiso3code":"ARB","date":"2000","value":null,"unit":"","obs_status":"","decimal":2},{"indicator":{"id":"SH.STA.HYGN.ZS","value":"People with basic handwashing facilities including soap and water (% of population)"},"country":{"id":"1A","value":"Arab World"},"countryiso3code":"ARB","date":"1999","value":null,"unit":"","obs_status":"","decimal":2},{"indicator":{"id":"SH.STA.HYGN.ZS","value":"People with basic handwashing facilities including soap and water (% of population)"},"country":{"id":"1A","value":"Arab World"},"countryiso3code":"ARB","date":"1998","value":null,"unit":"","obs_status":"","decimal":2},{"indicator":{"id":"SH.STA.HYGN.ZS","value":"People with basic handwashing facilities including soap and water (% of population)"},"country":{"id":"1A","value":"Arab World"},"countryiso3code":"ARB","date":"1997","value":null,"unit":"","obs_status":"","decimal":2},{"indicator":{"id":"SH.STA.HYGN.ZS","value":"People with basic handwashing facilities including soap and water (% of population)"},"country":{"id":"1A","value":"Arab World"},"countryiso3code":"ARB","date":"1996","value":null,"unit":"","obs_status":"","decimal":2},{"indicator":{"id":"SH.STA.HYGN.ZS","value":"People with basic handwashing facilities including soap and water (% of population)"},"country":{"id":"1A","value":"Arab World"},"countryiso3code":"ARB","date":"1995","value":null,"unit":"","obs_status":"","decimal":2},{"indicator":{"id":"SH.STA.HYGN.ZS","value":"People with basic handwashing facilities including soap and water (% of population)"},"country":{"id":"1A","value":"Arab World"},"countryiso3code":"ARB","date":"1994","value":null,"unit":"","obs_status":"","decimal":2},{"indicator":{"id":"SH.STA.HYGN.ZS","value":"People with basic handwashing facilities including soap and water (% of population)"},"country":{"id":"1A","value":"Arab World"},"countryiso3code":"ARB","date":"1993","value":null,"unit":"","obs_status":"","decimal":2},{"indicator":{"id":"SH.STA.HYGN.ZS","value":"People with basic handwashing facilities including soap and water (% of population)"},"country":{"id":"1A","value":"Arab World"},"countryiso3code":"ARB","date":"1992","value":null,"unit":"","obs_status":"","decimal":2},{"indicator":{"id":"SH.STA.HYGN.ZS","value":"People with basic handwashing facilities including soap and water (% of population)"},"country":{"id":"1A","value":"Arab World"},"countryiso3code":"ARB","date":"1991","value":null,"unit":"","obs_status":"","decimal":2},{"indicator":{"id":"SH.STA.HYGN.ZS","value":"People with basic handwashing facilities including soap and water (% of population)"},"country":{"id":"1A","value":"Arab World"},"countryiso3code":"ARB","date":"1990","value":null,"unit":"","obs_status":"","decimal":2},{"indicator":{"id":"SH.STA.HYGN.ZS","value":"People with basic handwashing facilities including soap and water (% of population)"},"country":{"id":"1A","value":"Arab World"},"countryiso3code":"ARB","date":"1989","value":null,"unit":"","obs_status":"","decimal":2},{"indicator":{"id":"SH.STA.HYGN.ZS","value":"People with basic handwashing facilities including soap and water (% of population)"},"country":{"id":"1A","value":"Arab World"},"countryiso3code":"ARB","date":"1988","value":null,"unit":"","obs_status":"","decimal":2},{"indicator":{"id":"SH.STA.HYGN.ZS","value":"People with basic handwashing facilities including soap and water (% of population)"},"country":{"id":"1A","value":"Arab World"},"countryiso3code":"ARB","date":"1987","value":null,"unit":"","obs_status":"","decimal":2},{"indicator":{"id":"SH.STA.HYGN.ZS","value":"People with basic handwashing facilities including soap and water (% of population)"},"country":{"id":"1A","value":"Arab World"},"countryiso3code":"ARB","date":"1986","value":null,"unit":"","obs_status":"","decimal":2},{"indicator":{"id":"SH.STA.HYGN.ZS","value":"People with basic handwashing facilities including soap and water (% of population)"},"country":{"id":"1A","value":"Arab World"},"countryiso3code":"ARB","date":"1985","value":null,"unit":"","obs_status":"","decimal":2},{"indicator":{"id":"SH.STA.HYGN.ZS","value":"People with basic handwashing facilities including soap and water (% of population)"},"country":{"id":"1A","value":"Arab World"},"countryiso3code":"ARB","date":"1984","value":null,"unit":"","obs_status":"","decimal":2},{"indicator":{"id":"SH.STA.HYGN.ZS","value":"People with basic handwashing facilities including soap and water (% of population)"},"country":{"id":"1A","value":"Arab World"},"countryiso3code":"ARB","date":"1983","value":null,"unit":"","obs_status":"","decimal":2},{"indicator":{"id":"SH.STA.HYGN.ZS","value":"People with basic handwashing facilities including soap and water (% of population)"},"country":{"id":"1A","value":"Arab World"},"countryiso3code":"ARB","date":"1982","value":null,"unit":"","obs_status":"","decimal":2},{"indicator":{"id":"SH.STA.HYGN.ZS","value":"People with basic handwashing facilities including soap and water (% of population)"},"country":{"id":"1A","value":"Arab World"},"countryiso3code":"ARB","date":"1981","value":null,"unit":"","obs_status":"","decimal":2},{"indicator":{"id":"SH.STA.HYGN.ZS","value":"People with basic handwashing facilities including soap and water (% of population)"},"country":{"id":"1A","value":"Arab World"},"countryiso3code":"ARB","date":"1980","value":null,"unit":"","obs_status":"","decimal":2},{"indicator":{"id":"SH.STA.HYGN.ZS","value":"People with basic handwashing facilities including soap and water (% of population)"},"country":{"id":"1A","value":"Arab World"},"countryiso3code":"ARB","date":"1979","value":null,"unit":"","obs_status":"","decimal":2},{"indicator":{"id":"SH.STA.HYGN.ZS","value":"People with basic handwashing facilities including soap and water (% of population)"},"country":{"id":"1A","value":"Arab World"},"countryiso3code":"ARB","date":"1978","value":null,"unit":"","obs_status":"","decimal":2},{"indicator":{"id":"SH.STA.HYGN.ZS","value":"People with basic handwashing facilities including soap and water (% of population)"},"country":{"id":"1A","value":"Arab World"},"countryiso3code":"ARB","date":"1977","value":null,"unit":"","obs_status":"","decimal":2},{"indicator":{"id":"SH.STA.HYGN.ZS","value":"People with basic handwashing facilities including soap and water (% of population)"},"country":{"id":"1A","value":"Arab World"},"countryiso3code":"ARB","date":"1976","value":null,"unit":"","obs_status":"","decimal":2},{"indicator":{"id":"SH.STA.HYGN.ZS","value":"People with basic handwashing facilities including soap and water (% of population)"},"country":{"id":"1A","value":"Arab World"},"countryiso3code":"ARB","date":"1975","value":null,"unit":"","obs_status":"","decimal":2},{"indicator":{"id":"SH.STA.HYGN.ZS","value":"People with basic handwashing facilities including soap and water (% of population)"},"country":{"id":"1A","value":"Arab World"},"countryiso3code":"ARB","date":"1974","value":null,"unit":"","obs_status":"","decimal":2},{"indicator":{"id":"SH.STA.HYGN.ZS","value":"People with basic handwashing facilities including soap and water (% of population)"},"country":{"id":"1A","value":"Arab World"},"countryiso3code":"ARB","date":"1973","value":null,"unit":"","obs_status":"","decimal":2},{"indicator":{"id":"SH.STA.HYGN.ZS","value":"People with basic handwashing facilities including soap and water (% of population)"},"country":{"id":"1A","value":"Arab World"},"countryiso3code":"ARB","date":"1972","value":null,"unit":"","obs_status":"","decimal":2},{"indicator":{"id":"SH.STA.HYGN.ZS","value":"People with basic handwashing facilities including soap and water (% of population)"},"country":{"id":"1A","value":"Arab World"},"countryiso3code":"ARB","date":"1971","value":null,"unit":"","obs_status":"","decimal":2},{"indicator":{"id":"SH.STA.HYGN.ZS","value":"People with basic handwashing facilities including soap and water (% of population)"},"country":{"id":"1A","value":"Arab World"},"countryiso3code":"ARB","date":"1970","value":null,"unit":"","obs_status":"","decimal":2}]]