[{"page":1,"pages":317,"per_page":50,"total":15840,"sourceid":"24","lastupdated":"2020-03-18"},[{"indicator":{"id":"SH.STA.SMSS.ZS","value":"People using safely managed sanitation services (% of population)"},"country":{"id":"1A","value":"Arab World"},"countryiso3code":"ARB","date":"2019","value":null,"unit":"","obs_status":"","decimal":0},{"indicator":{"id":"SH.STA.SMSS.ZS","value":"People using safely managed sanitation services (% of population)"},"country":{"id":"1A","value":"Arab World"},"countryiso3code":"ARB","date":"2018","value":null,"unit":"","obs_status":"","decimal":0},{"indicator":{"id":"SH.STA.SMSS.ZS","value":"People using safely managed sanitation services (% of population)"},"country":{"id":"1A","value":"Arab World"},"countryiso3code":"ARB","date":"2017","value":53.3971092726751,"unit":"","obs_status":"","decimal":0},{"indicator":{"id":"SH.STA.SMSS.ZS","value":"People using safely managed sanitation services (% of population)"},"country":{"id":"1A","value":"Arab World"},"countryiso3code":"ARB","date":"2016","value":52.9853609724642,"unit":"","obs_status":"","decimal":0},{"indicator":{"id":"SH.STA.SMSS.ZS","value":"People using safely managed sanitation services (% of population)"},"country":{"id":"1A","value":"Arab World"},"countryiso3code":"ARB","date":"2015","value":52.544550699563,"unit":"","obs_status":"","decimal":0},{"indicator":{"id":"SH.STA.SMSS.ZS","value":"People using safely managed sanitation services (% of population)"},"country":{"id":"1A","value":"Arab World"},"countryiso3code":"ARB","date":"2014","value":52.1109005025112,"unit":"","obs_status":"","decimal":0},{"indicator":{"id":"SH.STA.SMSS.ZS","value":"People using safely managed sanitation services (% of population)"},"country":{"id":"1A","value":"Arab World"},"countryiso3code":"ARB","date":"2013","value":51.6922774201988,"unit":"","obs_status":"","decimal":0},{"indicator":{"id":"SH.STA.SMSS.ZS","value":"People using safely managed sanitation services (% of population)"},"country":{"id":"1A","value":"Arab World"},"countryiso3code":"ARB","date":"2012","value":51.2251124171992,"unit":"","obs_status":"","decimal":0},{"indicator":{"id":"SH.STA.SMSS.ZS","value":"People using safely managed sanitation services (% of population)"},"country":{"id":"1A","value":"Arab World"},"countryiso3code":"ARB","date":"2011","value":50.7191200208085,"unit":"","obs_status":"","decimal":0},{"indicator":{"id":"SH.STA.SMSS.ZS","value":"People using safely managed sanitation services (% of population)"},"country":{"id":"1A","value":"Arab World"},"countryiso3code":"ARB","date":"2010","value":50.1548329025697,"unit":"","obs_status":"","decimal":0},{"indicator":{"id":"SH.STA.SMSS.ZS","value":"People using safely managed sanitation services (% of population)"},"country":{"id":"1A","value":"Arab World"},"countryiso3code":"ARB","date":"2009","value":49.5209378463599,"unit":"","obs_status":"","decimal":0},{"indicator":{"id":"SH.STA.SMSS.ZS","value":"People using safely managed sanitation services (% of population)"},"country":{"id":"1A","value":"Arab World"},"countryiso3code":"ARB","date":"2008","value":48.8241979634968,"unit":"","obs_status":"","decimal":0},{"indicator":{"id":"SH.STA.SMSS.ZS","value":"People using safely managed sanitation services (% of population)"},"country":{"id":"1A","value":"Arab World"},"countryiso3code":"ARB","date":"2007","value":48.1111686464586,"unit":"","obs_status":"","decimal":0},{"indicator":{"id":"SH.STA.SMSS.ZS","value":"People using safely managed sanitation services (% of population)"},"country":{"id":"1A","value":"Arab World"},"countryiso3code":"ARB","date":"2006","value":47.4049048623813,"unit":"","obs_status":"","decimal":0},{"indicator":{"id":"SH.STA.SMSS.ZS","value":"People using safely managed sanitation services (% of population)"},"country":{"id":"1A","value":"Arab World"},"countryiso3code":"ARB","date":"2005","value":46.7416191982917,"unit":"","obs_status":"","decimal":0},{"indicator":{"id":"SH.STA.SMSS.ZS","value":"People using safely managed sanitation services (% of population)"},"country":{"id":"1A","value":"Arab World"},"countryiso3code":"ARB","date":"2004","value":46.1422831655033,"unit":"","obs_status":"","decimal":0},{"indicator":{"id":"SH.STA.SMSS.ZS","value":"People using safely managed sanitation services (% of population)"},"country":{"id":"1A","value":"Arab World"},"countryiso3code":"ARB","date":"2003","value":45.6267714848939,"unit":"","obs_status":"","decimal":0},{"indicator":{"id":"SH.STA.SMSS.ZS","value":"People using safely managed sanitation services (% of population)"},"country":{"id":"1A","value":"Arab World"},"countryiso3code":"ARB","date":"2002","value":45.3760764300206,"unit":"","obs_status":"","decimal":0},{"indicator":{"id":"SH.STA.SMSS.ZS","value":"People using safely managed sanitation services (% of population)"},"country":{"id":"1A","value":"Arab World"},"countryiso3code":"ARB","date":"2001","value":45.2307910316757,"unit":"","obs_status":"","decimal":0},{"indicator":{"id":"SH.STA.SMSS.ZS","value":"People using safely managed sanitation services (% of population)"},"country":{"id":"1A","value":"Arab World"},"countryiso3code":"ARB","date":"2000","value":45.1365698007385,"unit":"","obs_status":"","decimal":0},{"indicator":{"id":"SH.STA.SMSS.ZS","value":"People using safely managed sanitation services (% of population)"},"country":{"id":"1A","value":"Arab World"},"countryiso3code":"ARB","date":"1999","value":null,"unit":"","obs_status":"","decimal":0},{"indicator":{"id":"SH.STA.SMSS.ZS","value":"People using safely managed sanitation services (% of population)"},"country":{"id":"1A","value":"Arab World"},"countryiso3code":"ARB","date":"1998","value":null,"unit":"","obs_status":"","decimal":0},{"indicator":{"id":"SH.STA.SMSS.ZS","value":"People using safely managed sanitation services (% of population)"},"country":{"id":"1A","value":"Arab World"},"countryiso3code":"ARB","date":"1997","value":null,"unit":"","obs_status":"","decimal":0},{"indicator":{"id":"SH.STA.SMSS.ZS","value":"People using safely managed sanitation services (% of population)"},"country":{"id":"1A","value":"Arab World"},"countryiso3code":"ARB","date":"1996","value":null,"unit":"","obs_status":"","decimal":0},{"indicator":{"id":"SH.STA.SMSS.ZS","value":"People using safely managed sanitation services (% of population)"},"country":{"id":"1A","value":"Arab World"},"countryiso3code":"ARB","date":"1995","value":null,"unit":"","obs_status":"","decimal":0},{"indicator":{"id":"SH.STA.SMSS.ZS","value":"People using safely managed sanitation services (% of population)"},"country":{"id":"1A","value":"Arab World"},"countryiso3code":"ARB","date":"1994","value":null,"unit":"","obs_status":"","decimal":0},{"indicator":{"id":"SH.STA.SMSS.ZS","value":"People using safely managed sanitation services (% of population)"},"country":{"id":"1A","value":"Arab World"},"countryiso3code":"ARB","date":"1993","value":null,"unit":"","obs_status":"","decimal":0},{"indicator":{"id":"SH.STA.SMSS.ZS","value":"People using safely managed sanitation services (% of population)"},"country":{"id":"1A","value":"Arab World"},"countryiso3code":"ARB","date":"1992","value":null,"unit":"","obs_status":"","decimal":0},{"indicator":{"id":"SH.STA.SMSS.ZS","value":"People using safely managed sanitation services (% of population)"},"country":{"id":"1A","value":"Arab World"},"countryiso3code":"ARB","date":"1991","value":null,"unit":"","obs_status":"","decimal":0},{"indicator":{"id":"SH.STA.SMSS.ZS","value":"People using safely managed sanitation services (% of population)"},"country":{"id":"1A","value":"Arab World"},"countryiso3code":"ARB","date":"1990","value":null,"unit":"","obs_status":"","decimal":0},{"indicator":{"id":"SH.STA.SMSS.ZS","value":"People using safely managed sanitation services (% of population)"},"country":{"id":"1A","value":"Arab World"},"countryiso3code":"ARB","date":"1989","value":null,"unit":"","obs_status":"","decimal":0},{"indicator":{"id":"SH.STA.SMSS.ZS","value":"People using safely managed sanitation services (% of population)"},"country":{"id":"1A","value":"Arab World"},"countryiso3code":"ARB","date":"1988","value":null,"unit":"","obs_status":"","decimal":0},{"indicator":{"id":"SH.STA.SMSS.ZS","value":"People using safely managed sanitation services (% of population)"},"country":{"id":"1A","value":"Arab World"},"countryiso3code":"ARB","date":"1987","value":null,"unit":"","obs_status":"","decimal":0},{"indicator":{"id":"SH.STA.SMSS.ZS","value":"People using safely managed sanitation services (% of population)"},"country":{"id":"1A","value":"Arab World"},"countryiso3code":"ARB","date":"1986","value":null,"unit":"","obs_status":"","decimal":0},{"indicator":{"id":"SH.STA.SMSS.ZS","value":"People using safely managed sanitation services (% of population)"},"country":{"id":"1A","value":"Arab World"},"countryiso3code":"ARB","date":"1985","value":null,"unit":"","obs_status":"","decimal":0},{"indicator":{"id":"SH.STA.SMSS.ZS","value":"People using safely managed sanitation services (% of population)"},"country":{"id":"1A","value":"Arab World"},"countryiso3code":"ARB","date":"1984","value":null,"unit":"","obs_status":"","decimal":0},{"indicator":{"id":"SH.STA.SMSS.ZS","value":"People using safely managed sanitation services (% of population)"},"country":{"id":"1A","value":"Arab World"},"countryiso3code":"ARB","date":"1983","value":null,"unit":"","obs_status":"","decimal":0},{"indicator":{"id":"SH.STA.SMSS.ZS","value":"People using safely managed sanitation services (% of population)"},"country":{"id":"1A","value":"Arab World"},"countryiso3code":"ARB","date":"1982","value":null,"unit":"","obs_status":"","decimal":0},{"indicator":{"id":"SH.STA.SMSS.ZS","value":"People using safely managed sanitation services (% of population)"},"country":{"id":"1A","value":"Arab World"},"countryiso3code":"ARB","date":"1981","value":null,"unit":"","obs_status":"","decimal":0},{"indicator":{"id":"SH.STA.SMSS.ZS","value":"People using safely managed sanitation services (% of population)"},"country":{"id":"1A","value":"Arab World"},"countryiso3code":"ARB","date":"1980","value":null,"unit":"","obs_status":"","decimal":0},{"indicator":{"id":"SH.STA.SMSS.ZS","value":"People using safely managed sanitation services (% of population)"},"country":{"id":"1A","value":"Arab World"},"countryiso3code":"ARB","date":"1979","value":null,"unit":"","obs_status":"","decimal":0},{"indicator":{"id":"SH.STA.SMSS.ZS","value":"People using safely managed sanitation services (% of population)"},"country":{"id":"1A","value":"Arab World"},"countryiso3code":"ARB","date":"1978","value":null,"unit":"","obs_status":"","decimal":0},{"indicator":{"id":"SH.STA.SMSS.ZS","value":"People using safely managed sanitation services (% of population)"},"country":{"id":"1A","value":"Arab World"},"countryiso3code":"ARB","date":"1977","value":null,"unit":"","obs_status":"","decimal":0},{"indicator":{"id":"SH.STA.SMSS.ZS","value":"People using safely managed sanitation services (% of population)"},"country":{"id":"1A","value":"Arab World"},"countryiso3code":"ARB","date":"1976","value":null,"unit":"","obs_status":"","decimal":0},{"indicator":{"id":"SH.STA.SMSS.ZS","value":"People using safely managed sanitation services (% of population)"},"country":{"id":"1A","value":"Arab World"},"countryiso3code":"ARB","date":"1975","value":null,"unit":"","obs_status":"","decimal":0},{"indicator":{"id":"SH.STA.SMSS.ZS","value":"People using safely managed sanitation services (% of population)"},"country":{"id":"1A","value":"Arab World"},"countryiso3code":"ARB","date":"1974","value":null,"unit":"","obs_status":"","decimal":0},{"indicator":{"id":"SH.STA.SMSS.ZS","value":"People using safely managed sanitation services (% of population)"},"country":{"id":"1A","value":"Arab World"},"countryiso3code":"ARB","date":"1973","value":null,"unit":"","obs_status":"","decimal":0},{"indicator":{"id":"SH.STA.SMSS.ZS","value":"People using safely managed sanitation services (% of population)"},"country":{"id":"1A","value":"Arab World"},"countryiso3code":"ARB","date":"1972","value":null,"unit":"","obs_status":"","decimal":0},{"indicator":{"id":"SH.STA.SMSS.ZS","value":"People using safely managed sanitation services (% of population)"},"country":{"id":"1A","value":"Arab World"},"countryiso3code":"ARB","date":"1971","value":null,"unit":"","obs_status":"","decimal":0},{"indicator":{"id":"SH.STA.SMSS.ZS","value":"People using safely managed sanitation services (% of population)"},"country":{"id":"1A","value":"Arab World"},"countryiso3code":"ARB","date":"1970","value":null,"unit":"","obs_status":"","decimal":0}]]