[{"page":1,"pages":317,"per_page":50,"total":15840,"sourceid":"12","lastupdated":"2020-03-18"},[{"indicator":{"id":"SH.H2O.BASW.RU.ZS","value":"People using at least basic drinking water services, rural (% of rural population)"},"country":{"id":"1A","value":"Arab World"},"countryiso3code":"ARB","date":"2019","value":null,"unit":"","obs_status":"","decimal":0},{"indicator":{"id":"SH.H2O.BASW.RU.ZS","value":"People using at least basic drinking water services, rural (% of rural population)"},"country":{"id":"1A","value":"Arab World"},"countryiso3code":"ARB","date":"2018","value":null,"unit":"","obs_status":"","decimal":0},{"indicator":{"id":"SH.H2O.BASW.RU.ZS","value":"People using at least basic drinking water services, rural (% of rural population)"},"country":{"id":"1A","value":"Arab World"},"countryiso3code":"ARB","date":"2017","value":77.9074057483924,"unit":"","obs_status":"","decimal":0},{"indicator":{"id":"SH.H2O.BASW.RU.ZS","value":"People using at least basic drinking water services, rural (% of rural population)"},"country":{"id":"1A","value":"Arab World"},"countryiso3code":"ARB","date":"2016","value":77.64623033922,"unit":"","obs_status":"","decimal":0},{"indicator":{"id":"SH.H2O.BASW.RU.ZS","value":"People using at least basic drinking water services, rural (% of rural population)"},"country":{"id":"1A","value":"Arab World"},"countryiso3code":"ARB","date":"2015","value":76.8803610580178,"unit":"","obs_status":"","decimal":0},{"indicator":{"id":"SH.H2O.BASW.RU.ZS","value":"People using at least basic drinking water services, rural (% of rural population)"},"country":{"id":"1A","value":"Arab World"},"countryiso3code":"ARB","date":"2014","value":75.844182514412,"unit":"","obs_status":"","decimal":0},{"indicator":{"id":"SH.H2O.BASW.RU.ZS","value":"People using at least basic drinking water services, rural (% of rural population)"},"country":{"id":"1A","value":"Arab World"},"countryiso3code":"ARB","date":"2013","value":74.7567670869595,"unit":"","obs_status":"","decimal":0},{"indicator":{"id":"SH.H2O.BASW.RU.ZS","value":"People using at least basic drinking water services, rural (% of rural population)"},"country":{"id":"1A","value":"Arab World"},"countryiso3code":"ARB","date":"2012","value":73.670326250201,"unit":"","obs_status":"","decimal":0},{"indicator":{"id":"SH.H2O.BASW.RU.ZS","value":"People using at least basic drinking water services, rural (% of rural population)"},"country":{"id":"1A","value":"Arab World"},"countryiso3code":"ARB","date":"2011","value":72.5771724306677,"unit":"","obs_status":"","decimal":0},{"indicator":{"id":"SH.H2O.BASW.RU.ZS","value":"People using at least basic drinking water services, rural (% of rural population)"},"country":{"id":"1A","value":"Arab World"},"countryiso3code":"ARB","date":"2010","value":71.4293963872164,"unit":"","obs_status":"","decimal":0},{"indicator":{"id":"SH.H2O.BASW.RU.ZS","value":"People using at least basic drinking water services, rural (% of rural population)"},"country":{"id":"1A","value":"Arab World"},"countryiso3code":"ARB","date":"2009","value":70.3109164861985,"unit":"","obs_status":"","decimal":0},{"indicator":{"id":"SH.H2O.BASW.RU.ZS","value":"People using at least basic drinking water services, rural (% of rural population)"},"country":{"id":"1A","value":"Arab World"},"countryiso3code":"ARB","date":"2008","value":69.1990051818833,"unit":"","obs_status":"","decimal":0},{"indicator":{"id":"SH.H2O.BASW.RU.ZS","value":"People using at least basic drinking water services, rural (% of rural population)"},"country":{"id":"1A","value":"Arab World"},"countryiso3code":"ARB","date":"2007","value":68.0885633510451,"unit":"","obs_status":"","decimal":0},{"indicator":{"id":"SH.H2O.BASW.RU.ZS","value":"People using at least basic drinking water services, rural (% of rural population)"},"country":{"id":"1A","value":"Arab World"},"countryiso3code":"ARB","date":"2006","value":67.1582767304121,"unit":"","obs_status":"","decimal":0},{"indicator":{"id":"SH.H2O.BASW.RU.ZS","value":"People using at least basic drinking water services, rural (% of rural population)"},"country":{"id":"1A","value":"Arab World"},"countryiso3code":"ARB","date":"2005","value":66.1095600544187,"unit":"","obs_status":"","decimal":0},{"indicator":{"id":"SH.H2O.BASW.RU.ZS","value":"People using at least basic drinking water services, rural (% of rural population)"},"country":{"id":"1A","value":"Arab World"},"countryiso3code":"ARB","date":"2004","value":65.0932656316005,"unit":"","obs_status":"","decimal":0},{"indicator":{"id":"SH.H2O.BASW.RU.ZS","value":"People using at least basic drinking water services, rural (% of rural population)"},"country":{"id":"1A","value":"Arab World"},"countryiso3code":"ARB","date":"2003","value":64.311590891106,"unit":"","obs_status":"","decimal":0},{"indicator":{"id":"SH.H2O.BASW.RU.ZS","value":"People using at least basic drinking water services, rural (% of rural population)"},"country":{"id":"1A","value":"Arab World"},"countryiso3code":"ARB","date":"2002","value":63.5487388085313,"unit":"","obs_status":"","decimal":0},{"indicator":{"id":"SH.H2O.BASW.RU.ZS","value":"People using at least basic drinking water services, rural (% of rural population)"},"country":{"id":"1A","value":"Arab World"},"countryiso3code":"ARB","date":"2001","value":63.0384740988128,"unit":"","obs_status":"","decimal":0},{"indicator":{"id":"SH.H2O.BASW.RU.ZS","value":"People using at least basic drinking water services, rural (% of rural population)"},"country":{"id":"1A","value":"Arab World"},"countryiso3code":"ARB","date":"2000","value":62.5978147796391,"unit":"","obs_status":"","decimal":0},{"indicator":{"id":"SH.H2O.BASW.RU.ZS","value":"People using at least basic drinking water services, rural (% of rural population)"},"country":{"id":"1A","value":"Arab World"},"countryiso3code":"ARB","date":"1999","value":null,"unit":"","obs_status":"","decimal":0},{"indicator":{"id":"SH.H2O.BASW.RU.ZS","value":"People using at least basic drinking water services, rural (% of rural population)"},"country":{"id":"1A","value":"Arab World"},"countryiso3code":"ARB","date":"1998","value":null,"unit":"","obs_status":"","decimal":0},{"indicator":{"id":"SH.H2O.BASW.RU.ZS","value":"People using at least basic drinking water services, rural (% of rural population)"},"country":{"id":"1A","value":"Arab World"},"countryiso3code":"ARB","date":"1997","value":null,"unit":"","obs_status":"","decimal":0},{"indicator":{"id":"SH.H2O.BASW.RU.ZS","value":"People using at least basic drinking water services, rural (% of rural population)"},"country":{"id":"1A","value":"Arab World"},"countryiso3code":"ARB","date":"1996","value":null,"unit":"","obs_status":"","decimal":0},{"indicator":{"id":"SH.H2O.BASW.RU.ZS","value":"People using at least basic drinking water services, rural (% of rural population)"},"country":{"id":"1A","value":"Arab World"},"countryiso3code":"ARB","date":"1995","value":null,"unit":"","obs_status":"","decimal":0},{"indicator":{"id":"SH.H2O.BASW.RU.ZS","value":"People using at least basic drinking water services, rural (% of rural population)"},"country":{"id":"1A","value":"Arab World"},"countryiso3code":"ARB","date":"1994","value":null,"unit":"","obs_status":"","decimal":0},{"indicator":{"id":"SH.H2O.BASW.RU.ZS","value":"People using at least basic drinking water services, rural (% of rural population)"},"country":{"id":"1A","value":"Arab World"},"countryiso3code":"ARB","date":"1993","value":null,"unit":"","obs_status":"","decimal":0},{"indicator":{"id":"SH.H2O.BASW.RU.ZS","value":"People using at least basic drinking water services, rural (% of rural population)"},"country":{"id":"1A","value":"Arab World"},"countryiso3code":"ARB","date":"1992","value":null,"unit":"","obs_status":"","decimal":0},{"indicator":{"id":"SH.H2O.BASW.RU.ZS","value":"People using at least basic drinking water services, rural (% of rural population)"},"country":{"id":"1A","value":"Arab World"},"countryiso3code":"ARB","date":"1991","value":null,"unit":"","obs_status":"","decimal":0},{"indicator":{"id":"SH.H2O.BASW.RU.ZS","value":"People using at least basic drinking water services, rural (% of rural population)"},"country":{"id":"1A","value":"Arab World"},"countryiso3code":"ARB","date":"1990","value":null,"unit":"","obs_status":"","decimal":0},{"indicator":{"id":"SH.H2O.BASW.RU.ZS","value":"People using at least basic drinking water services, rural (% of rural population)"},"country":{"id":"1A","value":"Arab World"},"countryiso3code":"ARB","date":"1989","value":null,"unit":"","obs_status":"","decimal":0},{"indicator":{"id":"SH.H2O.BASW.RU.ZS","value":"People using at least basic drinking water services, rural (% of rural population)"},"country":{"id":"1A","value":"Arab World"},"countryiso3code":"ARB","date":"1988","value":null,"unit":"","obs_status":"","decimal":0},{"indicator":{"id":"SH.H2O.BASW.RU.ZS","value":"People using at least basic drinking water services, rural (% of rural population)"},"country":{"id":"1A","value":"Arab World"},"countryiso3code":"ARB","date":"1987","value":null,"unit":"","obs_status":"","decimal":0},{"indicator":{"id":"SH.H2O.BASW.RU.ZS","value":"People using at least basic drinking water services, rural (% of rural population)"},"country":{"id":"1A","value":"Arab World"},"countryiso3code":"ARB","date":"1986","value":null,"unit":"","obs_status":"","decimal":0},{"indicator":{"id":"SH.H2O.BASW.RU.ZS","value":"People using at least basic drinking water services, rural (% of rural population)"},"country":{"id":"1A","value":"Arab World"},"countryiso3code":"ARB","date":"1985","value":null,"unit":"","obs_status":"","decimal":0},{"indicator":{"id":"SH.H2O.BASW.RU.ZS","value":"People using at least basic drinking water services, rural (% of rural population)"},"country":{"id":"1A","value":"Arab World"},"countryiso3code":"ARB","date":"1984","value":null,"unit":"","obs_status":"","decimal":0},{"indicator":{"id":"SH.H2O.BASW.RU.ZS","value":"People using at least basic drinking water services, rural (% of rural population)"},"country":{"id":"1A","value":"Arab World"},"countryiso3code":"ARB","date":"1983","value":null,"unit":"","obs_status":"","decimal":0},{"indicator":{"id":"SH.H2O.BASW.RU.ZS","value":"People using at least basic drinking water services, rural (% of rural population)"},"country":{"id":"1A","value":"Arab World"},"countryiso3code":"ARB","date":"1982","value":null,"unit":"","obs_status":"","decimal":0},{"indicator":{"id":"SH.H2O.BASW.RU.ZS","value":"People using at least basic drinking water services, rural (% of rural population)"},"country":{"id":"1A","value":"Arab World"},"countryiso3code":"ARB","date":"1981","value":null,"unit":"","obs_status":"","decimal":0},{"indicator":{"id":"SH.H2O.BASW.RU.ZS","value":"People using at least basic drinking water services, rural (% of rural population)"},"country":{"id":"1A","value":"Arab World"},"countryiso3code":"ARB","date":"1980","value":null,"unit":"","obs_status":"","decimal":0},{"indicator":{"id":"SH.H2O.BASW.RU.ZS","value":"People using at least basic drinking water services, rural (% of rural population)"},"country":{"id":"1A","value":"Arab World"},"countryiso3code":"ARB","date":"1979","value":null,"unit":"","obs_status":"","decimal":0},{"indicator":{"id":"SH.H2O.BASW.RU.ZS","value":"People using at least basic drinking water services, rural (% of rural population)"},"country":{"id":"1A","value":"Arab World"},"countryiso3code":"ARB","date":"1978","value":null,"unit":"","obs_status":"","decimal":0},{"indicator":{"id":"SH.H2O.BASW.RU.ZS","value":"People using at least basic drinking water services, rural (% of rural population)"},"country":{"id":"1A","value":"Arab World"},"countryiso3code":"ARB","date":"1977","value":null,"unit":"","obs_status":"","decimal":0},{"indicator":{"id":"SH.H2O.BASW.RU.ZS","value":"People using at least basic drinking water services, rural (% of rural population)"},"country":{"id":"1A","value":"Arab World"},"countryiso3code":"ARB","date":"1976","value":null,"unit":"","obs_status":"","decimal":0},{"indicator":{"id":"SH.H2O.BASW.RU.ZS","value":"People using at least basic drinking water services, rural (% of rural population)"},"country":{"id":"1A","value":"Arab World"},"countryiso3code":"ARB","date":"1975","value":null,"unit":"","obs_status":"","decimal":0},{"indicator":{"id":"SH.H2O.BASW.RU.ZS","value":"People using at least basic drinking water services, rural (% of rural population)"},"country":{"id":"1A","value":"Arab World"},"countryiso3code":"ARB","date":"1974","value":null,"unit":"","obs_status":"","decimal":0},{"indicator":{"id":"SH.H2O.BASW.RU.ZS","value":"People using at least basic drinking water services, rural (% of rural population)"},"country":{"id":"1A","value":"Arab World"},"countryiso3code":"ARB","date":"1973","value":null,"unit":"","obs_status":"","decimal":0},{"indicator":{"id":"SH.H2O.BASW.RU.ZS","value":"People using at least basic drinking water services, rural (% of rural population)"},"country":{"id":"1A","value":"Arab World"},"countryiso3code":"ARB","date":"1972","value":null,"unit":"","obs_status":"","decimal":0},{"indicator":{"id":"SH.H2O.BASW.RU.ZS","value":"People using at least basic drinking water services, rural (% of rural population)"},"country":{"id":"1A","value":"Arab World"},"countryiso3code":"ARB","date":"1971","value":null,"unit":"","obs_status":"","decimal":0},{"indicator":{"id":"SH.H2O.BASW.RU.ZS","value":"People using at least basic drinking water services, rural (% of rural population)"},"country":{"id":"1A","value":"Arab World"},"countryiso3code":"ARB","date":"1970","value":null,"unit":"","obs_status":"","decimal":0}]]