[{"page":1,"pages":317,"per_page":50,"total":15840,"sourceid":"2","lastupdated":"2020-03-18"},[{"indicator":{"id":"SH.STA.BASS.ZS","value":"People using at least basic sanitation services (% of population)"},"country":{"id":"1A","value":"Arab World"},"countryiso3code":"ARB","date":"2019","value":null,"unit":"","obs_status":"","decimal":0},{"indicator":{"id":"SH.STA.BASS.ZS","value":"People using at least basic sanitation services (% of population)"},"country":{"id":"1A","value":"Arab World"},"countryiso3code":"ARB","date":"2018","value":null,"unit":"","obs_status":"","decimal":0},{"indicator":{"id":"SH.STA.BASS.ZS","value":"People using at least basic sanitation services (% of population)"},"country":{"id":"1A","value":"Arab World"},"countryiso3code":"ARB","date":"2017","value":83.1122349963876,"unit":"","obs_status":"","decimal":0},{"indicator":{"id":"SH.STA.BASS.ZS","value":"People using at least basic sanitation services (% of population)"},"country":{"id":"1A","value":"Arab World"},"countryiso3code":"ARB","date":"2016","value":82.8417654257603,"unit":"","obs_status":"","decimal":0},{"indicator":{"id":"SH.STA.BASS.ZS","value":"People using at least basic sanitation services (% of population)"},"country":{"id":"1A","value":"Arab World"},"countryiso3code":"ARB","date":"2015","value":82.3500012220259,"unit":"","obs_status":"","decimal":0},{"indicator":{"id":"SH.STA.BASS.ZS","value":"People using at least basic sanitation services (% of population)"},"country":{"id":"1A","value":"Arab World"},"countryiso3code":"ARB","date":"2014","value":81.7822248605943,"unit":"","obs_status":"","decimal":0},{"indicator":{"id":"SH.STA.BASS.ZS","value":"People using at least basic sanitation services (% of population)"},"country":{"id":"1A","value":"Arab World"},"countryiso3code":"ARB","date":"2013","value":81.206258728715,"unit":"","obs_status":"","decimal":0},{"indicator":{"id":"SH.STA.BASS.ZS","value":"People using at least basic sanitation services (% of population)"},"country":{"id":"1A","value":"Arab World"},"countryiso3code":"ARB","date":"2012","value":80.5716564182019,"unit":"","obs_status":"","decimal":0},{"indicator":{"id":"SH.STA.BASS.ZS","value":"People using at least basic sanitation services (% of population)"},"country":{"id":"1A","value":"Arab World"},"countryiso3code":"ARB","date":"2011","value":79.9296209441006,"unit":"","obs_status":"","decimal":0},{"indicator":{"id":"SH.STA.BASS.ZS","value":"People using at least basic sanitation services (% of population)"},"country":{"id":"1A","value":"Arab World"},"countryiso3code":"ARB","date":"2010","value":79.2601002951649,"unit":"","obs_status":"","decimal":0},{"indicator":{"id":"SH.STA.BASS.ZS","value":"People using at least basic sanitation services (% of population)"},"country":{"id":"1A","value":"Arab World"},"countryiso3code":"ARB","date":"2009","value":78.5669380869987,"unit":"","obs_status":"","decimal":0},{"indicator":{"id":"SH.STA.BASS.ZS","value":"People using at least basic sanitation services (% of population)"},"country":{"id":"1A","value":"Arab World"},"countryiso3code":"ARB","date":"2008","value":77.8494575476503,"unit":"","obs_status":"","decimal":0},{"indicator":{"id":"SH.STA.BASS.ZS","value":"People using at least basic sanitation services (% of population)"},"country":{"id":"1A","value":"Arab World"},"countryiso3code":"ARB","date":"2007","value":77.1139317391037,"unit":"","obs_status":"","decimal":0},{"indicator":{"id":"SH.STA.BASS.ZS","value":"People using at least basic sanitation services (% of population)"},"country":{"id":"1A","value":"Arab World"},"countryiso3code":"ARB","date":"2006","value":76.4337681448279,"unit":"","obs_status":"","decimal":0},{"indicator":{"id":"SH.STA.BASS.ZS","value":"People using at least basic sanitation services (% of population)"},"country":{"id":"1A","value":"Arab World"},"countryiso3code":"ARB","date":"2005","value":75.7326333805026,"unit":"","obs_status":"","decimal":0},{"indicator":{"id":"SH.STA.BASS.ZS","value":"People using at least basic sanitation services (% of population)"},"country":{"id":"1A","value":"Arab World"},"countryiso3code":"ARB","date":"2004","value":75.0670526527644,"unit":"","obs_status":"","decimal":0},{"indicator":{"id":"SH.STA.BASS.ZS","value":"People using at least basic sanitation services (% of population)"},"country":{"id":"1A","value":"Arab World"},"countryiso3code":"ARB","date":"2003","value":74.6172114202324,"unit":"","obs_status":"","decimal":0},{"indicator":{"id":"SH.STA.BASS.ZS","value":"People using at least basic sanitation services (% of population)"},"country":{"id":"1A","value":"Arab World"},"countryiso3code":"ARB","date":"2002","value":74.1952296738185,"unit":"","obs_status":"","decimal":0},{"indicator":{"id":"SH.STA.BASS.ZS","value":"People using at least basic sanitation services (% of population)"},"country":{"id":"1A","value":"Arab World"},"countryiso3code":"ARB","date":"2001","value":73.8850969442877,"unit":"","obs_status":"","decimal":0},{"indicator":{"id":"SH.STA.BASS.ZS","value":"People using at least basic sanitation services (% of population)"},"country":{"id":"1A","value":"Arab World"},"countryiso3code":"ARB","date":"2000","value":73.6382550933011,"unit":"","obs_status":"","decimal":0},{"indicator":{"id":"SH.STA.BASS.ZS","value":"People using at least basic sanitation services (% of population)"},"country":{"id":"1A","value":"Arab World"},"countryiso3code":"ARB","date":"1999","value":null,"unit":"","obs_status":"","decimal":0},{"indicator":{"id":"SH.STA.BASS.ZS","value":"People using at least basic sanitation services (% of population)"},"country":{"id":"1A","value":"Arab World"},"countryiso3code":"ARB","date":"1998","value":null,"unit":"","obs_status":"","decimal":0},{"indicator":{"id":"SH.STA.BASS.ZS","value":"People using at least basic sanitation services (% of population)"},"country":{"id":"1A","value":"Arab World"},"countryiso3code":"ARB","date":"1997","value":null,"unit":"","obs_status":"","decimal":0},{"indicator":{"id":"SH.STA.BASS.ZS","value":"People using at least basic sanitation services (% of population)"},"country":{"id":"1A","value":"Arab World"},"countryiso3code":"ARB","date":"1996","value":null,"unit":"","obs_status":"","decimal":0},{"indicator":{"id":"SH.STA.BASS.ZS","value":"People using at least basic sanitation services (% of population)"},"country":{"id":"1A","value":"Arab World"},"countryiso3code":"ARB","date":"1995","value":null,"unit":"","obs_status":"","decimal":0},{"indicator":{"id":"SH.STA.BASS.ZS","value":"People using at least basic sanitation services (% of population)"},"country":{"id":"1A","value":"Arab World"},"countryiso3code":"ARB","date":"1994","value":null,"unit":"","obs_status":"","decimal":0},{"indicator":{"id":"SH.STA.BASS.ZS","value":"People using at least basic sanitation services (% of population)"},"country":{"id":"1A","value":"Arab World"},"countryiso3code":"ARB","date":"1993","value":null,"unit":"","obs_status":"","decimal":0},{"indicator":{"id":"SH.STA.BASS.ZS","value":"People using at least basic sanitation services (% of population)"},"country":{"id":"1A","value":"Arab World"},"countryiso3code":"ARB","date":"1992","value":null,"unit":"","obs_status":"","decimal":0},{"indicator":{"id":"SH.STA.BASS.ZS","value":"People using at least basic sanitation services (% of population)"},"country":{"id":"1A","value":"Arab World"},"countryiso3code":"ARB","date":"1991","value":null,"unit":"","obs_status":"","decimal":0},{"indicator":{"id":"SH.STA.BASS.ZS","value":"People using at least basic sanitation services (% of population)"},"country":{"id":"1A","value":"Arab World"},"countryiso3code":"ARB","date":"1990","value":null,"unit":"","obs_status":"","decimal":0},{"indicator":{"id":"SH.STA.BASS.ZS","value":"People using at least basic sanitation services (% of population)"},"country":{"id":"1A","value":"Arab World"},"countryiso3code":"ARB","date":"1989","value":null,"unit":"","obs_status":"","decimal":0},{"indicator":{"id":"SH.STA.BASS.ZS","value":"People using at least basic sanitation services (% of population)"},"country":{"id":"1A","value":"Arab World"},"countryiso3code":"ARB","date":"1988","value":null,"unit":"","obs_status":"","decimal":0},{"indicator":{"id":"SH.STA.BASS.ZS","value":"People using at least basic sanitation services (% of population)"},"country":{"id":"1A","value":"Arab World"},"countryiso3code":"ARB","date":"1987","value":null,"unit":"","obs_status":"","decimal":0},{"indicator":{"id":"SH.STA.BASS.ZS","value":"People using at least basic sanitation services (% of population)"},"country":{"id":"1A","value":"Arab World"},"countryiso3code":"ARB","date":"1986","value":null,"unit":"","obs_status":"","decimal":0},{"indicator":{"id":"SH.STA.BASS.ZS","value":"People using at least basic sanitation services (% of population)"},"country":{"id":"1A","value":"Arab World"},"countryiso3code":"ARB","date":"1985","value":null,"unit":"","obs_status":"","decimal":0},{"indicator":{"id":"SH.STA.BASS.ZS","value":"People using at least basic sanitation services (% of population)"},"country":{"id":"1A","value":"Arab World"},"countryiso3code":"ARB","date":"1984","value":null,"unit":"","obs_status":"","decimal":0},{"indicator":{"id":"SH.STA.BASS.ZS","value":"People using at least basic sanitation services (% of population)"},"country":{"id":"1A","value":"Arab World"},"countryiso3code":"ARB","date":"1983","value":null,"unit":"","obs_status":"","decimal":0},{"indicator":{"id":"SH.STA.BASS.ZS","value":"People using at least basic sanitation services (% of population)"},"country":{"id":"1A","value":"Arab World"},"countryiso3code":"ARB","date":"1982","value":null,"unit":"","obs_status":"","decimal":0},{"indicator":{"id":"SH.STA.BASS.ZS","value":"People using at least basic sanitation services (% of population)"},"country":{"id":"1A","value":"Arab World"},"countryiso3code":"ARB","date":"1981","value":null,"unit":"","obs_status":"","decimal":0},{"indicator":{"id":"SH.STA.BASS.ZS","value":"People using at least basic sanitation services (% of population)"},"country":{"id":"1A","value":"Arab World"},"countryiso3code":"ARB","date":"1980","value":null,"unit":"","obs_status":"","decimal":0},{"indicator":{"id":"SH.STA.BASS.ZS","value":"People using at least basic sanitation services (% of population)"},"country":{"id":"1A","value":"Arab World"},"countryiso3code":"ARB","date":"1979","value":null,"unit":"","obs_status":"","decimal":0},{"indicator":{"id":"SH.STA.BASS.ZS","value":"People using at least basic sanitation services (% of population)"},"country":{"id":"1A","value":"Arab World"},"countryiso3code":"ARB","date":"1978","value":null,"unit":"","obs_status":"","decimal":0},{"indicator":{"id":"SH.STA.BASS.ZS","value":"People using at least basic sanitation services (% of population)"},"country":{"id":"1A","value":"Arab World"},"countryiso3code":"ARB","date":"1977","value":null,"unit":"","obs_status":"","decimal":0},{"indicator":{"id":"SH.STA.BASS.ZS","value":"People using at least basic sanitation services (% of population)"},"country":{"id":"1A","value":"Arab World"},"countryiso3code":"ARB","date":"1976","value":null,"unit":"","obs_status":"","decimal":0},{"indicator":{"id":"SH.STA.BASS.ZS","value":"People using at least basic sanitation services (% of population)"},"country":{"id":"1A","value":"Arab World"},"countryiso3code":"ARB","date":"1975","value":null,"unit":"","obs_status":"","decimal":0},{"indicator":{"id":"SH.STA.BASS.ZS","value":"People using at least basic sanitation services (% of population)"},"country":{"id":"1A","value":"Arab World"},"countryiso3code":"ARB","date":"1974","value":null,"unit":"","obs_status":"","decimal":0},{"indicator":{"id":"SH.STA.BASS.ZS","value":"People using at least basic sanitation services (% of population)"},"country":{"id":"1A","value":"Arab World"},"countryiso3code":"ARB","date":"1973","value":null,"unit":"","obs_status":"","decimal":0},{"indicator":{"id":"SH.STA.BASS.ZS","value":"People using at least basic sanitation services (% of population)"},"country":{"id":"1A","value":"Arab World"},"countryiso3code":"ARB","date":"1972","value":null,"unit":"","obs_status":"","decimal":0},{"indicator":{"id":"SH.STA.BASS.ZS","value":"People using at least basic sanitation services (% of population)"},"country":{"id":"1A","value":"Arab World"},"countryiso3code":"ARB","date":"1971","value":null,"unit":"","obs_status":"","decimal":0},{"indicator":{"id":"SH.STA.BASS.ZS","value":"People using at least basic sanitation services (% of population)"},"country":{"id":"1A","value":"Arab World"},"countryiso3code":"ARB","date":"1970","value":null,"unit":"","obs_status":"","decimal":0}]]