[{"page":1,"pages":317,"per_page":50,"total":15840,"sourceid":"13","lastupdated":"2020-03-18"},[{"indicator":{"id":"SP.POP.65UP.FE.ZS","value":"Population ages 65 and above, female (% of female population)"},"country":{"id":"1A","value":"Arab World"},"countryiso3code":"ARB","date":"2019","value":null,"unit":"","obs_status":"","decimal":0},{"indicator":{"id":"SP.POP.65UP.FE.ZS","value":"Population ages 65 and above, female (% of female population)"},"country":{"id":"1A","value":"Arab World"},"countryiso3code":"ARB","date":"2018","value":5.03439618015528,"unit":"","obs_status":"","decimal":0},{"indicator":{"id":"SP.POP.65UP.FE.ZS","value":"Population ages 65 and above, female (% of female population)"},"country":{"id":"1A","value":"Arab World"},"countryiso3code":"ARB","date":"2017","value":4.93387279349885,"unit":"","obs_status":"","decimal":0},{"indicator":{"id":"SP.POP.65UP.FE.ZS","value":"Population ages 65 and above, female (% of female population)"},"country":{"id":"1A","value":"Arab World"},"countryiso3code":"ARB","date":"2016","value":4.84569211804719,"unit":"","obs_status":"","decimal":0},{"indicator":{"id":"SP.POP.65UP.FE.ZS","value":"Population ages 65 and above, female (% of female population)"},"country":{"id":"1A","value":"Arab World"},"countryiso3code":"ARB","date":"2015","value":4.77484608715792,"unit":"","obs_status":"","decimal":0},{"indicator":{"id":"SP.POP.65UP.FE.ZS","value":"Population ages 65 and above, female (% of female population)"},"country":{"id":"1A","value":"Arab World"},"countryiso3code":"ARB","date":"2014","value":4.71947676080165,"unit":"","obs_status":"","decimal":0},{"indicator":{"id":"SP.POP.65UP.FE.ZS","value":"Population ages 65 and above, female (% of female population)"},"country":{"id":"1A","value":"Arab World"},"countryiso3code":"ARB","date":"2013","value":4.6817452773365,"unit":"","obs_status":"","decimal":0},{"indicator":{"id":"SP.POP.65UP.FE.ZS","value":"Population ages 65 and above, female (% of female population)"},"country":{"id":"1A","value":"Arab World"},"countryiso3code":"ARB","date":"2012","value":4.65725623087879,"unit":"","obs_status":"","decimal":0},{"indicator":{"id":"SP.POP.65UP.FE.ZS","value":"Population ages 65 and above, female (% of female population)"},"country":{"id":"1A","value":"Arab World"},"countryiso3code":"ARB","date":"2011","value":4.63908236220407,"unit":"","obs_status":"","decimal":0},{"indicator":{"id":"SP.POP.65UP.FE.ZS","value":"Population ages 65 and above, female (% of female population)"},"country":{"id":"1A","value":"Arab World"},"countryiso3code":"ARB","date":"2010","value":4.62236916097831,"unit":"","obs_status":"","decimal":0},{"indicator":{"id":"SP.POP.65UP.FE.ZS","value":"Population ages 65 and above, female (% of female population)"},"country":{"id":"1A","value":"Arab World"},"countryiso3code":"ARB","date":"2009","value":4.60350132067349,"unit":"","obs_status":"","decimal":0},{"indicator":{"id":"SP.POP.65UP.FE.ZS","value":"Population ages 65 and above, female (% of female population)"},"country":{"id":"1A","value":"Arab World"},"countryiso3code":"ARB","date":"2008","value":4.5902758939881,"unit":"","obs_status":"","decimal":0},{"indicator":{"id":"SP.POP.65UP.FE.ZS","value":"Population ages 65 and above, female (% of female population)"},"country":{"id":"1A","value":"Arab World"},"countryiso3code":"ARB","date":"2007","value":4.57964733009047,"unit":"","obs_status":"","decimal":0},{"indicator":{"id":"SP.POP.65UP.FE.ZS","value":"Population ages 65 and above, female (% of female population)"},"country":{"id":"1A","value":"Arab World"},"countryiso3code":"ARB","date":"2006","value":4.56704602220962,"unit":"","obs_status":"","decimal":0},{"indicator":{"id":"SP.POP.65UP.FE.ZS","value":"Population ages 65 and above, female (% of female population)"},"country":{"id":"1A","value":"Arab World"},"countryiso3code":"ARB","date":"2005","value":4.54826272038387,"unit":"","obs_status":"","decimal":0},{"indicator":{"id":"SP.POP.65UP.FE.ZS","value":"Population ages 65 and above, female (% of female population)"},"country":{"id":"1A","value":"Arab World"},"countryiso3code":"ARB","date":"2004","value":4.53385829557628,"unit":"","obs_status":"","decimal":0},{"indicator":{"id":"SP.POP.65UP.FE.ZS","value":"Population ages 65 and above, female (% of female population)"},"country":{"id":"1A","value":"Arab World"},"countryiso3code":"ARB","date":"2003","value":4.51384716413796,"unit":"","obs_status":"","decimal":0},{"indicator":{"id":"SP.POP.65UP.FE.ZS","value":"Population ages 65 and above, female (% of female population)"},"country":{"id":"1A","value":"Arab World"},"countryiso3code":"ARB","date":"2002","value":4.48879526651205,"unit":"","obs_status":"","decimal":0},{"indicator":{"id":"SP.POP.65UP.FE.ZS","value":"Population ages 65 and above, female (% of female population)"},"country":{"id":"1A","value":"Arab World"},"countryiso3code":"ARB","date":"2001","value":4.46067215238642,"unit":"","obs_status":"","decimal":0},{"indicator":{"id":"SP.POP.65UP.FE.ZS","value":"Population ages 65 and above, female (% of female population)"},"country":{"id":"1A","value":"Arab World"},"countryiso3code":"ARB","date":"2000","value":4.43000790854261,"unit":"","obs_status":"","decimal":0},{"indicator":{"id":"SP.POP.65UP.FE.ZS","value":"Population ages 65 and above, female (% of female population)"},"country":{"id":"1A","value":"Arab World"},"countryiso3code":"ARB","date":"1999","value":4.3922754905744,"unit":"","obs_status":"","decimal":0},{"indicator":{"id":"SP.POP.65UP.FE.ZS","value":"Population ages 65 and above, female (% of female population)"},"country":{"id":"1A","value":"Arab World"},"countryiso3code":"ARB","date":"1998","value":4.35355268294375,"unit":"","obs_status":"","decimal":0},{"indicator":{"id":"SP.POP.65UP.FE.ZS","value":"Population ages 65 and above, female (% of female population)"},"country":{"id":"1A","value":"Arab World"},"countryiso3code":"ARB","date":"1997","value":4.31351044274484,"unit":"","obs_status":"","decimal":0},{"indicator":{"id":"SP.POP.65UP.FE.ZS","value":"Population ages 65 and above, female (% of female population)"},"country":{"id":"1A","value":"Arab World"},"countryiso3code":"ARB","date":"1996","value":4.27229147983481,"unit":"","obs_status":"","decimal":0},{"indicator":{"id":"SP.POP.65UP.FE.ZS","value":"Population ages 65 and above, female (% of female population)"},"country":{"id":"1A","value":"Arab World"},"countryiso3code":"ARB","date":"1995","value":4.22880870066018,"unit":"","obs_status":"","decimal":0},{"indicator":{"id":"SP.POP.65UP.FE.ZS","value":"Population ages 65 and above, female (% of female population)"},"country":{"id":"1A","value":"Arab World"},"countryiso3code":"ARB","date":"1994","value":4.20524771818503,"unit":"","obs_status":"","decimal":0},{"indicator":{"id":"SP.POP.65UP.FE.ZS","value":"Population ages 65 and above, female (% of female population)"},"country":{"id":"1A","value":"Arab World"},"countryiso3code":"ARB","date":"1993","value":4.16889252090049,"unit":"","obs_status":"","decimal":0},{"indicator":{"id":"SP.POP.65UP.FE.ZS","value":"Population ages 65 and above, female (% of female population)"},"country":{"id":"1A","value":"Arab World"},"countryiso3code":"ARB","date":"1992","value":4.13451430485173,"unit":"","obs_status":"","decimal":0},{"indicator":{"id":"SP.POP.65UP.FE.ZS","value":"Population ages 65 and above, female (% of female population)"},"country":{"id":"1A","value":"Arab World"},"countryiso3code":"ARB","date":"1991","value":4.0808426029879,"unit":"","obs_status":"","decimal":0},{"indicator":{"id":"SP.POP.65UP.FE.ZS","value":"Population ages 65 and above, female (% of female population)"},"country":{"id":"1A","value":"Arab World"},"countryiso3code":"ARB","date":"1990","value":4.04733846138934,"unit":"","obs_status":"","decimal":0},{"indicator":{"id":"SP.POP.65UP.FE.ZS","value":"Population ages 65 and above, female (% of female population)"},"country":{"id":"1A","value":"Arab World"},"countryiso3code":"ARB","date":"1989","value":4.03695299406095,"unit":"","obs_status":"","decimal":0},{"indicator":{"id":"SP.POP.65UP.FE.ZS","value":"Population ages 65 and above, female (% of female population)"},"country":{"id":"1A","value":"Arab World"},"countryiso3code":"ARB","date":"1988","value":4.01799903013843,"unit":"","obs_status":"","decimal":0},{"indicator":{"id":"SP.POP.65UP.FE.ZS","value":"Population ages 65 and above, female (% of female population)"},"country":{"id":"1A","value":"Arab World"},"countryiso3code":"ARB","date":"1987","value":4.00439746328393,"unit":"","obs_status":"","decimal":0},{"indicator":{"id":"SP.POP.65UP.FE.ZS","value":"Population ages 65 and above, female (% of female population)"},"country":{"id":"1A","value":"Arab World"},"countryiso3code":"ARB","date":"1986","value":3.99485459160685,"unit":"","obs_status":"","decimal":0},{"indicator":{"id":"SP.POP.65UP.FE.ZS","value":"Population ages 65 and above, female (% of female population)"},"country":{"id":"1A","value":"Arab World"},"countryiso3code":"ARB","date":"1985","value":3.98797524314554,"unit":"","obs_status":"","decimal":0},{"indicator":{"id":"SP.POP.65UP.FE.ZS","value":"Population ages 65 and above, female (% of female population)"},"country":{"id":"1A","value":"Arab World"},"countryiso3code":"ARB","date":"1984","value":3.98954868926771,"unit":"","obs_status":"","decimal":0},{"indicator":{"id":"SP.POP.65UP.FE.ZS","value":"Population ages 65 and above, female (% of female population)"},"country":{"id":"1A","value":"Arab World"},"countryiso3code":"ARB","date":"1983","value":3.99454350524614,"unit":"","obs_status":"","decimal":0},{"indicator":{"id":"SP.POP.65UP.FE.ZS","value":"Population ages 65 and above, female (% of female population)"},"country":{"id":"1A","value":"Arab World"},"countryiso3code":"ARB","date":"1982","value":4.00171111090834,"unit":"","obs_status":"","decimal":0},{"indicator":{"id":"SP.POP.65UP.FE.ZS","value":"Population ages 65 and above, female (% of female population)"},"country":{"id":"1A","value":"Arab World"},"countryiso3code":"ARB","date":"1981","value":4.00985910715877,"unit":"","obs_status":"","decimal":0},{"indicator":{"id":"SP.POP.65UP.FE.ZS","value":"Population ages 65 and above, female (% of female population)"},"country":{"id":"1A","value":"Arab World"},"countryiso3code":"ARB","date":"1980","value":4.01763012628697,"unit":"","obs_status":"","decimal":0},{"indicator":{"id":"SP.POP.65UP.FE.ZS","value":"Population ages 65 and above, female (% of female population)"},"country":{"id":"1A","value":"Arab World"},"countryiso3code":"ARB","date":"1979","value":4.0325031619919,"unit":"","obs_status":"","decimal":0},{"indicator":{"id":"SP.POP.65UP.FE.ZS","value":"Population ages 65 and above, female (% of female population)"},"country":{"id":"1A","value":"Arab World"},"countryiso3code":"ARB","date":"1978","value":4.04896596687843,"unit":"","obs_status":"","decimal":0},{"indicator":{"id":"SP.POP.65UP.FE.ZS","value":"Population ages 65 and above, female (% of female population)"},"country":{"id":"1A","value":"Arab World"},"countryiso3code":"ARB","date":"1977","value":4.06428433848418,"unit":"","obs_status":"","decimal":0},{"indicator":{"id":"SP.POP.65UP.FE.ZS","value":"Population ages 65 and above, female (% of female population)"},"country":{"id":"1A","value":"Arab World"},"countryiso3code":"ARB","date":"1976","value":4.07437377182882,"unit":"","obs_status":"","decimal":0},{"indicator":{"id":"SP.POP.65UP.FE.ZS","value":"Population ages 65 and above, female (% of female population)"},"country":{"id":"1A","value":"Arab World"},"countryiso3code":"ARB","date":"1975","value":4.07578007408846,"unit":"","obs_status":"","decimal":0},{"indicator":{"id":"SP.POP.65UP.FE.ZS","value":"Population ages 65 and above, female (% of female population)"},"country":{"id":"1A","value":"Arab World"},"countryiso3code":"ARB","date":"1974","value":4.07572412312054,"unit":"","obs_status":"","decimal":0},{"indicator":{"id":"SP.POP.65UP.FE.ZS","value":"Population ages 65 and above, female (% of female population)"},"country":{"id":"1A","value":"Arab World"},"countryiso3code":"ARB","date":"1973","value":4.06700175867059,"unit":"","obs_status":"","decimal":0},{"indicator":{"id":"SP.POP.65UP.FE.ZS","value":"Population ages 65 and above, female (% of female population)"},"country":{"id":"1A","value":"Arab World"},"countryiso3code":"ARB","date":"1972","value":4.05112547363688,"unit":"","obs_status":"","decimal":0},{"indicator":{"id":"SP.POP.65UP.FE.ZS","value":"Population ages 65 and above, female (% of female population)"},"country":{"id":"1A","value":"Arab World"},"countryiso3code":"ARB","date":"1971","value":4.03166217911171,"unit":"","obs_status":"","decimal":0},{"indicator":{"id":"SP.POP.65UP.FE.ZS","value":"Population ages 65 and above, female (% of female population)"},"country":{"id":"1A","value":"Arab World"},"countryiso3code":"ARB","date":"1970","value":4.01083932493546,"unit":"","obs_status":"","decimal":0}]]