[{"page":1,"pages":317,"per_page":50,"total":15840,"sourceid":"2","lastupdated":"2020-03-18"},[{"indicator":{"id":"SP.POP.0014.FE.ZS","value":"Population ages 0-14, female (% of female population)"},"country":{"id":"1A","value":"Arab World"},"countryiso3code":"ARB","date":"2019","value":null,"unit":"","obs_status":"","decimal":0},{"indicator":{"id":"SP.POP.0014.FE.ZS","value":"Population ages 0-14, female (% of female population)"},"country":{"id":"1A","value":"Arab World"},"countryiso3code":"ARB","date":"2018","value":33.232466769729,"unit":"","obs_status":"","decimal":0},{"indicator":{"id":"SP.POP.0014.FE.ZS","value":"Population ages 0-14, female (% of female population)"},"country":{"id":"1A","value":"Arab World"},"countryiso3code":"ARB","date":"2017","value":33.3286260746194,"unit":"","obs_status":"","decimal":0},{"indicator":{"id":"SP.POP.0014.FE.ZS","value":"Population ages 0-14, female (% of female population)"},"country":{"id":"1A","value":"Arab World"},"countryiso3code":"ARB","date":"2016","value":33.3913891866453,"unit":"","obs_status":"","decimal":0},{"indicator":{"id":"SP.POP.0014.FE.ZS","value":"Population ages 0-14, female (% of female population)"},"country":{"id":"1A","value":"Arab World"},"countryiso3code":"ARB","date":"2015","value":33.3968594907075,"unit":"","obs_status":"","decimal":0},{"indicator":{"id":"SP.POP.0014.FE.ZS","value":"Population ages 0-14, female (% of female population)"},"country":{"id":"1A","value":"Arab World"},"countryiso3code":"ARB","date":"2014","value":33.5281199657165,"unit":"","obs_status":"","decimal":0},{"indicator":{"id":"SP.POP.0014.FE.ZS","value":"Population ages 0-14, female (% of female population)"},"country":{"id":"1A","value":"Arab World"},"countryiso3code":"ARB","date":"2013","value":33.6584377718693,"unit":"","obs_status":"","decimal":0},{"indicator":{"id":"SP.POP.0014.FE.ZS","value":"Population ages 0-14, female (% of female population)"},"country":{"id":"1A","value":"Arab World"},"countryiso3code":"ARB","date":"2012","value":33.8050048570813,"unit":"","obs_status":"","decimal":0},{"indicator":{"id":"SP.POP.0014.FE.ZS","value":"Population ages 0-14, female (% of female population)"},"country":{"id":"1A","value":"Arab World"},"countryiso3code":"ARB","date":"2011","value":33.9896746200704,"unit":"","obs_status":"","decimal":0},{"indicator":{"id":"SP.POP.0014.FE.ZS","value":"Population ages 0-14, female (% of female population)"},"country":{"id":"1A","value":"Arab World"},"countryiso3code":"ARB","date":"2010","value":34.2225960629025,"unit":"","obs_status":"","decimal":0},{"indicator":{"id":"SP.POP.0014.FE.ZS","value":"Population ages 0-14, female (% of female population)"},"country":{"id":"1A","value":"Arab World"},"countryiso3code":"ARB","date":"2009","value":34.4799634230605,"unit":"","obs_status":"","decimal":0},{"indicator":{"id":"SP.POP.0014.FE.ZS","value":"Population ages 0-14, female (% of female population)"},"country":{"id":"1A","value":"Arab World"},"countryiso3code":"ARB","date":"2008","value":34.7813355064515,"unit":"","obs_status":"","decimal":0},{"indicator":{"id":"SP.POP.0014.FE.ZS","value":"Population ages 0-14, female (% of female population)"},"country":{"id":"1A","value":"Arab World"},"countryiso3code":"ARB","date":"2007","value":35.1280566695071,"unit":"","obs_status":"","decimal":0},{"indicator":{"id":"SP.POP.0014.FE.ZS","value":"Population ages 0-14, female (% of female population)"},"country":{"id":"1A","value":"Arab World"},"countryiso3code":"ARB","date":"2006","value":35.5198942407642,"unit":"","obs_status":"","decimal":0},{"indicator":{"id":"SP.POP.0014.FE.ZS","value":"Population ages 0-14, female (% of female population)"},"country":{"id":"1A","value":"Arab World"},"countryiso3code":"ARB","date":"2005","value":35.9531457948292,"unit":"","obs_status":"","decimal":0},{"indicator":{"id":"SP.POP.0014.FE.ZS","value":"Population ages 0-14, female (% of female population)"},"country":{"id":"1A","value":"Arab World"},"countryiso3code":"ARB","date":"2004","value":36.4053378568282,"unit":"","obs_status":"","decimal":0},{"indicator":{"id":"SP.POP.0014.FE.ZS","value":"Population ages 0-14, female (% of female population)"},"country":{"id":"1A","value":"Arab World"},"countryiso3code":"ARB","date":"2003","value":36.892202112195,"unit":"","obs_status":"","decimal":0},{"indicator":{"id":"SP.POP.0014.FE.ZS","value":"Population ages 0-14, female (% of female population)"},"country":{"id":"1A","value":"Arab World"},"countryiso3code":"ARB","date":"2002","value":37.3994028217655,"unit":"","obs_status":"","decimal":0},{"indicator":{"id":"SP.POP.0014.FE.ZS","value":"Population ages 0-14, female (% of female population)"},"country":{"id":"1A","value":"Arab World"},"countryiso3code":"ARB","date":"2001","value":37.9078705085272,"unit":"","obs_status":"","decimal":0},{"indicator":{"id":"SP.POP.0014.FE.ZS","value":"Population ages 0-14, female (% of female population)"},"country":{"id":"1A","value":"Arab World"},"countryiso3code":"ARB","date":"2000","value":38.4043648229413,"unit":"","obs_status":"","decimal":0},{"indicator":{"id":"SP.POP.0014.FE.ZS","value":"Population ages 0-14, female (% of female population)"},"country":{"id":"1A","value":"Arab World"},"countryiso3code":"ARB","date":"1999","value":38.9352246755923,"unit":"","obs_status":"","decimal":0},{"indicator":{"id":"SP.POP.0014.FE.ZS","value":"Population ages 0-14, female (% of female population)"},"country":{"id":"1A","value":"Arab World"},"countryiso3code":"ARB","date":"1998","value":39.4577159553863,"unit":"","obs_status":"","decimal":0},{"indicator":{"id":"SP.POP.0014.FE.ZS","value":"Population ages 0-14, female (% of female population)"},"country":{"id":"1A","value":"Arab World"},"countryiso3code":"ARB","date":"1997","value":39.9708522729074,"unit":"","obs_status":"","decimal":0},{"indicator":{"id":"SP.POP.0014.FE.ZS","value":"Population ages 0-14, female (% of female population)"},"country":{"id":"1A","value":"Arab World"},"countryiso3code":"ARB","date":"1996","value":40.4688151027783,"unit":"","obs_status":"","decimal":0},{"indicator":{"id":"SP.POP.0014.FE.ZS","value":"Population ages 0-14, female (% of female population)"},"country":{"id":"1A","value":"Arab World"},"countryiso3code":"ARB","date":"1995","value":40.9443364189407,"unit":"","obs_status":"","decimal":0},{"indicator":{"id":"SP.POP.0014.FE.ZS","value":"Population ages 0-14, female (% of female population)"},"country":{"id":"1A","value":"Arab World"},"countryiso3code":"ARB","date":"1994","value":41.4369588902858,"unit":"","obs_status":"","decimal":0},{"indicator":{"id":"SP.POP.0014.FE.ZS","value":"Population ages 0-14, female (% of female population)"},"country":{"id":"1A","value":"Arab World"},"countryiso3code":"ARB","date":"1993","value":41.8550696323568,"unit":"","obs_status":"","decimal":0},{"indicator":{"id":"SP.POP.0014.FE.ZS","value":"Population ages 0-14, female (% of female population)"},"country":{"id":"1A","value":"Arab World"},"countryiso3code":"ARB","date":"1992","value":42.2224800707267,"unit":"","obs_status":"","decimal":0},{"indicator":{"id":"SP.POP.0014.FE.ZS","value":"Population ages 0-14, female (% of female population)"},"country":{"id":"1A","value":"Arab World"},"countryiso3code":"ARB","date":"1991","value":42.5054416936917,"unit":"","obs_status":"","decimal":0},{"indicator":{"id":"SP.POP.0014.FE.ZS","value":"Population ages 0-14, female (% of female population)"},"country":{"id":"1A","value":"Arab World"},"countryiso3code":"ARB","date":"1990","value":42.7736256858325,"unit":"","obs_status":"","decimal":0},{"indicator":{"id":"SP.POP.0014.FE.ZS","value":"Population ages 0-14, female (% of female population)"},"country":{"id":"1A","value":"Arab World"},"countryiso3code":"ARB","date":"1989","value":42.9401027574011,"unit":"","obs_status":"","decimal":0},{"indicator":{"id":"SP.POP.0014.FE.ZS","value":"Population ages 0-14, female (% of female population)"},"country":{"id":"1A","value":"Arab World"},"countryiso3code":"ARB","date":"1988","value":43.1084380600824,"unit":"","obs_status":"","decimal":0},{"indicator":{"id":"SP.POP.0014.FE.ZS","value":"Population ages 0-14, female (% of female population)"},"country":{"id":"1A","value":"Arab World"},"countryiso3code":"ARB","date":"1987","value":43.2386796850824,"unit":"","obs_status":"","decimal":0},{"indicator":{"id":"SP.POP.0014.FE.ZS","value":"Population ages 0-14, female (% of female population)"},"country":{"id":"1A","value":"Arab World"},"countryiso3code":"ARB","date":"1986","value":43.333486831269,"unit":"","obs_status":"","decimal":0},{"indicator":{"id":"SP.POP.0014.FE.ZS","value":"Population ages 0-14, female (% of female population)"},"country":{"id":"1A","value":"Arab World"},"countryiso3code":"ARB","date":"1985","value":43.3865235563654,"unit":"","obs_status":"","decimal":0},{"indicator":{"id":"SP.POP.0014.FE.ZS","value":"Population ages 0-14, female (% of female population)"},"country":{"id":"1A","value":"Arab World"},"countryiso3code":"ARB","date":"1984","value":43.5519496641695,"unit":"","obs_status":"","decimal":0},{"indicator":{"id":"SP.POP.0014.FE.ZS","value":"Population ages 0-14, female (% of female population)"},"country":{"id":"1A","value":"Arab World"},"countryiso3code":"ARB","date":"1983","value":43.6978383024558,"unit":"","obs_status":"","decimal":0},{"indicator":{"id":"SP.POP.0014.FE.ZS","value":"Population ages 0-14, female (% of female population)"},"country":{"id":"1A","value":"Arab World"},"countryiso3code":"ARB","date":"1982","value":43.8210332822689,"unit":"","obs_status":"","decimal":0},{"indicator":{"id":"SP.POP.0014.FE.ZS","value":"Population ages 0-14, female (% of female population)"},"country":{"id":"1A","value":"Arab World"},"countryiso3code":"ARB","date":"1981","value":43.9136059310728,"unit":"","obs_status":"","decimal":0},{"indicator":{"id":"SP.POP.0014.FE.ZS","value":"Population ages 0-14, female (% of female population)"},"country":{"id":"1A","value":"Arab World"},"countryiso3code":"ARB","date":"1980","value":43.9680209684886,"unit":"","obs_status":"","decimal":0},{"indicator":{"id":"SP.POP.0014.FE.ZS","value":"Population ages 0-14, female (% of female population)"},"country":{"id":"1A","value":"Arab World"},"countryiso3code":"ARB","date":"1979","value":44.0608799624987,"unit":"","obs_status":"","decimal":0},{"indicator":{"id":"SP.POP.0014.FE.ZS","value":"Population ages 0-14, female (% of female population)"},"country":{"id":"1A","value":"Arab World"},"countryiso3code":"ARB","date":"1978","value":44.1222137403976,"unit":"","obs_status":"","decimal":0},{"indicator":{"id":"SP.POP.0014.FE.ZS","value":"Population ages 0-14, female (% of female population)"},"country":{"id":"1A","value":"Arab World"},"countryiso3code":"ARB","date":"1977","value":44.1556141269746,"unit":"","obs_status":"","decimal":0},{"indicator":{"id":"SP.POP.0014.FE.ZS","value":"Population ages 0-14, female (% of female population)"},"country":{"id":"1A","value":"Arab World"},"countryiso3code":"ARB","date":"1976","value":44.1661861219001,"unit":"","obs_status":"","decimal":0},{"indicator":{"id":"SP.POP.0014.FE.ZS","value":"Population ages 0-14, female (% of female population)"},"country":{"id":"1A","value":"Arab World"},"countryiso3code":"ARB","date":"1975","value":44.1517302396462,"unit":"","obs_status":"","decimal":0},{"indicator":{"id":"SP.POP.0014.FE.ZS","value":"Population ages 0-14, female (% of female population)"},"country":{"id":"1A","value":"Arab World"},"countryiso3code":"ARB","date":"1974","value":44.2154860668371,"unit":"","obs_status":"","decimal":0},{"indicator":{"id":"SP.POP.0014.FE.ZS","value":"Population ages 0-14, female (% of female population)"},"country":{"id":"1A","value":"Arab World"},"countryiso3code":"ARB","date":"1973","value":44.2701534606798,"unit":"","obs_status":"","decimal":0},{"indicator":{"id":"SP.POP.0014.FE.ZS","value":"Population ages 0-14, female (% of female population)"},"country":{"id":"1A","value":"Arab World"},"countryiso3code":"ARB","date":"1972","value":44.299574144546,"unit":"","obs_status":"","decimal":0},{"indicator":{"id":"SP.POP.0014.FE.ZS","value":"Population ages 0-14, female (% of female population)"},"country":{"id":"1A","value":"Arab World"},"countryiso3code":"ARB","date":"1971","value":44.2836481538098,"unit":"","obs_status":"","decimal":0},{"indicator":{"id":"SP.POP.0014.FE.ZS","value":"Population ages 0-14, female (% of female population)"},"country":{"id":"1A","value":"Arab World"},"countryiso3code":"ARB","date":"1970","value":44.2044464740295,"unit":"","obs_status":"","decimal":0}]]