[{"page":1,"pages":317,"per_page":50,"total":15840,"sourceid":"2","lastupdated":"2020-03-18"},[{"indicator":{"id":"SP.POP.0014.TO.ZS","value":"Population ages 0-14 (% of total population)"},"country":{"id":"1A","value":"Arab World"},"countryiso3code":"ARB","date":"2019","value":null,"unit":"","obs_status":"","decimal":0},{"indicator":{"id":"SP.POP.0014.TO.ZS","value":"Population ages 0-14 (% of total population)"},"country":{"id":"1A","value":"Arab World"},"countryiso3code":"ARB","date":"2018","value":32.7804361810202,"unit":"","obs_status":"","decimal":0},{"indicator":{"id":"SP.POP.0014.TO.ZS","value":"Population ages 0-14 (% of total population)"},"country":{"id":"1A","value":"Arab World"},"countryiso3code":"ARB","date":"2017","value":32.8888127446091,"unit":"","obs_status":"","decimal":0},{"indicator":{"id":"SP.POP.0014.TO.ZS","value":"Population ages 0-14 (% of total population)"},"country":{"id":"1A","value":"Arab World"},"countryiso3code":"ARB","date":"2016","value":32.9659851825617,"unit":"","obs_status":"","decimal":0},{"indicator":{"id":"SP.POP.0014.TO.ZS","value":"Population ages 0-14 (% of total population)"},"country":{"id":"1A","value":"Arab World"},"countryiso3code":"ARB","date":"2015","value":32.9849017698703,"unit":"","obs_status":"","decimal":0},{"indicator":{"id":"SP.POP.0014.TO.ZS","value":"Population ages 0-14 (% of total population)"},"country":{"id":"1A","value":"Arab World"},"countryiso3code":"ARB","date":"2014","value":33.113480834424,"unit":"","obs_status":"","decimal":0},{"indicator":{"id":"SP.POP.0014.TO.ZS","value":"Population ages 0-14 (% of total population)"},"country":{"id":"1A","value":"Arab World"},"countryiso3code":"ARB","date":"2013","value":33.2398758659951,"unit":"","obs_status":"","decimal":0},{"indicator":{"id":"SP.POP.0014.TO.ZS","value":"Population ages 0-14 (% of total population)"},"country":{"id":"1A","value":"Arab World"},"countryiso3code":"ARB","date":"2012","value":33.3853237112688,"unit":"","obs_status":"","decimal":0},{"indicator":{"id":"SP.POP.0014.TO.ZS","value":"Population ages 0-14 (% of total population)"},"country":{"id":"1A","value":"Arab World"},"countryiso3code":"ARB","date":"2011","value":33.5760960898571,"unit":"","obs_status":"","decimal":0},{"indicator":{"id":"SP.POP.0014.TO.ZS","value":"Population ages 0-14 (% of total population)"},"country":{"id":"1A","value":"Arab World"},"countryiso3code":"ARB","date":"2010","value":33.824264134674,"unit":"","obs_status":"","decimal":0},{"indicator":{"id":"SP.POP.0014.TO.ZS","value":"Population ages 0-14 (% of total population)"},"country":{"id":"1A","value":"Arab World"},"countryiso3code":"ARB","date":"2009","value":34.1192808125854,"unit":"","obs_status":"","decimal":0},{"indicator":{"id":"SP.POP.0014.TO.ZS","value":"Population ages 0-14 (% of total population)"},"country":{"id":"1A","value":"Arab World"},"countryiso3code":"ARB","date":"2008","value":34.4749301887445,"unit":"","obs_status":"","decimal":0},{"indicator":{"id":"SP.POP.0014.TO.ZS","value":"Population ages 0-14 (% of total population)"},"country":{"id":"1A","value":"Arab World"},"countryiso3code":"ARB","date":"2007","value":34.8878966853198,"unit":"","obs_status":"","decimal":0},{"indicator":{"id":"SP.POP.0014.TO.ZS","value":"Population ages 0-14 (% of total population)"},"country":{"id":"1A","value":"Arab World"},"countryiso3code":"ARB","date":"2006","value":35.3476533719099,"unit":"","obs_status":"","decimal":0},{"indicator":{"id":"SP.POP.0014.TO.ZS","value":"Population ages 0-14 (% of total population)"},"country":{"id":"1A","value":"Arab World"},"countryiso3code":"ARB","date":"2005","value":35.8409296164555,"unit":"","obs_status":"","decimal":0},{"indicator":{"id":"SP.POP.0014.TO.ZS","value":"Population ages 0-14 (% of total population)"},"country":{"id":"1A","value":"Arab World"},"countryiso3code":"ARB","date":"2004","value":36.3380622629458,"unit":"","obs_status":"","decimal":0},{"indicator":{"id":"SP.POP.0014.TO.ZS","value":"Population ages 0-14 (% of total population)"},"country":{"id":"1A","value":"Arab World"},"countryiso3code":"ARB","date":"2003","value":36.8613406011663,"unit":"","obs_status":"","decimal":0},{"indicator":{"id":"SP.POP.0014.TO.ZS","value":"Population ages 0-14 (% of total population)"},"country":{"id":"1A","value":"Arab World"},"countryiso3code":"ARB","date":"2002","value":37.4002666456328,"unit":"","obs_status":"","decimal":0},{"indicator":{"id":"SP.POP.0014.TO.ZS","value":"Population ages 0-14 (% of total population)"},"country":{"id":"1A","value":"Arab World"},"countryiso3code":"ARB","date":"2001","value":37.9414416459455,"unit":"","obs_status":"","decimal":0},{"indicator":{"id":"SP.POP.0014.TO.ZS","value":"Population ages 0-14 (% of total population)"},"country":{"id":"1A","value":"Arab World"},"countryiso3code":"ARB","date":"2000","value":38.4748807906417,"unit":"","obs_status":"","decimal":0},{"indicator":{"id":"SP.POP.0014.TO.ZS","value":"Population ages 0-14 (% of total population)"},"country":{"id":"1A","value":"Arab World"},"countryiso3code":"ARB","date":"1999","value":38.9850884839636,"unit":"","obs_status":"","decimal":0},{"indicator":{"id":"SP.POP.0014.TO.ZS","value":"Population ages 0-14 (% of total population)"},"country":{"id":"1A","value":"Arab World"},"countryiso3code":"ARB","date":"1998","value":39.4880940977133,"unit":"","obs_status":"","decimal":0},{"indicator":{"id":"SP.POP.0014.TO.ZS","value":"Population ages 0-14 (% of total population)"},"country":{"id":"1A","value":"Arab World"},"countryiso3code":"ARB","date":"1997","value":39.9840662208345,"unit":"","obs_status":"","decimal":0},{"indicator":{"id":"SP.POP.0014.TO.ZS","value":"Population ages 0-14 (% of total population)"},"country":{"id":"1A","value":"Arab World"},"countryiso3code":"ARB","date":"1996","value":40.4654071925889,"unit":"","obs_status":"","decimal":0},{"indicator":{"id":"SP.POP.0014.TO.ZS","value":"Population ages 0-14 (% of total population)"},"country":{"id":"1A","value":"Arab World"},"countryiso3code":"ARB","date":"1995","value":40.9215170386893,"unit":"","obs_status":"","decimal":0},{"indicator":{"id":"SP.POP.0014.TO.ZS","value":"Population ages 0-14 (% of total population)"},"country":{"id":"1A","value":"Arab World"},"countryiso3code":"ARB","date":"1994","value":41.4619818722999,"unit":"","obs_status":"","decimal":0},{"indicator":{"id":"SP.POP.0014.TO.ZS","value":"Population ages 0-14 (% of total population)"},"country":{"id":"1A","value":"Arab World"},"countryiso3code":"ARB","date":"1993","value":41.8914407057867,"unit":"","obs_status":"","decimal":0},{"indicator":{"id":"SP.POP.0014.TO.ZS","value":"Population ages 0-14 (% of total population)"},"country":{"id":"1A","value":"Arab World"},"countryiso3code":"ARB","date":"1992","value":42.2689682171186,"unit":"","obs_status":"","decimal":0},{"indicator":{"id":"SP.POP.0014.TO.ZS","value":"Population ages 0-14 (% of total population)"},"country":{"id":"1A","value":"Arab World"},"countryiso3code":"ARB","date":"1991","value":42.5138687267589,"unit":"","obs_status":"","decimal":0},{"indicator":{"id":"SP.POP.0014.TO.ZS","value":"Population ages 0-14 (% of total population)"},"country":{"id":"1A","value":"Arab World"},"countryiso3code":"ARB","date":"1990","value":42.7916175213463,"unit":"","obs_status":"","decimal":0},{"indicator":{"id":"SP.POP.0014.TO.ZS","value":"Population ages 0-14 (% of total population)"},"country":{"id":"1A","value":"Arab World"},"countryiso3code":"ARB","date":"1989","value":42.972162516949,"unit":"","obs_status":"","decimal":0},{"indicator":{"id":"SP.POP.0014.TO.ZS","value":"Population ages 0-14 (% of total population)"},"country":{"id":"1A","value":"Arab World"},"countryiso3code":"ARB","date":"1988","value":43.162384631329,"unit":"","obs_status":"","decimal":0},{"indicator":{"id":"SP.POP.0014.TO.ZS","value":"Population ages 0-14 (% of total population)"},"country":{"id":"1A","value":"Arab World"},"countryiso3code":"ARB","date":"1987","value":43.3205202565186,"unit":"","obs_status":"","decimal":0},{"indicator":{"id":"SP.POP.0014.TO.ZS","value":"Population ages 0-14 (% of total population)"},"country":{"id":"1A","value":"Arab World"},"countryiso3code":"ARB","date":"1986","value":43.4470813047383,"unit":"","obs_status":"","decimal":0},{"indicator":{"id":"SP.POP.0014.TO.ZS","value":"Population ages 0-14 (% of total population)"},"country":{"id":"1A","value":"Arab World"},"countryiso3code":"ARB","date":"1985","value":43.5311139640035,"unit":"","obs_status":"","decimal":0},{"indicator":{"id":"SP.POP.0014.TO.ZS","value":"Population ages 0-14 (% of total population)"},"country":{"id":"1A","value":"Arab World"},"countryiso3code":"ARB","date":"1984","value":43.708455768651,"unit":"","obs_status":"","decimal":0},{"indicator":{"id":"SP.POP.0014.TO.ZS","value":"Population ages 0-14 (% of total population)"},"country":{"id":"1A","value":"Arab World"},"countryiso3code":"ARB","date":"1983","value":43.868901174895,"unit":"","obs_status":"","decimal":0},{"indicator":{"id":"SP.POP.0014.TO.ZS","value":"Population ages 0-14 (% of total population)"},"country":{"id":"1A","value":"Arab World"},"countryiso3code":"ARB","date":"1982","value":44.0094124022219,"unit":"","obs_status":"","decimal":0},{"indicator":{"id":"SP.POP.0014.TO.ZS","value":"Population ages 0-14 (% of total population)"},"country":{"id":"1A","value":"Arab World"},"countryiso3code":"ARB","date":"1981","value":44.1224236131889,"unit":"","obs_status":"","decimal":0},{"indicator":{"id":"SP.POP.0014.TO.ZS","value":"Population ages 0-14 (% of total population)"},"country":{"id":"1A","value":"Arab World"},"countryiso3code":"ARB","date":"1980","value":44.2014402254557,"unit":"","obs_status":"","decimal":0},{"indicator":{"id":"SP.POP.0014.TO.ZS","value":"Population ages 0-14 (% of total population)"},"country":{"id":"1A","value":"Arab World"},"countryiso3code":"ARB","date":"1979","value":44.3345678712114,"unit":"","obs_status":"","decimal":0},{"indicator":{"id":"SP.POP.0014.TO.ZS","value":"Population ages 0-14 (% of total population)"},"country":{"id":"1A","value":"Arab World"},"countryiso3code":"ARB","date":"1978","value":44.4401484837164,"unit":"","obs_status":"","decimal":0},{"indicator":{"id":"SP.POP.0014.TO.ZS","value":"Population ages 0-14 (% of total population)"},"country":{"id":"1A","value":"Arab World"},"countryiso3code":"ARB","date":"1977","value":44.522778944925,"unit":"","obs_status":"","decimal":0},{"indicator":{"id":"SP.POP.0014.TO.ZS","value":"Population ages 0-14 (% of total population)"},"country":{"id":"1A","value":"Arab World"},"countryiso3code":"ARB","date":"1976","value":44.5882072679583,"unit":"","obs_status":"","decimal":0},{"indicator":{"id":"SP.POP.0014.TO.ZS","value":"Population ages 0-14 (% of total population)"},"country":{"id":"1A","value":"Arab World"},"countryiso3code":"ARB","date":"1975","value":44.6339990897929,"unit":"","obs_status":"","decimal":0},{"indicator":{"id":"SP.POP.0014.TO.ZS","value":"Population ages 0-14 (% of total population)"},"country":{"id":"1A","value":"Arab World"},"countryiso3code":"ARB","date":"1974","value":44.7192636426501,"unit":"","obs_status":"","decimal":0},{"indicator":{"id":"SP.POP.0014.TO.ZS","value":"Population ages 0-14 (% of total population)"},"country":{"id":"1A","value":"Arab World"},"countryiso3code":"ARB","date":"1973","value":44.7945865362188,"unit":"","obs_status":"","decimal":0},{"indicator":{"id":"SP.POP.0014.TO.ZS","value":"Population ages 0-14 (% of total population)"},"country":{"id":"1A","value":"Arab World"},"countryiso3code":"ARB","date":"1972","value":44.843530108158,"unit":"","obs_status":"","decimal":0},{"indicator":{"id":"SP.POP.0014.TO.ZS","value":"Population ages 0-14 (% of total population)"},"country":{"id":"1A","value":"Arab World"},"countryiso3code":"ARB","date":"1971","value":44.8462592241929,"unit":"","obs_status":"","decimal":0},{"indicator":{"id":"SP.POP.0014.TO.ZS","value":"Population ages 0-14 (% of total population)"},"country":{"id":"1A","value":"Arab World"},"countryiso3code":"ARB","date":"1970","value":44.7853782444812,"unit":"","obs_status":"","decimal":0}]]